(footprint "KXOB081K06F_Breakout_Khamsa+" (version 20221018) (generator pcbnew)
  (layer "F.Cu")
  (attr smd)
  (fp_text reference "REF**" (at 12.4661 23.5) (layer "F.Fab") hide
      (effects (font (size 1 1) (thickness 0.15)))
    (tstamp 19116ca1-2fc6-4e88-9239-0c431bb678b7)
  )
  (fp_text value "KXOB081K06F_Breakout_Khamsa+" (at 12.7 21.844) (layer "F.Fab") hide
      (effects (font (size 1 1) (thickness 0.15)))
    (tstamp 6d1c2f54-3d6e-443f-81a8-eb5f8acf285b)
  )
  (fp_line (start -13.335 -20.32) (end -13.335 -19.685)
    (stroke (width 0.1) (type default)) (layer "F.SilkS") (tstamp c4d89def-8d44-4e07-86d7-6fb2a26d70be))
  (fp_line (start -13.335 -9.525) (end -13.335 -8.255)
    (stroke (width 0.1) (type default)) (layer "F.SilkS") (tstamp 4700c8be-35a0-404d-bf46-8fb49d9f24e8))
  (fp_line (start -13.335 -8.255) (end -12.065 -8.255)
    (stroke (width 0.1) (type default)) (layer "F.SilkS") (tstamp d3c6c4d4-b391-4fb6-b0d4-3e6c7217a199))
  (fp_line (start -12.954 6.477) (end -12.954 8.128)
    (stroke (width 0.15) (type solid)) (layer "F.SilkS") (tstamp d3b56efb-f0c3-4cab-b907-1460e2f0c5d3))
  (fp_line (start -12.954 6.477) (end -12.065 6.477)
    (stroke (width 0.15) (type solid)) (layer "F.SilkS") (tstamp cbdcdacd-2bb0-47fc-8fd6-0b48c8f07cae))
  (fp_line (start -12.954 10.427335) (end -12.954 11.443335)
    (stroke (width 0.15) (type solid)) (layer "F.SilkS") (tstamp 1382ca88-501a-4ecf-bb91-99c42e75c4b8))
  (fp_line (start -12.954 11.443335) (end -12.185396 11.443335)
    (stroke (width 0.15) (type solid)) (layer "F.SilkS") (tstamp d4f72647-2eac-41f5-8fcc-23de8eb0280b))
  (fp_line (start -12.7 -20.32) (end -13.335 -20.32)
    (stroke (width 0.1) (type default)) (layer "F.SilkS") (tstamp 42f80994-c1b0-4ef9-82e2-dc7dfd10e7ab))
  (fp_line (start -12.065 -8.255) (end -12.065 -1.27)
    (stroke (width 0.1) (type default)) (layer "F.SilkS") (tstamp c7507ce4-8edc-49b8-bb8d-61d19b203652))
  (fp_line (start -12.065 3.81) (end -12.065 6.477)
    (stroke (width 0.1) (type default)) (layer "F.SilkS") (tstamp 829551d1-2714-4d5b-bbab-808611f03c79))
  (fp_line (start -3.937 19.685) (end 3.937 19.685)
    (stroke (width 0.15) (type solid)) (layer "F.SilkS") (tstamp 758df636-1c7c-475b-af90-edd9a49622cd))
  (fp_line (start -0.635 -20.32) (end 0 -20.32)
    (stroke (width 0.1) (type default)) (layer "F.SilkS") (tstamp cae6aefc-b22b-4a32-a8c6-81ade9851a5e))
  (fp_line (start 0 -20.32) (end -0.635 -20.32)
    (stroke (width 0.1) (type default)) (layer "F.SilkS") (tstamp 6f040969-f8c3-4b0b-a65c-aab90e087c29))
  (fp_line (start 0 -20.32) (end 0.635 -20.32)
    (stroke (width 0.1) (type default)) (layer "F.SilkS") (tstamp c6d5e2db-716a-4032-909f-73c8be9904c4))
  (fp_line (start 12.065 -8.255) (end 12.065 -1.27)
    (stroke (width 0.1) (type default)) (layer "F.SilkS") (tstamp 8b7def01-ca80-4bad-895f-437823c499cc))
  (fp_line (start 12.065 -8.255) (end 13.335 -8.255)
    (stroke (width 0.1) (type default)) (layer "F.SilkS") (tstamp edebf448-1b0c-4e79-925b-e384ffa53d9b))
  (fp_line (start 12.065 3.81) (end 12.065 6.604)
    (stroke (width 0.1) (type default)) (layer "F.SilkS") (tstamp 5a86d3bb-8590-4125-a3ae-c9c048d80b4d))
  (fp_line (start 12.7 -20.32) (end 13.335 -20.32)
    (stroke (width 0.1) (type default)) (layer "F.SilkS") (tstamp eeaa74fe-7567-4367-8dd1-daec7cc5e7a0))
  (fp_line (start 12.954 6.604) (end 12.065 6.604)
    (stroke (width 0.15) (type solid)) (layer "F.SilkS") (tstamp cc1820bc-aa29-4f7f-b543-f16c003286b9))
  (fp_line (start 12.954 6.604) (end 12.954 8.128)
    (stroke (width 0.15) (type solid)) (layer "F.SilkS") (tstamp 6c3ab548-e012-4041-8081-b291e07e36e7))
  (fp_line (start 12.954 10.427335) (end 12.954 11.443335)
    (stroke (width 0.15) (type solid)) (layer "F.SilkS") (tstamp c4f53d95-3db6-45a9-8056-32fc070a5854))
  (fp_line (start 12.954 11.443335) (end 12.198604 11.443335)
    (stroke (width 0.15) (type solid)) (layer "F.SilkS") (tstamp 201606b7-dd7e-4e84-a548-f913c7768b19))
  (fp_line (start 13.335 -19.685) (end 13.335 -20.32)
    (stroke (width 0.1) (type default)) (layer "F.SilkS") (tstamp 6a72d712-3891-4ba6-bd79-46293e9d4554))
  (fp_line (start 13.335 -8.255) (end 13.335 -9.525)
    (stroke (width 0.1) (type default)) (layer "F.SilkS") (tstamp 9a26f6bd-bd6f-40cb-a89b-f55c762e3482))
  (fp_line (start -12.693396 -19.798665) (end 12.706604 -19.798665)
    (stroke (width 0.05) (type solid)) (layer "Dwgs.User") (tstamp caedebf0-1cf8-4737-ba0c-e86162c3c87c))
  (fp_line (start -11.677396 -8.368665) (end 11.690604 -8.368665)
    (stroke (width 0.2) (type dot)) (layer "Dwgs.User") (tstamp 132ae40b-0891-4d5d-ae95-cb5b0770a22b))
  (fp_line (start -11.677396 17.031335) (end -11.677396 -8.368665)
    (stroke (width 0.2) (type dot)) (layer "Dwgs.User") (tstamp a8c10a52-9beb-4b5e-a63a-a8609ed4bcd6))
  (fp_line (start 11.690604 -8.368665) (end 11.690604 17.031335)
    (stroke (width 0.2) (type dot)) (layer "Dwgs.User") (tstamp 2ad51aaf-7ab9-4a65-9e74-778d45dbfbdd))
  (fp_line (start 11.690604 17.031335) (end -11.677396 17.031335)
    (stroke (width 0.2) (type dot)) (layer "Dwgs.User") (tstamp a159924d-3bd9-42b2-a896-f08b6d61c039))
  (fp_rect (start -11.938 3.229) (end -15.748 -0.454)
    (stroke (width 0.1) (type default)) (fill none) (layer "Dwgs.User") (tstamp 03cd4918-2955-4b5e-9f5f-5e73e8656c99))
  (fp_rect (start -11.938 15.548) (end -15.875 11.738)
    (stroke (width 0.1) (type default)) (fill none) (layer "Dwgs.User") (tstamp 16e5f3b7-2c6f-4047-a319-c04c2bbf5c99))
  (fp_rect (start 12.065 11.738) (end 15.875 15.548)
    (stroke (width 0.1) (type default)) (fill none) (layer "Dwgs.User") (tstamp a8a4faac-c488-486d-bc77-f29fbdee62b1))
  (fp_rect (start 15.875 3.229) (end 12.065 -0.454)
    (stroke (width 0.1) (type default)) (fill none) (layer "Dwgs.User") (tstamp e74867fc-2fe3-4b29-9768-7b565025c52e))
  (fp_line (start -15.7734 11.823192) (end -15.7734 15.531592)
    (stroke (width 0.2) (type solid)) (layer "User.1") (tstamp 488d2bb0-049e-4c2b-b353-bfeb90028223))
  (fp_line (start -15.7734 11.823192) (end -11.996699 11.823192)
    (stroke (width 0.2) (type solid)) (layer "User.1") (tstamp ae0d4ef3-bf44-4f37-81aa-8e2cbebdd9be))
  (fp_line (start -15.6972 -0.445008) (end -15.6972 3.263392)
    (stroke (width 0.2) (type solid)) (layer "User.1") (tstamp b4d4784c-3c8b-4e4d-8adf-75a84836e921))
  (fp_line (start -15.6972 -0.445008) (end -11.920499 -0.445008)
    (stroke (width 0.2) (type solid)) (layer "User.1") (tstamp 092f4909-54c3-4f64-9a7a-2eea6067751e))
  (fp_line (start -12.7 -19.885) (end -12.7 -8.446008)
    (stroke (width 0.2) (type solid)) (layer "User.1") (tstamp 4c13b5e6-6f6c-44aa-ae16-f4bdce4d0cdc))
  (fp_line (start -12.7 -19.885) (end 12.7 -19.885)
    (stroke (width 0.2) (type solid)) (layer "User.1") (tstamp e66182bb-c5c9-4d7a-9317-f1cb043bb7d6))
  (fp_line (start -12.682499 -8.446008) (end -11.539499 -8.446008)
    (stroke (width 0.2) (type solid)) (layer "User.1") (tstamp a4543576-4960-40e5-b33f-be695f0e76cc))
  (fp_line (start -12.664998 6.793992) (end -12.664998 11.23)
    (stroke (width 0.2) (type solid)) (layer "User.1") (tstamp 1accfe75-c6bd-4a6a-b318-d73f84d49f03))
  (fp_line (start -12.664998 11.23) (end -11.539499 11.23)
    (stroke (width 0.2) (type solid)) (layer "User.1") (tstamp bbf79776-bd6c-4607-a291-5c4060447841))
  (fp_line (start -11.996699 11.823192) (end -11.996699 15.531592)
    (stroke (width 0.2) (type solid)) (layer "User.1") (tstamp 0d1ec5a1-0352-4f7d-9315-0eee37dba1c9))
  (fp_line (start -11.996699 15.531592) (end -15.7734 15.531592)
    (stroke (width 0.2) (type solid)) (layer "User.1") (tstamp 75926dff-2682-450a-a0ec-7641eaa1dc4b))
  (fp_line (start -11.920499 -0.445008) (end -11.920499 3.263392)
    (stroke (width 0.2) (type solid)) (layer "User.1") (tstamp ba886f86-d0c7-43cf-b376-7b1777961b41))
  (fp_line (start -11.920499 3.263392) (end -15.6972 3.263392)
    (stroke (width 0.2) (type solid)) (layer "User.1") (tstamp 56cacf83-e161-4834-98e4-58ac80f27e63))
  (fp_line (start -11.539499 -8.446008) (end -11.539499 6.793992)
    (stroke (width 0.2) (type solid)) (layer "User.1") (tstamp eb8837c4-c468-4f37-b137-b8c614c18544))
  (fp_line (start -11.539499 6.793992) (end -12.664998 6.793992)
    (stroke (width 0.2) (type solid)) (layer "User.1") (tstamp ddb69855-5017-487a-8c55-b4338e8d58f6))
  (fp_line (start -11.5062 19.485) (end -11.5062 11.23)
    (stroke (width 0.2) (type solid)) (layer "User.1") (tstamp 2f87c628-fdf2-406b-9956-86ea7972526e))
  (fp_line (start -11.500002 -8.255) (end -11.500002 16.745001)
    (stroke (width 0.2) (type solid)) (layer "User.1") (tstamp 2a75d634-aa31-4109-a886-1c5458283dad))
  (fp_line (start -11.500002 -8.255) (end -11.500002 16.745001)
    (stroke (width 0.2) (type solid)) (layer "User.1") (tstamp 8b1d812d-8376-4644-96b6-92270cf2b490))
  (fp_line (start -11.500002 16.745001) (end 11.500003 16.745001)
    (stroke (width 0.2) (type solid)) (layer "User.1") (tstamp 07440d99-d4ca-4f66-b9e9-e24487735a97))
  (fp_line (start -11.500002 16.745001) (end 11.500003 16.745001)
    (stroke (width 0.2) (type solid)) (layer "User.1") (tstamp d473600c-2078-4dde-8013-bd6795dc1d16))
  (fp_line (start -8.872499 -4.636008) (end 0.017501 -4.636008)
    (stroke (width 0.2) (type solid)) (layer "User.1") (tstamp ce62c95f-1303-42d4-a5c1-871dd302fbdb))
  (fp_line (start -5.999988 -8.255) (end -5.999988 -6.255004)
    (stroke (width 0.2) (type solid)) (layer "User.1") (tstamp 5dd88daa-9cf8-4936-814f-b7c84dc4c793))
  (fp_line (start -5.999988 14.744979) (end -5.999988 16.745001)
    (stroke (width 0.2) (type solid)) (layer "User.1") (tstamp 4a6dfa47-08aa-4760-b436-fddc4df29e78))
  (fp_line (start 5.999988 -8.255) (end 5.999988 -6.255004)
    (stroke (width 0.2) (type solid)) (layer "User.1") (tstamp e840ba7e-b55f-434b-99a1-e1dd2f11be12))
  (fp_line (start 5.999988 -6.255004) (end -5.999988 -6.255004)
    (stroke (width 0.2) (type solid)) (layer "User.1") (tstamp 697f8365-e903-4be8-b4ea-50e9eafee540))
  (fp_line (start 5.999988 14.744979) (end -5.999988 14.744979)
    (stroke (width 0.2) (type solid)) (layer "User.1") (tstamp fd52eb09-5326-4b0c-8033-1afbfc2389ce))
  (fp_line (start 5.999988 14.744979) (end 5.999988 16.745001)
    (stroke (width 0.2) (type solid)) (layer "User.1") (tstamp 178a8791-f5bc-43f7-bf32-84780de29bdd))
  (fp_line (start 9.288501 -4.636008) (end 0.017501 -4.636008)
    (stroke (width 0.2) (type solid)) (layer "User.1") (tstamp d3ce758f-84ad-45ab-a14b-6334321825fb))
  (fp_line (start 11.500003 -8.255) (end -11.500002 -8.255)
    (stroke (width 0.2) (type solid)) (layer "User.1") (tstamp 9d2cb804-56e9-4961-b313-ad0033cf2922))
  (fp_line (start 11.500003 -8.255) (end -11.500002 -8.255)
    (stroke (width 0.2) (type solid)) (layer "User.1") (tstamp ef4a6b80-a93a-4b50-b40b-082b036a0b0b))
  (fp_line (start 11.500003 16.745001) (end 11.500003 -8.255)
    (stroke (width 0.2) (type solid)) (layer "User.1") (tstamp 3d711ec3-b171-46fa-8c38-f63f8824612c))
  (fp_line (start 11.500003 16.745001) (end 11.500003 -8.255)
    (stroke (width 0.2) (type solid)) (layer "User.1") (tstamp 76f00315-0ac0-4d1f-a49d-3ea66954fbb3))
  (fp_line (start 11.5062 11.23) (end 11.5062 19.485)
    (stroke (width 0.2) (type solid)) (layer "User.1") (tstamp 10323028-5383-49a6-a21f-42f02469c76a))
  (fp_line (start 11.5062 19.485) (end -11.5062 19.485)
    (stroke (width 0.2) (type solid)) (layer "User.1") (tstamp c5ddfea3-191d-466d-8bf4-2534c2715a7d))
  (fp_line (start 11.574501 -8.446008) (end 11.574501 6.793992)
    (stroke (width 0.2) (type solid)) (layer "User.1") (tstamp dce993f3-b6e3-4653-aded-d9f7e24a441d))
  (fp_line (start 11.574501 6.793992) (end 12.7 6.793992)
    (stroke (width 0.2) (type solid)) (layer "User.1") (tstamp a76e4234-d409-4fb0-a652-445f29ded882))
  (fp_line (start 11.574501 11.23) (end 12.7 11.23)
    (stroke (width 0.2) (type solid)) (layer "User.1") (tstamp dd23f89f-3dc3-4101-b802-05f5883ed26c))
  (fp_line (start 12.065 11.797792) (end 12.065 15.506192)
    (stroke (width 0.2) (type solid)) (layer "User.1") (tstamp bfeb6db7-f30e-434f-a81a-936ef79be45c))
  (fp_line (start 12.065 11.797792) (end 15.841701 11.797792)
    (stroke (width 0.2) (type solid)) (layer "User.1") (tstamp 7f5698d7-c55d-4ddf-a4de-8d76d23f20a6))
  (fp_line (start 12.082501 -0.470408) (end 15.859202 -0.470408)
    (stroke (width 0.2) (type solid)) (layer "User.1") (tstamp 628517b7-ab96-4d59-97fa-3a8ab4d9ee5a))
  (fp_line (start 12.082501 3.237992) (end 12.082501 -0.470408)
    (stroke (width 0.2) (type solid)) (layer "User.1") (tstamp be42ba9d-afd9-4106-901e-a46338e86679))
  (fp_line (start 12.7 -19.885) (end 12.7 -8.446008)
    (stroke (width 0.2) (type solid)) (layer "User.1") (tstamp 53030910-4dd5-4424-99b5-5b26b5f32489))
  (fp_line (start 12.7 -8.446008) (end 11.574501 -8.446008)
    (stroke (width 0.2) (type solid)) (layer "User.1") (tstamp 21546a44-e15d-472f-b85a-e9957195ec10))
  (fp_line (start 12.7 6.793992) (end 12.7 11.23)
    (stroke (width 0.2) (type solid)) (layer "User.1") (tstamp 038e00b5-a311-4147-bf19-d89ecccb9828))
  (fp_line (start 15.841701 11.797792) (end 15.841701 15.506192)
    (stroke (width 0.2) (type solid)) (layer "User.1") (tstamp 8acee148-4aa5-4dcf-82e2-91e691305578))
  (fp_line (start 15.841701 15.506192) (end 12.065 15.506192)
    (stroke (width 0.2) (type solid)) (layer "User.1") (tstamp a90f80e5-2bc3-4194-86a7-55faa32f0759))
  (fp_line (start 15.859202 3.237992) (end 12.082501 3.237992)
    (stroke (width 0.2) (type solid)) (layer "User.1") (tstamp 21610a08-4458-44b7-9b8a-c807f3821837))
  (fp_line (start 15.859202 3.237992) (end 15.859202 -0.470408)
    (stroke (width 0.2) (type solid)) (layer "User.1") (tstamp 0486c63c-5bbb-4842-9dbc-d243a86fc25e))
  (fp_circle (center -12.7 -18.615) (end -11.801972 -18.615)
    (stroke (width 0.2) (type solid)) (fill none) (layer "User.1") (tstamp ede66904-e40c-44d3-afa6-60302b464910))
  (fp_circle (center -12.7 -16.075) (end -11.801972 -16.075)
    (stroke (width 0.2) (type solid)) (fill none) (layer "User.1") (tstamp 46741fde-98e0-4549-afb9-d8881d241289))
  (fp_circle (center -12.7 -13.535) (end -11.801972 -13.535)
    (stroke (width 0.2) (type solid)) (fill none) (layer "User.1") (tstamp 92bf4e07-8a84-4fae-a2d9-cc11e8b1a734))
  (fp_circle (center -12.7 -10.995) (end -11.801972 -10.995)
    (stroke (width 0.2) (type solid)) (fill none) (layer "User.1") (tstamp f6b22e81-b23c-44ab-918d-a16671215518))
  (fp_circle (center -12.7 9.325) (end -11.801972 9.325)
    (stroke (width 0.2) (type solid)) (fill none) (layer "User.1") (tstamp de41229d-ecfb-4efe-bd37-312b06b78b77))
  (fp_circle (center -10.16 19.485) (end -9.261972 19.485)
    (stroke (width 0.2) (type solid)) (fill none) (layer "User.1") (tstamp edb95b1e-e89f-46a0-86bd-2172b1a25a3f))
  (fp_circle (center -7.62 19.485) (end -6.721972 19.485)
    (stroke (width 0.2) (type solid)) (fill none) (layer "User.1") (tstamp e53815a3-653a-4e83-b5be-86381adb52dd))
  (fp_circle (center -5.08 19.485) (end -4.181972 19.485)
    (stroke (width 0.2) (type solid)) (fill none) (layer "User.1") (tstamp 01ed26ba-c1c9-49c8-8970-d48e61de5481))
  (fp_circle (center 5.08 19.485) (end 5.978028 19.485)
    (stroke (width 0.2) (type solid)) (fill none) (layer "User.1") (tstamp cbdb7ffb-23de-41c9-85fb-bf15aa8b2f87))
  (fp_circle (center 7.62 19.485) (end 8.518028 19.485)
    (stroke (width 0.2) (type solid)) (fill none) (layer "User.1") (tstamp 00335e14-5ca4-452b-8566-4a694b9e29ff))
  (fp_circle (center 10.16 19.485) (end 11.058028 19.485)
    (stroke (width 0.2) (type solid)) (fill none) (layer "User.1") (tstamp c6eeebab-227a-4b22-8a69-959a5e6226b9))
  (fp_circle (center 12.7 -18.615) (end 13.598028 -18.615)
    (stroke (width 0.2) (type solid)) (fill none) (layer "User.1") (tstamp 8e29139d-e410-4e57-82d7-c24793915b3d))
  (fp_circle (center 12.7 -16.075) (end 13.598028 -16.075)
    (stroke (width 0.2) (type solid)) (fill none) (layer "User.1") (tstamp 045292a7-54f4-4eb2-b056-b9ab6914bdb5))
  (fp_circle (center 12.7 -13.535) (end 13.598028 -13.535)
    (stroke (width 0.2) (type solid)) (fill none) (layer "User.1") (tstamp 8acd6a36-ab75-4d88-a329-688f60588cd5))
  (fp_circle (center 12.7 -10.995) (end 13.598028 -10.995)
    (stroke (width 0.2) (type solid)) (fill none) (layer "User.1") (tstamp 858893f0-1174-47b5-99c8-9e17d18c5a5c))
  (fp_circle (center 12.7 9.325) (end 13.598028 9.325)
    (stroke (width 0.2) (type solid)) (fill none) (layer "User.1") (tstamp 51b0b54b-06dd-4228-a4b1-1c76fda82893))
  (fp_line (start 0 0) (end -11.43 0)
    (stroke (width 0.1) (type default)) (layer "User.2") (tstamp ea165938-ecf4-4410-bec9-894127231390))
  (fp_line (start 0 0) (end 0 -19.685)
    (stroke (width 0.1) (type default)) (layer "User.2") (tstamp 6bd83b24-666d-4701-9eb6-0b911b735708))
  (fp_line (start 0 0) (end 0 19.685)
    (stroke (width 0.1) (type default)) (layer "User.2") (tstamp 51032ca5-81cd-4ec3-bd87-59cd43ed2e01))
  (fp_line (start 0 0) (end 11.43 0)
    (stroke (width 0.1) (type default)) (layer "User.2") (tstamp bc08c080-b8dd-4661-9b22-480f32f6ba04))
  (pad "1" smd rect (at -12.7 -18.615) (size 2 1.651) (layers "F.Cu" "F.Paste" "F.Mask") (tstamp f07008e9-a66d-4454-a2e3-67b51f9be0b1))
  (pad "2" smd rect (at -12.693396 -16.075) (size 2 1.651) (layers "F.Cu" "F.Paste" "F.Mask") (tstamp 2843bdbd-8d63-4f29-b1c6-dc4d64b156aa))
  (pad "3" smd rect (at -12.693396 -13.535) (size 2 1.651) (layers "F.Cu" "F.Paste" "F.Mask") (tstamp daebcc9c-669b-4ab4-ba56-579a1fe387b1))
  (pad "4" smd rect (at -12.7 -10.995) (size 2 1.651) (layers "F.Cu" "F.Paste" "F.Mask") (tstamp 5aa6756d-0561-49e6-80ba-3efc5b008b2f))
  (pad "5" smd rect (at -12.954 9.325) (size 2 1.651) (layers "F.Cu" "F.Paste" "F.Mask") (tstamp c08b3598-efcb-4a1f-a51a-7910796a6652))
  (pad "6" smd rect (at -10.153396 19.571335 90) (size 2 1.651) (layers "F.Cu" "F.Paste" "F.Mask") (tstamp f8b6a52a-498a-4127-b470-425fc30eaa5e))
  (pad "7" smd rect (at -7.62 19.571335 90) (size 2 1.651) (layers "F.Cu" "F.Paste" "F.Mask") (tstamp 4b01b7db-9207-418e-8b33-366d1f12b51c))
  (pad "8" smd rect (at -5.08 19.571335 90) (size 2 1.651) (layers "F.Cu" "F.Paste" "F.Mask") (tstamp 6267bad7-e6d1-466e-acf5-0e7b58030bdc))
  (pad "9" smd rect (at 5.08 19.571335 90) (size 2 1.651) (layers "F.Cu" "F.Paste" "F.Mask") (tstamp 72662088-d7b1-46aa-84a8-7760a2346990))
  (pad "10" smd rect (at 7.62 19.571335 90) (size 2 1.651) (layers "F.Cu" "F.Paste" "F.Mask") (tstamp 8a00e49d-f9a1-4188-9077-67f247d3544f))
  (pad "11" smd rect (at 10.16 19.571335 90) (size 2 1.651) (layers "F.Cu" "F.Paste" "F.Mask") (tstamp a49bc261-b2e0-458b-95ce-2f78131904cc))
  (pad "12" smd rect (at 12.954 9.325) (size 2 1.651) (layers "F.Cu" "F.Paste" "F.Mask") (tstamp 82076b01-d448-4dfe-9368-3f8e70249ac5))
  (pad "13" smd rect (at 12.706604 -10.995) (size 2 1.651) (layers "F.Cu" "F.Paste" "F.Mask") (tstamp 834e24c5-7eca-4e28-84ca-639e6333db65))
  (pad "14" smd rect (at 12.706604 -13.535) (size 2 1.651) (layers "F.Cu" "F.Paste" "F.Mask") (tstamp 7c14f495-ce3f-4a06-9684-551659b77a70))
  (pad "15" smd rect (at 12.706604 -16.075) (size 2.286 1.651) (layers "F.Cu" "F.Paste" "F.Mask")
    (thermal_bridge_angle 45) (tstamp 1e5e4950-1025-4d37-a535-d3d9a1bd604a))
  (pad "16" smd rect (at 12.706604 -18.615) (size 2.286 1.651) (layers "F.Cu" "F.Paste" "F.Mask")
    (thermal_bridge_angle 45) (tstamp 99ddc2cd-337e-4599-ad62-22ade5b4510f))
  (group "" (id 256465c8-823a-4efb-a935-2c641db29cb0)
    (members
      00335e14-5ca4-452b-8566-4a694b9e29ff
      01ed26ba-c1c9-49c8-8970-d48e61de5481
      038e00b5-a311-4147-bf19-d89ecccb9828
      045292a7-54f4-4eb2-b056-b9ab6914bdb5
      0486c63c-5bbb-4842-9dbc-d243a86fc25e
      07440d99-d4ca-4f66-b9e9-e24487735a97
      092f4909-54c3-4f64-9a7a-2eea6067751e
      0d1ec5a1-0352-4f7d-9315-0eee37dba1c9
      10323028-5383-49a6-a21f-42f02469c76a
      178a8791-f5bc-43f7-bf32-84780de29bdd
      1accfe75-c6bd-4a6a-b318-d73f84d49f03
      21546a44-e15d-472f-b85a-e9957195ec10
      21610a08-4458-44b7-9b8a-c807f3821837
      2a75d634-aa31-4109-a886-1c5458283dad
      2f87c628-fdf2-406b-9956-86ea7972526e
      3d711ec3-b171-46fa-8c38-f63f8824612c
      46741fde-98e0-4549-afb9-d8881d241289
      488d2bb0-049e-4c2b-b353-bfeb90028223
      4a6dfa47-08aa-4760-b436-fddc4df29e78
      4c13b5e6-6f6c-44aa-ae16-f4bdce4d0cdc
      51b0b54b-06dd-4228-a4b1-1c76fda82893
      53030910-4dd5-4424-99b5-5b26b5f32489
      56cacf83-e161-4834-98e4-58ac80f27e63
      5dd88daa-9cf8-4936-814f-b7c84dc4c793
      628517b7-ab96-4d59-97fa-3a8ab4d9ee5a
      697f8365-e903-4be8-b4ea-50e9eafee540
      75926dff-2682-450a-a0ec-7641eaa1dc4b
      76f00315-0ac0-4d1f-a49d-3ea66954fbb3
      7f5698d7-c55d-4ddf-a4de-8d76d23f20a6
      858893f0-1174-47b5-99c8-9e17d18c5a5c
      8acd6a36-ab75-4d88-a329-688f60588cd5
      8acee148-4aa5-4dcf-82e2-91e691305578
      8b1d812d-8376-4644-96b6-92270cf2b490
      8e29139d-e410-4e57-82d7-c24793915b3d
      92bf4e07-8a84-4fae-a2d9-cc11e8b1a734
      9d2cb804-56e9-4961-b313-ad0033cf2922
      a4543576-4960-40e5-b33f-be695f0e76cc
      a76e4234-d409-4fb0-a652-445f29ded882
      a90f80e5-2bc3-4194-86a7-55faa32f0759
      ae0d4ef3-bf44-4f37-81aa-8e2cbebdd9be
      b4d4784c-3c8b-4e4d-8adf-75a84836e921
      ba886f86-d0c7-43cf-b376-7b1777961b41
      bbf79776-bd6c-4607-a291-5c4060447841
      be42ba9d-afd9-4106-901e-a46338e86679
      bfeb6db7-f30e-434f-a81a-936ef79be45c
      c5ddfea3-191d-466d-8bf4-2534c2715a7d
      c6eeebab-227a-4b22-8a69-959a5e6226b9
      cbdb7ffb-23de-41c9-85fb-bf15aa8b2f87
      ce62c95f-1303-42d4-a5c1-871dd302fbdb
      d3ce758f-84ad-45ab-a14b-6334321825fb
      d473600c-2078-4dde-8013-bd6795dc1d16
      dce993f3-b6e3-4653-aded-d9f7e24a441d
      dd23f89f-3dc3-4101-b802-05f5883ed26c
      ddb69855-5017-487a-8c55-b4338e8d58f6
      de41229d-ecfb-4efe-bd37-312b06b78b77
      e53815a3-653a-4e83-b5be-86381adb52dd
      e66182bb-c5c9-4d7a-9317-f1cb043bb7d6
      e840ba7e-b55f-434b-99a1-e1dd2f11be12
      eb8837c4-c468-4f37-b137-b8c614c18544
      edb95b1e-e89f-46a0-86bd-2172b1a25a3f
      ede66904-e40c-44d3-afa6-60302b464910
      ef4a6b80-a93a-4b50-b40b-082b036a0b0b
      f6b22e81-b23c-44ab-918d-a16671215518
      fd52eb09-5326-4b0c-8033-1afbfc2389ce
    )
  )
  (model "Z:/Electronics/Cad/KiCad/GITLIBS/third-party/chipperdootles_chippydootles/chippydootles_modules.3dshapes/SolarBit_BRK_Khamsa+.wrl"
    (offset (xyz 0 0 0))
    (scale (xyz 1 1 1))
    (rotate (xyz 0 0 0))
  )
  (model "Z:/Electronics/Cad/KiCad/GITLIBS/third-party/chipperdootles_chippydootles/chippydootles_modules.3dshapes/SolarBit_BRK_Khamsa+.step" hide
    (offset (xyz 0 0 0))
    (scale (xyz 1 1 1))
    (rotate (xyz 0 0 0))
  )
)
