(footprint "10151209-001TRLF-CONTACT" (version 20221018) (generator pcbnew)
  (layer "F.Cu")
  (descr "Amphenol 22 Positions, 1.25mm Compression Connector, Surface Mount ")
  (attr smd)
  (fp_text reference "J" (at -0.625 0 unlocked) (layer "F.SilkS")
      (effects (font (size 1 1) (thickness 0.1)))
    (tstamp ab9af57d-2485-4529-b9d8-95401d166b46)
  )
  (fp_text value "10151209-001TRLF-CONTACT" (at 0 0 unlocked) (layer "F.Fab")
      (effects (font (size 1 1) (thickness 0.15)))
    (tstamp 774e4dbe-bbd9-46b5-bfaf-97ae3ef18ca2)
  )
  (fp_text user "${REFERENCE}" (at 0.625 1.4 unlocked) (layer "F.Fab")
      (effects (font (size 1 1) (thickness 0.15)))
    (tstamp ff71c807-cb7e-48cd-a238-eaccdbad4ec5)
  )
  (fp_line (start -7.239 -3.683) (end -7.239 3.683)
    (stroke (width 0.1) (type default)) (layer "F.SilkS") (tstamp 5dcbf57b-ebb2-44df-8e48-cb4368f187ba))
  (fp_line (start -7.239 -3.683) (end -6.858 -3.683)
    (stroke (width 0.1) (type default)) (layer "F.SilkS") (tstamp 202165a5-080d-4d2e-bb83-b13fdc983c58))
  (fp_line (start -7.239 3.683) (end -6.858 3.683)
    (stroke (width 0.1) (type default)) (layer "F.SilkS") (tstamp a68fe51d-fd7f-4284-bbaf-3ef329e973da))
  (fp_line (start 6.858 -3.683) (end 7.239 -3.683)
    (stroke (width 0.1) (type default)) (layer "F.SilkS") (tstamp 7931da5f-49e2-4d8d-ada0-ffff0ceac1d1))
  (fp_line (start 7.239 -3.683) (end 7.239 3.683)
    (stroke (width 0.1) (type default)) (layer "F.SilkS") (tstamp fef1cad4-e3f4-43e1-955e-580cea70ed26))
  (fp_line (start 7.239 3.683) (end 6.858 3.683)
    (stroke (width 0.1) (type default)) (layer "F.SilkS") (tstamp 5310d6ab-b789-4c42-b863-4520b24b2345))
  (fp_circle (center 7.112 4.064) (end 7.291605 4.064)
    (stroke (width 0.1) (type solid)) (fill solid) (layer "F.SilkS") (tstamp 0efb2890-72f6-43c1-b689-5680051c92ee))
  (fp_line (start -7.175 -3.5) (end 7.175 -3.5)
    (stroke (width 0.1) (type default)) (layer "Dwgs.User") (tstamp c8d0e655-79e6-4272-a774-e01d9225e392))
  (fp_line (start -7.175 3.5) (end -7.175 -3.5)
    (stroke (width 0.1) (type default)) (layer "Dwgs.User") (tstamp db2215a2-e6c7-4652-8a69-23f9c2f34af1))
  (fp_line (start 7.175 -3.5) (end 7.175 3.5)
    (stroke (width 0.1) (type default)) (layer "Dwgs.User") (tstamp 0227112a-a9dc-4e15-a111-d04415a1bdf3))
  (fp_line (start 7.175 3.5) (end -7.175 3.5)
    (stroke (width 0.1) (type default)) (layer "Dwgs.User") (tstamp d9452e37-4938-4206-a004-60935b306922))
  (fp_line (start -8 -5) (end 8 -5)
    (stroke (width 0.05) (type default)) (layer "F.CrtYd") (tstamp 19213aef-42ff-4081-9117-2ad44592d1b9))
  (fp_line (start -8 5) (end -8 -5)
    (stroke (width 0.05) (type default)) (layer "F.CrtYd") (tstamp 61ca3fbd-6ecf-4398-800e-c2420c01fd8d))
  (fp_line (start 8 -5) (end 8 5)
    (stroke (width 0.05) (type default)) (layer "F.CrtYd") (tstamp 2335e9ed-c0a1-4e91-8c16-ab4f2ef874e9))
  (fp_line (start 8 5) (end -8 5)
    (stroke (width 0.05) (type default)) (layer "F.CrtYd") (tstamp d6a17a1d-8ff2-44d7-942b-58a49b5a03e4))
  (fp_line (start -6.25 -3.5) (end 6.25 -3.5)
    (stroke (width 0.1) (type default)) (layer "User.7") (tstamp f6af3f38-d665-4138-aa22-4718ddbc9789))
  (fp_line (start -6.25 -3.9) (end -6.25 -1.95)
    (stroke (width 0.1) (type default)) (layer "User.8") (tstamp c3adecc2-5715-4df2-ac49-2e61181c24ce))
  (fp_line (start -6.25 -1.975) (end 6.25 -1.975)
    (stroke (width 0.1) (type default)) (layer "User.8") (tstamp ff420704-15f7-4181-b236-9d892ecc7b8a))
  (fp_line (start -6.25 -1.925) (end -6.25 0.025)
    (stroke (width 0.1) (type default)) (layer "User.8") (tstamp 8b6f91b9-dc8c-4d5a-a9db-8a2d15540936))
  (fp_line (start -6.25 0.025) (end -6.25 3.925)
    (stroke (width 0.1) (type default)) (layer "User.8") (tstamp 9dab8975-de29-4fb8-ac9b-145d84133c08))
  (fp_line (start -6.25 1.95) (end 6.25 1.95)
    (stroke (width 0.1) (type default)) (layer "User.8") (tstamp 57c7ce1c-a137-4c95-9c07-438e9835aace))
  (fp_line (start -6.25 3.925) (end 6.25 3.9)
    (stroke (width 0.1) (type default)) (layer "User.8") (tstamp 00c4f545-8db1-459e-add7-bc1d1bc1e0b3))
  (fp_line (start 6.25 -3.9) (end -6.25 -3.9)
    (stroke (width 0.1) (type default)) (layer "User.8") (tstamp b4f5269e-b6ec-406a-8299-30bfd77bc150))
  (fp_line (start 6.25 0) (end -6.25 0.025)
    (stroke (width 0.1) (type default)) (layer "User.8") (tstamp 06fb96fe-4888-4642-b055-aa33ff0ddb18))
  (fp_line (start 6.25 3.9) (end 6.25 -3.9)
    (stroke (width 0.1) (type default)) (layer "User.8") (tstamp b681d71a-43d9-4543-941d-1e1be02f49d0))
  (dimension (type aligned) (layer "User.8") (tstamp cbb977fd-1df7-4406-b2c5-398daf7d14a6)
    (pts (xy -6.25 -3.9) (xy -5 -3.9))
    (height -1.95)
    (gr_text "1.2500 mm" (at -5.625 -7) (layer "User.8") (tstamp cbb977fd-1df7-4406-b2c5-398daf7d14a6)
      (effects (font (size 1 1) (thickness 0.15)))
    )
    (format (prefix "") (suffix "") (units 3) (units_format 1) (precision 4))
    (style (thickness 0.1) (arrow_length 1.27) (text_position_mode 0) (extension_height 0.58642) (extension_offset 0.5) keep_text_aligned)
  )
  (pad "1" smd rect (at 6.25 2.9625 90) (size 1.8 0.83) (layers "F.Cu" "F.Paste" "F.Mask")
    (thermal_bridge_angle 45) (tstamp 79069a33-6dfa-4aa0-95ae-62efbb1e25b0))
  (pad "2" smd rect (at 6.25 -2.9625 90) (size 1.8 0.83) (layers "F.Cu" "F.Paste" "F.Mask")
    (thermal_bridge_angle 45) (tstamp 5dd46db9-0885-4e64-86ec-33a1757a4af7))
  (pad "3" smd rect (at 5 2.9625 90) (size 1.8 0.83) (layers "F.Cu" "F.Paste" "F.Mask")
    (thermal_bridge_angle 45) (tstamp 8dfeb802-93ba-47e9-bc8b-9bce14871560))
  (pad "4" smd rect (at 5 -2.9625 90) (size 1.8 0.83) (layers "F.Cu" "F.Paste" "F.Mask")
    (thermal_bridge_angle 45) (tstamp e8222c2b-d6b8-4402-986a-973ee5a60e7b))
  (pad "5" smd rect (at 3.75 2.9625 90) (size 1.8 0.83) (layers "F.Cu" "F.Paste" "F.Mask")
    (thermal_bridge_angle 45) (tstamp 2c376513-d8c1-41c1-9ab9-9af9deebb54c))
  (pad "6" smd rect (at 3.75 -2.9625 90) (size 1.8 0.83) (layers "F.Cu" "F.Paste" "F.Mask")
    (thermal_bridge_angle 45) (tstamp 7d4ae19d-28f6-4353-ab94-287136c6f768))
  (pad "7" smd rect (at 2.5 2.9625 90) (size 1.8 0.83) (layers "F.Cu" "F.Paste" "F.Mask")
    (thermal_bridge_angle 45) (tstamp acfe41c7-d65e-446b-bd89-e7b28b244288))
  (pad "8" smd rect (at 2.5 -2.9625 90) (size 1.8 0.83) (layers "F.Cu" "F.Paste" "F.Mask")
    (thermal_bridge_angle 45) (tstamp 4c97268f-a82f-48d8-9487-faa2f6c0044e))
  (pad "9" smd rect (at 1.25 2.9625 90) (size 1.8 0.83) (layers "F.Cu" "F.Paste" "F.Mask")
    (thermal_bridge_angle 45) (tstamp 71e8b4f3-aedd-4193-ab3e-925b97559a11))
  (pad "10" smd rect (at 1.25 -2.9625 90) (size 1.8 0.83) (layers "F.Cu" "F.Paste" "F.Mask")
    (thermal_bridge_angle 45) (tstamp 015f74cf-0e7a-472c-81d7-651c531aabd2))
  (pad "11" smd rect (at 0 2.9625 90) (size 1.8 0.83) (layers "F.Cu" "F.Paste" "F.Mask")
    (thermal_bridge_angle 45) (tstamp f08ac25f-4a91-450f-9fec-471abaa4583f))
  (pad "12" smd rect (at 0 -2.9625 90) (size 1.8 0.83) (layers "F.Cu" "F.Paste" "F.Mask")
    (thermal_bridge_angle 45) (tstamp 8359d98c-5231-4189-b123-fab3a38ba5e5))
  (pad "13" smd rect (at -1.25 2.9625 90) (size 1.8 0.83) (layers "F.Cu" "F.Paste" "F.Mask")
    (thermal_bridge_angle 45) (tstamp ca65d63d-c256-4a3c-ae81-45cb5d7cbccf))
  (pad "14" smd rect (at -1.25 -2.9625 90) (size 1.8 0.83) (layers "F.Cu" "F.Paste" "F.Mask")
    (thermal_bridge_angle 45) (tstamp 4b08a788-5e76-4738-903c-92448052a11e))
  (pad "15" smd rect (at -2.5 2.9625 90) (size 1.8 0.83) (layers "F.Cu" "F.Paste" "F.Mask")
    (thermal_bridge_angle 45) (tstamp 343fc47d-9dc8-471b-8f51-6a3c3766f3da))
  (pad "16" smd rect (at -2.5 -2.9625 90) (size 1.8 0.83) (layers "F.Cu" "F.Paste" "F.Mask")
    (thermal_bridge_angle 45) (tstamp b870075a-9016-42f5-b098-c2366d0007ab))
  (pad "17" smd rect (at -3.75 2.9625 90) (size 1.8 0.83) (layers "F.Cu" "F.Paste" "F.Mask")
    (thermal_bridge_angle 45) (tstamp c92b7b59-b72b-461e-bcbe-e0a43d5fa275))
  (pad "18" smd rect (at -3.75 -2.9625 90) (size 1.8 0.83) (layers "F.Cu" "F.Paste" "F.Mask")
    (thermal_bridge_angle 45) (tstamp f3a80a06-d154-40f9-8fe6-dc4b23fbc1ef))
  (pad "19" smd rect (at -5 2.9625 90) (size 1.8 0.83) (layers "F.Cu" "F.Paste" "F.Mask")
    (thermal_bridge_angle 45) (tstamp 5c208cfb-63fe-4baa-abec-2393998b2ac8))
  (pad "20" smd rect (at -5 -2.9625 90) (size 1.8 0.83) (layers "F.Cu" "F.Paste" "F.Mask")
    (thermal_bridge_angle 45) (tstamp 110de677-a594-4d2d-b72c-e9ab7b46744e))
  (pad "21" smd rect (at -6.25 2.9625 90) (size 1.8 0.83) (layers "F.Cu" "F.Paste" "F.Mask")
    (thermal_bridge_angle 45) (tstamp 996159f3-ae77-40ce-9c98-548ee306a5f5))
  (pad "22" smd rect (at -6.25 -2.9625 90) (size 1.8 0.83) (layers "F.Cu" "F.Paste" "F.Mask")
    (thermal_bridge_angle 45) (tstamp ec62c665-a4a2-4325-b8d6-37739b93fbee))
)
