(footprint "1X03_SMD_RA_FEMALE" (version 20221018) (generator pcbnew)
  (layer "F.Cu")
  (descr "SMD - 3 PIN RIGHT ANGLE FEMALE HEADER")
  (tags "SMD - 3 PIN RIGHT ANGLE FEMALE HEADER")
  (property "Sheetfile" "Z:/Electronics/Cad/KiCad/SigilCircuitry/Khamsa/KhamsaTiny/KhamsaTiny.sch")
  (property "Sheetname" "")
  (attr smd)
  (fp_text reference "J1" (at 0 -0.02376 90) (layer "F.SilkS")
      (effects (font (size 0.6096 0.6096) (thickness 0.127)))
    (tstamp 385d7802-181c-4bd5-b0a2-754d2ae20fd2)
  )
  (fp_text value "01X03_SMD" (at -0.9144 0 90) (layer "F.SilkS") hide
      (effects (font (size 0.6096 0.6096) (thickness 0.127)))
    (tstamp 281bf788-297f-4dd2-ac85-7805ff2ce64a)
  )
  (fp_line (start -3.93446 -4.24942) (end -3.93446 4.24942)
    (stroke (width 0.1778) (type solid)) (layer "F.SilkS") (tstamp fdcfde96-a39b-488f-b71e-beb6ffe00e27))
  (fp_line (start -3.93446 4.24942) (end 3.93446 4.24942)
    (stroke (width 0.1778) (type solid)) (layer "F.SilkS") (tstamp a6a5797b-18fe-4a42-aa73-fdaee054c816))
  (fp_line (start 3.93446 -4.24942) (end -3.93446 -4.24942)
    (stroke (width 0.1778) (type solid)) (layer "F.SilkS") (tstamp a9f572ed-0f89-4f86-ba5b-d2e35840e68e))
  (fp_line (start 3.93446 4.24942) (end 3.93446 -4.24942)
    (stroke (width 0.1778) (type solid)) (layer "F.SilkS") (tstamp 3def2bbb-8d34-4600-99dd-26ef6fcd30b3))
  (pad "1" smd rect (at -2.54 -7.22376 180) (size 1.24968 2.99974) (layers "F.Cu" "F.Paste" "F.Mask")
    (solder_mask_margin 0.1016) (tstamp f654ef7c-31e7-4910-813b-2209a07c2bfc))
  (pad "2" smd rect (at 0 -7.22376 180) (size 1.24968 2.99974) (layers "F.Cu" "F.Paste" "F.Mask")
    (solder_mask_margin 0.1016) (tstamp cfad1f35-f936-4a0c-bf71-8f9b0b2e4cbe))
  (pad "3" smd rect (at 2.54 -7.22376 180) (size 1.24968 2.99974) (layers "F.Cu" "F.Paste" "F.Mask")
    (solder_mask_margin 0.1016) (tstamp 6eb840d6-1200-4b72-a29d-0dea8a68c84e))
)
