(module LED_156125M173000 (layer F.Cu) (tedit 60E9BAB3)
  (fp_text reference REF** (at -1.2354 -1.58599) (layer F.Fab)
    (effects (font (size 0.320362 0.320362) (thickness 0.015)))
  )
  (fp_text value LED_156125M173000 (at 1.207741 1.582177) (layer F.Fab)
    (effects (font (size 0.320887 0.320887) (thickness 0.015)))
  )
  (fp_circle (center 0 0) (end 0.875 0) (layer Dwgs.User) (width 0.12))
  (fp_line (start -1.6 -0.6) (end -1.6 0.6) (layer F.Fab) (width 0.127))
  (fp_line (start -1.6 0.6) (end 1.6 0.6) (layer F.Fab) (width 0.127))
  (fp_line (start 1.6 0.6) (end 1.6 -0.6) (layer F.Fab) (width 0.127))
  (fp_line (start 1.6 -0.6) (end -1.6 -0.6) (layer F.Fab) (width 0.127))
  (fp_line (start -0.9648 -1.27) (end 0.9652 -1.27) (layer F.SilkS) (width 0.127))
  (fp_line (start -0.965 1.27) (end 0.965 1.27) (layer F.SilkS) (width 0.127))
  (fp_line (start -2.25 -1.25) (end 2.25 -1.25) (layer F.CrtYd) (width 0.05))
  (fp_line (start 2.25 -1.25) (end 2.25 1.25) (layer F.CrtYd) (width 0.05))
  (fp_line (start 2.25 1.25) (end -2.25 1.25) (layer F.CrtYd) (width 0.05))
  (fp_line (start -2.25 1.25) (end -2.25 -1.25) (layer F.CrtYd) (width 0.05))
  (fp_circle (center -2.2352 -1.2684) (end -2.1352 -1.2684) (layer F.SilkS) (width 0.2))
  (pad 1 smd rect (at -1.55 -0.575) (size 0.9 0.85) (layers F.Cu F.Paste F.Mask))
  (pad 4 smd rect (at 1.55 -0.575) (size 0.9 0.85) (layers F.Cu F.Paste F.Mask))
  (pad 2 smd rect (at -1.55 0.575) (size 0.9 0.85) (layers F.Cu F.Paste F.Mask))
  (pad 3 smd rect (at 1.55 0.575) (size 0.9 0.85) (layers F.Cu F.Paste F.Mask))
)
