(module MICRO-SD-SOCKET (layer F.Cu) (tedit 6045C9D0)
  (descr "MICROSD SOCKET SMD")
  (tags "MICROSD SOCKET SMD")
  (attr smd)
  (fp_text reference >NAME (at -14.605 -2.54 90) (layer F.SilkS)
    (effects (font (size 0.6096 0.6096) (thickness 0.127)))
  )
  (fp_text value >VALUE (at 0.635 -2.54 90) (layer F.SilkS)
    (effects (font (size 0.6096 0.6096) (thickness 0.127)))
  )
  (fp_line (start -13.99794 0) (end -13.99794 -13.19784) (layer F.SilkS) (width 0.2032))
  (fp_line (start 0 -12.09802) (end 0 0) (layer F.SilkS) (width 0.2032))
  (fp_line (start -11.69924 -15.29842) (end -12.49934 -15.29842) (layer F.SilkS) (width 0.2032))
  (fp_line (start -10.9982 -15.99946) (end 0 -15.99946) (layer Dwgs.User) (width 0.2032))
  (fp_line (start -9.99998 -13.59916) (end -1.59766 -13.59916) (layer F.SilkS) (width 0.2032))
  (fp_line (start -13.99794 0) (end -9.09828 0) (layer F.SilkS) (width 0.2032))
  (fp_line (start -3.39852 0) (end -6.39826 0) (layer F.SilkS) (width 0.2032))
  (fp_line (start 0 0) (end -0.6985 0) (layer F.SilkS) (width 0.2032))
  (fp_line (start 0 -17.59966) (end -10.9982 -17.59966) (layer Dwgs.User) (width 0.2032))
  (fp_line (start 0 -20.69846) (end -10.9982 -20.69846) (layer Dwgs.User) (width 0.2032))
  (fp_arc (start -11.64844 -14.64818) (end -11.69924 -15.29842) (angle 98.7) (layer F.SilkS) (width 0.2032))
  (fp_arc (start -9.97458 -14.62278) (end -9.99998 -13.59916) (angle 87.2) (layer F.SilkS) (width 0.2032))
  (fp_text user Pressed (at 5.08 -16.51) (layer Dwgs.User)
    (effects (font (size 1.27 1.27) (thickness 0.127)))
  )
  (fp_text user Locked (at 4.445 -18.415) (layer Dwgs.User)
    (effects (font (size 1.27 1.27) (thickness 0.127)))
  )
  (fp_text user Unlocked (at 5.715 -21.59) (layer Dwgs.User)
    (effects (font (size 1.27 1.27) (thickness 0.127)))
  )
  (pad 10 smd rect (at -2.04978 -0.39878) (size 1.79832 1.39954) (layers F.Cu F.Paste F.Mask)
    (solder_mask_margin 0.1016))
  (pad 11 smd rect (at -7.74954 -0.39878) (size 1.79832 1.39954) (layers F.Cu F.Paste F.Mask)
    (solder_mask_margin 0.1016))
  (pad 2 smd rect (at -7.83844 -10.2997) (size 0.79756 1.4986) (layers F.Cu F.Paste F.Mask)
    (solder_mask_margin 0.1016))
  (pad 3 smd rect (at -6.73862 -10.69848) (size 0.79756 1.4986) (layers F.Cu F.Paste F.Mask)
    (solder_mask_margin 0.1016))
  (pad 7 smd rect (at -2.33934 -10.69848) (size 0.79756 1.4986) (layers F.Cu F.Paste F.Mask)
    (solder_mask_margin 0.1016))
  (pad 6 smd rect (at -3.43916 -10.89914) (size 0.79756 1.4986) (layers F.Cu F.Paste F.Mask)
    (solder_mask_margin 0.1016))
  (pad 00 smd rect (at -13.59916 -14.54912) (size 1.39954 1.89992) (layers F.Cu F.Paste F.Mask)
    (solder_mask_margin 0.1016))
  (pad 00 smd rect (at -0.44958 -13.54836) (size 1.39954 1.89992) (layers F.Cu F.Paste F.Mask)
    (solder_mask_margin 0.1016))
  (pad 1 smd rect (at -8.93826 -10.69848) (size 0.79756 1.4986) (layers F.Cu F.Paste F.Mask)
    (solder_mask_margin 0.1016))
  (pad 8 smd rect (at -1.23952 -10.69848) (size 0.79756 1.4986) (layers F.Cu F.Paste F.Mask)
    (solder_mask_margin 0.1016))
  (pad 5 smd rect (at -4.53898 -10.69848) (size 0.79756 1.4986) (layers F.Cu F.Paste F.Mask)
    (solder_mask_margin 0.1016))
  (pad 4 smd rect (at -5.6388 -10.89914) (size 0.79756 1.4986) (layers F.Cu F.Paste F.Mask)
    (solder_mask_margin 0.1016))
)
