(footprint "NIDEC CUS-12B"
	(version 20240108)
	(generator "pcbnew")
	(generator_version "8.0")
	(layer "F.Cu")
	(descr "SPDT SLIDE SWITCH -  RIGHT ANGLE SMD")
	(property "Reference" "$REF"
		(at 0 -0.4 180)
		(layer "F.Fab")
		(hide yes)
		(uuid "4f265db5-6c9c-4ff4-bfcc-6b3f70a433d3")
		(effects
			(font
				(size 0.6096 0.6096)
				(thickness 0.127)
			)
		)
	)
	(property "Value" "SPDT"
		(at 0 0.75 0)
		(layer "F.Fab")
		(hide yes)
		(uuid "99e35372-69e0-411e-a1f2-e5b986296b78")
		(effects
			(font
				(size 0.6096 0.6096)
				(thickness 0.127)
			)
		)
	)
	(property "Footprint" ""
		(at 0 0 0)
		(layer "F.Fab")
		(hide yes)
		(uuid "68b78167-6d2b-4526-b30a-21dcd6516cfe")
		(effects
			(font
				(size 1.27 1.27)
				(thickness 0.15)
			)
		)
	)
	(property "Datasheet" ""
		(at 0 0 0)
		(layer "F.Fab")
		(hide yes)
		(uuid "5bf19083-4ca7-4c72-9fa9-5132818425cd")
		(effects
			(font
				(size 1.27 1.27)
				(thickness 0.15)
			)
		)
	)
	(property "Description" ""
		(at 0 0 0)
		(layer "F.Fab")
		(hide yes)
		(uuid "02f7d5c5-7f5e-4e94-adec-0f711172f8be")
		(effects
			(font
				(size 1.27 1.27)
				(thickness 0.15)
			)
		)
	)
	(attr smd)
	(fp_line
		(start -3.47472 0.42672)
		(end -3.47472 -0.42672)
		(stroke
			(width 0.2032)
			(type solid)
		)
		(layer "F.SilkS")
		(uuid "988754cb-04bf-4d3d-bb0d-16981c0934ca")
	)
	(fp_line
		(start -1.6256 -1.42494)
		(end 0.127 -1.42494)
		(stroke
			(width 0.2032)
			(type solid)
		)
		(layer "F.SilkS")
		(uuid "c9c7f329-93e1-4b4a-91f5-ab5705a2ac9b")
	)
	(fp_line
		(start 3.47472 0.42672)
		(end 3.47472 -0.42672)
		(stroke
			(width 0.2032)
			(type solid)
		)
		(layer "F.SilkS")
		(uuid "389b6aec-4fdb-4de5-a126-ed12332fc9e1")
	)
	(fp_line
		(start -3.85 -1.3)
		(end -3.85 -0.9)
		(stroke
			(width 0.1)
			(type default)
		)
		(layer "Dwgs.User")
		(uuid "143e8d7a-c4c9-4de8-bc41-932e7fcd22fd")
	)
	(fp_line
		(start -3.85 -0.9)
		(end -3.35 -0.9)
		(stroke
			(width 0.1)
			(type default)
		)
		(layer "Dwgs.User")
		(uuid "e48b952b-3157-4814-bfe8-81fc5d055bd6")
	)
	(fp_line
		(start -3.85 0.9)
		(end -3.35 0.9)
		(stroke
			(width 0.1)
			(type default)
		)
		(layer "Dwgs.User")
		(uuid "f4cde00e-70d5-4f1c-ae65-3c0d0d96b6fb")
	)
	(fp_line
		(start -3.85 1.3)
		(end -3.85 0.9)
		(stroke
			(width 0.1)
			(type default)
		)
		(layer "Dwgs.User")
		(uuid "873b5deb-9592-4cd9-abce-38df059809b3")
	)
	(fp_line
		(start -3.35 -1.3)
		(end -3.85 -1.3)
		(stroke
			(width 0.1)
			(type default)
		)
		(layer "Dwgs.User")
		(uuid "f3126a59-b88e-48f8-86c7-fb8de4a15801")
	)
	(fp_line
		(start -3.35 0)
		(end -3.35 -1.3)
		(stroke
			(width 0.1)
			(type default)
		)
		(layer "Dwgs.User")
		(uuid "e93636c5-fbfb-47e6-9155-fb565e5c12ef")
	)
	(fp_line
		(start -3.35 0)
		(end -3.35 1.3)
		(stroke
			(width 0.1)
			(type default)
		)
		(layer "Dwgs.User")
		(uuid "0675faba-53fc-40fb-8d30-125632a9d019")
	)
	(fp_line
		(start -3.35 1.3)
		(end -3.85 1.3)
		(stroke
			(width 0.1)
			(type default)
		)
		(layer "Dwgs.User")
		(uuid "81352161-e509-4477-898d-3262c4dcf3cb")
	)
	(fp_line
		(start -2.5 -2.2)
		(end -2.5 -1.3)
		(stroke
			(width 0.1)
			(type default)
		)
		(layer "Dwgs.User")
		(uuid "0a840e25-2a37-431f-bd86-3e83cbc20ec6")
	)
	(fp_line
		(start -2.25 -2.2)
		(end -2.5 -2.2)
		(stroke
			(width 0.1)
			(type default)
		)
		(layer "Dwgs.User")
		(uuid "23229bc3-8e94-42a5-8213-0d7de9dec1d0")
	)
	(fp_line
		(start -2.25 -2.2)
		(end -2 -2.2)
		(stroke
			(width 0.1)
			(type default)
		)
		(layer "Dwgs.User")
		(uuid "f7ed2b20-197a-45b2-9e8a-01bc2b923baa")
	)
	(fp_line
		(start -2 -2.2)
		(end -2 -1.3)
		(stroke
			(width 0.1)
			(type default)
		)
		(layer "Dwgs.User")
		(uuid "d137d607-0787-4732-a117-cc4f289e6c47")
	)
	(fp_line
		(start 0 -1.3)
		(end -3.35 -1.3)
		(stroke
			(width 0.1)
			(type default)
		)
		(layer "Dwgs.User")
		(uuid "246e93c5-aae0-4d96-8691-1d00da4e8616")
	)
	(fp_line
		(start 0 -1.3)
		(end 3.35 -1.3)
		(stroke
			(width 0.1)
			(type default)
		)
		(layer "Dwgs.User")
		(uuid "4373befa-d670-4519-91e0-d23d904e82e5")
	)
	(fp_line
		(start 0 1.3)
		(end -3.35 1.3)
		(stroke
			(width 0.1)
			(type default)
		)
		(layer "Dwgs.User")
		(uuid "cfa8a6b1-1402-4aa9-b6c7-d93d469afc7c")
	)
	(fp_line
		(start 0 1.3)
		(end 0 2.8)
		(stroke
			(width 0.1)
			(type default)
		)
		(layer "Dwgs.User")
		(uuid "b43a4a76-1993-4e83-885b-dc189f36834e")
	)
	(fp_line
		(start 0 1.3)
		(end 3.35 1.3)
		(stroke
			(width 0.1)
			(type default)
		)
		(layer "Dwgs.User")
		(uuid "04d94a84-eb25-4aa4-9aed-6ad89cf33ffd")
	)
	(fp_line
		(start 0 2.8)
		(end 1.5 2.8)
		(stroke
			(width 0.1)
			(type default)
		)
		(layer "Dwgs.User")
		(uuid "42c48813-7682-4788-b721-4705b7be363a")
	)
	(fp_line
		(start 0.5 -2.2)
		(end 0.5 -1.3)
		(stroke
			(width 0.1)
			(type default)
		)
		(layer "Dwgs.User")
		(uuid "2fc0fe54-23f2-499e-acf9-850b4da9a92a")
	)
	(fp_line
		(start 0.75 -2.2)
		(end 0.5 -2.2)
		(stroke
			(width 0.1)
			(type default)
		)
		(layer "Dwgs.User")
		(uuid "f3a0a692-e45d-4eb1-b61c-e8273d090797")
	)
	(fp_line
		(start 0.75 -2.2)
		(end 1 -2.2)
		(stroke
			(width 0.1)
			(type default)
		)
		(layer "Dwgs.User")
		(uuid "7cf9df3f-408d-439a-b7af-6e6c14e931da")
	)
	(fp_line
		(start 1 -2.2)
		(end 1 -1.3)
		(stroke
			(width 0.1)
			(type default)
		)
		(layer "Dwgs.User")
		(uuid "48a09d14-de64-4fcf-9961-1f57e43a9ad9")
	)
	(fp_line
		(start 1.5 2.8)
		(end 1.5 1.3)
		(stroke
			(width 0.1)
			(type default)
		)
		(layer "Dwgs.User")
		(uuid "518e6d48-8e97-4198-b5f0-c2bb9f9b35e6")
	)
	(fp_line
		(start 2 -2.2)
		(end 2 -1.3)
		(stroke
			(width 0.1)
			(type default)
		)
		(layer "Dwgs.User")
		(uuid "f3ded1d7-679b-4de5-873c-4102fc758591")
	)
	(fp_line
		(start 2.25 -2.2)
		(end 2 -2.2)
		(stroke
			(width 0.1)
			(type default)
		)
		(layer "Dwgs.User")
		(uuid "d91a49b8-6f8f-4bf6-b1a8-2812aaabb157")
	)
	(fp_line
		(start 2.25 -2.2)
		(end 2.5 -2.2)
		(stroke
			(width 0.1)
			(type default)
		)
		(layer "Dwgs.User")
		(uuid "d89f17c7-5a45-4068-9b69-6e042bedfcfa")
	)
	(fp_line
		(start 2.5 -2.2)
		(end 2.5 -1.3)
		(stroke
			(width 0.1)
			(type default)
		)
		(layer "Dwgs.User")
		(uuid "dd901646-9782-45ca-b28c-d9d792f86bd6")
	)
	(fp_line
		(start 3.35 -1.3)
		(end 3.35 0)
		(stroke
			(width 0.1)
			(type default)
		)
		(layer "Dwgs.User")
		(uuid "c0f19103-cb2d-4166-81da-5d7696ca2a10")
	)
	(fp_line
		(start 3.35 -1.3)
		(end 3.85 -1.3)
		(stroke
			(width 0.1)
			(type default)
		)
		(layer "Dwgs.User")
		(uuid "66a11a13-708f-4af2-a646-70c5209d1bfd")
	)
	(fp_line
		(start 3.35 1.3)
		(end 3.35 0)
		(stroke
			(width 0.1)
			(type default)
		)
		(layer "Dwgs.User")
		(uuid "01a1f230-faca-4fb3-87a1-24317e88ca82")
	)
	(fp_line
		(start 3.35 1.3)
		(end 3.85 1.3)
		(stroke
			(width 0.1)
			(type default)
		)
		(layer "Dwgs.User")
		(uuid "4b2360db-fa31-4ec9-a15f-ffd47e30ec54")
	)
	(fp_line
		(start 3.85 -1.3)
		(end 3.85 -0.9)
		(stroke
			(width 0.1)
			(type default)
		)
		(layer "Dwgs.User")
		(uuid "6138e2cb-e09a-4cb7-be8f-f6e716ad6fff")
	)
	(fp_line
		(start 3.85 -0.9)
		(end 3.35 -0.9)
		(stroke
			(width 0.1)
			(type default)
		)
		(layer "Dwgs.User")
		(uuid "b43af63d-99bb-4501-bd5e-83c39a68b858")
	)
	(fp_line
		(start 3.85 0.9)
		(end 3.35 0.9)
		(stroke
			(width 0.1)
			(type default)
		)
		(layer "Dwgs.User")
		(uuid "5f176f7d-437a-43af-a090-9e9a47b3cd71")
	)
	(fp_line
		(start 3.85 1.3)
		(end 3.85 0.9)
		(stroke
			(width 0.1)
			(type default)
		)
		(layer "Dwgs.User")
		(uuid "ca84cfcd-b473-454f-a8db-db6ce2c10e2f")
	)
	(fp_line
		(start -3.15 -1.45)
		(end -3.15 -1.05)
		(stroke
			(width 0.1)
			(type default)
		)
		(layer "User.7")
		(uuid "5f50caad-31a6-4a6a-916c-4e5f64585626")
	)
	(fp_line
		(start 3.15 -1.45)
		(end 3.15 -1.05)
		(stroke
			(width 0.1)
			(type default)
		)
		(layer "User.7")
		(uuid "b1729abc-73a9-477d-90bb-d2201fc9f1c3")
	)
	(fp_line
		(start -4.15 -1.45)
		(end -4.15 -0.65)
		(stroke
			(width 0.1)
			(type default)
		)
		(layer "User.8")
		(uuid "4977b83b-f6df-4556-847a-f90205643587")
	)
	(fp_line
		(start -4.15 -0.65)
		(end -3.15 -0.65)
		(stroke
			(width 0.1)
			(type default)
		)
		(layer "User.8")
		(uuid "03a3da3e-b5d5-49c5-90ae-db26362e4649")
	)
	(fp_line
		(start -4.15 0.65)
		(end -3.15 0.65)
		(stroke
			(width 0.1)
			(type default)
		)
		(layer "User.8")
		(uuid "22a5a9de-b24b-4f62-8a3f-937f58c3d541")
	)
	(fp_line
		(start -4.15 1.45)
		(end -4.15 0.65)
		(stroke
			(width 0.1)
			(type default)
		)
		(layer "User.8")
		(uuid "9bfb04be-fefb-4b6a-beca-923fad5257e6")
	)
	(fp_line
		(start -3.15 -1.45)
		(end -4.15 -1.45)
		(stroke
			(width 0.1)
			(type default)
		)
		(layer "User.8")
		(uuid "5e0de4cd-4222-4e30-ac08-544fbd9d219a")
	)
	(fp_line
		(start -3.15 -0.65)
		(end -3.15 -1.45)
		(stroke
			(width 0.1)
			(type default)
		)
		(layer "User.8")
		(uuid "4c789c23-f5be-4abf-97b0-b7a1e2f7ea4a")
	)
	(fp_line
		(start -3.15 0.65)
		(end -3.15 1.45)
		(stroke
			(width 0.1)
			(type default)
		)
		(layer "User.8")
		(uuid "735257ac-6c75-4089-aa32-c01d5e784ccf")
	)
	(fp_line
		(start -3.15 1.45)
		(end -4.15 1.45)
		(stroke
			(width 0.1)
			(type default)
		)
		(layer "User.8")
		(uuid "3fd4ef3d-4875-439b-86e8-6aa6b3d4096a")
	)
	(fp_line
		(start -2.6 -2.55)
		(end -2.25 -2.55)
		(stroke
			(width 0.1)
			(type default)
		)
		(layer "User.8")
		(uuid "cad24dfd-f6be-4313-8ace-d80acfbe99a7")
	)
	(fp_line
		(start -2.6 -1.05)
		(end -2.6 -2.55)
		(stroke
			(width 0.1)
			(type default)
		)
		(layer "User.8")
		(uuid "a54d4601-f6ac-4c15-b2d6-e0995c13d178")
	)
	(fp_line
		(start -2.25 -2.55)
		(end -1.9 -2.55)
		(stroke
			(width 0.1)
			(type default)
		)
		(layer "User.8")
		(uuid "916f527a-b63c-4997-bf70-ceec8cc481ad")
	)
	(fp_line
		(start -1.9 -2.55)
		(end -1.9 -1.05)
		(stroke
			(width 0.1)
			(type default)
		)
		(layer "User.8")
		(uuid "ea9dd54f-575d-44c2-b829-fa7bba01fbba")
	)
	(fp_line
		(start -1.9 -1.05)
		(end -2.6 -1.05)
		(stroke
			(width 0.1)
			(type default)
		)
		(layer "User.8")
		(uuid "4e89b360-47d7-4d11-8a31-9d956c5a60f3")
	)
	(fp_line
		(start 0.4 -2.55)
		(end 0.75 -2.55)
		(stroke
			(width 0.1)
			(type default)
		)
		(layer "User.8")
		(uuid "d2677643-bb22-4f5b-8ef4-1dcf3a550f98")
	)
	(fp_line
		(start 0.4 -1.05)
		(end 0.4 -2.55)
		(stroke
			(width 0.1)
			(type default)
		)
		(layer "User.8")
		(uuid "f2da8c52-2de9-4c94-a398-70256af4b3d0")
	)
	(fp_line
		(start 0.75 -2.55)
		(end 1.1 -2.55)
		(stroke
			(width 0.1)
			(type default)
		)
		(layer "User.8")
		(uuid "8963430b-e644-4a9b-9432-2e5b863fca2c")
	)
	(fp_line
		(start 1.1 -2.55)
		(end 1.1 -1.05)
		(stroke
			(width 0.1)
			(type default)
		)
		(layer "User.8")
		(uuid "03c8c754-4c30-4ef3-917f-fe643c3069bc")
	)
	(fp_line
		(start 1.1 -1.05)
		(end 0.4 -1.05)
		(stroke
			(width 0.1)
			(type default)
		)
		(layer "User.8")
		(uuid "2139c9b1-6eb5-49e7-94c8-37b4b59ecb24")
	)
	(fp_line
		(start 1.9 -2.55)
		(end 2.25 -2.55)
		(stroke
			(width 0.1)
			(type default)
		)
		(layer "User.8")
		(uuid "b30b82e8-5a59-4846-bf47-9608b2941ddc")
	)
	(fp_line
		(start 1.9 -1.05)
		(end 1.9 -2.55)
		(stroke
			(width 0.1)
			(type default)
		)
		(layer "User.8")
		(uuid "7942c7ca-f7e8-4730-af92-4726d8b48ff6")
	)
	(fp_line
		(start 2.25 -2.55)
		(end 2.6 -2.55)
		(stroke
			(width 0.1)
			(type default)
		)
		(layer "User.8")
		(uuid "be088dbf-8fde-47d6-afef-bf97a6d3e53d")
	)
	(fp_line
		(start 2.6 -2.55)
		(end 2.6 -1.05)
		(stroke
			(width 0.1)
			(type default)
		)
		(layer "User.8")
		(uuid "b5bd58af-af8b-457d-b637-6b652cfd3c3d")
	)
	(fp_line
		(start 2.6 -1.05)
		(end 1.9 -1.05)
		(stroke
			(width 0.1)
			(type default)
		)
		(layer "User.8")
		(uuid "e5f641f6-4cba-47c6-ad0c-36eef6cd9d11")
	)
	(fp_line
		(start 3.15 -1.45)
		(end 4.15 -1.45)
		(stroke
			(width 0.1)
			(type default)
		)
		(layer "User.8")
		(uuid "5ef8cdd0-eddf-46b9-8f2a-9960761418b1")
	)
	(fp_line
		(start 3.15 -0.65)
		(end 3.15 -1.45)
		(stroke
			(width 0.1)
			(type default)
		)
		(layer "User.8")
		(uuid "92a30886-96a0-4d43-914e-8030e1dd2c3b")
	)
	(fp_line
		(start 3.15 0.65)
		(end 3.15 1.45)
		(stroke
			(width 0.1)
			(type default)
		)
		(layer "User.8")
		(uuid "86e5e23f-3b1b-4b88-8387-e7b95d5b981b")
	)
	(fp_line
		(start 3.15 1.45)
		(end 4.15 1.45)
		(stroke
			(width 0.1)
			(type default)
		)
		(layer "User.8")
		(uuid "566e5836-12dc-4f0c-91b3-4970eba1fba3")
	)
	(fp_line
		(start 4.15 -1.45)
		(end 4.15 -0.65)
		(stroke
			(width 0.1)
			(type default)
		)
		(layer "User.8")
		(uuid "69aa23c6-d7d5-4c53-a1f4-30b1021b4511")
	)
	(fp_line
		(start 4.15 -0.65)
		(end 3.15 -0.65)
		(stroke
			(width 0.1)
			(type default)
		)
		(layer "User.8")
		(uuid "1597c3c8-fc5f-4c2e-9859-b97bc76c41f5")
	)
	(fp_line
		(start 4.15 0.65)
		(end 3.15 0.65)
		(stroke
			(width 0.1)
			(type default)
		)
		(layer "User.8")
		(uuid "f0fa96b0-8c1c-4cea-af46-2bfef06b8a29")
	)
	(fp_line
		(start 4.15 1.45)
		(end 4.15 0.65)
		(stroke
			(width 0.1)
			(type default)
		)
		(layer "User.8")
		(uuid "c501717c-e7e5-4f7a-a214-ad36965ffc1d")
	)
	(pad "" np_thru_hole circle
		(at -1.5 0 180)
		(size 0.9 0.9)
		(drill 0.9)
		(layers "F&B.Cu" "*.Mask")
		(uuid "11dbf605-1687-4c3e-88de-3a57f07a97d0")
	)
	(pad "" np_thru_hole circle
		(at 1.5 0 180)
		(size 0.9 0.9)
		(drill 0.9)
		(layers "F&B.Cu" "*.Mask")
		(uuid "0b9a85e0-50f9-418d-aa56-7f7b7e45f9e0")
	)
	(pad "1" smd rect
		(at -2.2479 -1.8)
		(size 0.7 1.5)
		(layers "F.Cu" "F.Paste" "F.Mask")
		(uuid "784dce1a-ab04-48fe-a55e-b5692b1e6721")
	)
	(pad "2" smd rect
		(at 0.75 -1.8)
		(size 0.7 1.5)
		(layers "F.Cu" "F.Paste" "F.Mask")
		(uuid "f79c19f1-50e3-4d67-9df6-8778b9148e7d")
	)
	(pad "3" smd rect
		(at 2.25 -1.8)
		(size 0.7 1.5)
		(layers "F.Cu" "F.Paste" "F.Mask")
		(uuid "0e5d9b5c-6f11-4429-afd9-7706cd4abcdd")
	)
	(pad "4" smd rect
		(at -3.65 -1.05 180)
		(size 1 0.8)
		(layers "F.Cu" "F.Paste" "F.Mask")
		(uuid "c9c2aca4-4e43-48ab-8743-ad749b211e8e")
	)
	(pad "4" smd rect
		(at -3.64998 1.05 180)
		(size 1 0.8)
		(layers "F.Cu" "F.Paste" "F.Mask")
		(uuid "0b815a12-a8cf-4be1-be46-d5bfb430d2ff")
	)
	(pad "4" smd rect
		(at 3.64998 -1.05 180)
		(size 1 0.8)
		(layers "F.Cu" "F.Paste" "F.Mask")
		(uuid "5cf9731d-7829-4f7c-84b6-9d94d00d6574")
	)
	(pad "4" smd rect
		(at 3.65 1.05 180)
		(size 1 0.8)
		(layers "F.Cu" "F.Paste" "F.Mask")
		(uuid "b5a4993c-c8c6-4da8-9785-2482723f4561")
	)
	(model "Z:/Electronics/Cad/KiCad/GITLIBS/third-party/MK_THIRD_PARTY/mk_third_party3D/CUS-12TB.stp"
		(offset
			(xyz 0 0 1.36)
		)
		(scale
			(xyz 1 1 1)
		)
		(rotate
			(xyz 0 0 -180)
		)
	)
)
