(module PLAPPLE_USB_C2p0 (layer F.Cu) (tedit 61271C10)
  (fp_text reference REF** (at 8.25 -1.23) (layer F.Fab)
    (effects (font (size 1 1) (thickness 0.15)))
  )
  (fp_text value PLAPPLE_USB_C2p0 (at 7.5 -17.78) (layer F.Fab) hide
    (effects (font (size 1 1) (thickness 0.15)))
  )
  (fp_line (start 0 2.54) (end 16.25 2.54) (layer Dwgs.User) (width 0.05))
  (fp_line (start 0 0) (end 16.25 0) (layer Dwgs.User) (width 0.05))
  (fp_line (start 0 -2.54) (end 16.25 -2.54) (layer Dwgs.User) (width 0.05))
  (fp_line (start 0 -4.14) (end 0 -16.14) (layer Dwgs.User) (width 0.05))
  (fp_line (start 16.25 -4.14) (end 16.25 -16.14) (layer Dwgs.User) (width 0.05))
  (fp_line (start 12.35 -4.14) (end 4.15 -4.14) (layer Dwgs.User) (width 0.05))
  (fp_line (start 4.15 -4.14) (end 4.15 -15.14) (layer Dwgs.User) (width 0.05))
  (fp_line (start 12.35 -4.14) (end 12.35 -15.14) (layer Dwgs.User) (width 0.05))
  (fp_line (start 1.75 1.27) (end 0 1.27) (layer Dwgs.User) (width 0.05))
  (fp_line (start 16.25 1.27) (end 14.5 1.27) (layer Dwgs.User) (width 0.05))
  (fp_line (start 0 0) (end 0 1.27) (layer Dwgs.User) (width 0.05))
  (fp_line (start 16.25 0) (end 16.25 1.27) (layer Dwgs.User) (width 0.05))
  (fp_line (start 0 1.27) (end 0 2.54) (layer Dwgs.User) (width 0.05))
  (fp_line (start 16.25 2.54) (end 16.25 1.27) (layer Dwgs.User) (width 0.05))
  (fp_line (start 0 -2.54) (end 0 0) (layer Dwgs.User) (width 0.05))
  (fp_line (start 16.25 -2.54) (end 16.25 0) (layer Dwgs.User) (width 0.05))
  (fp_line (start 2.75 -6.35) (end 0 -6.35) (layer Dwgs.User) (width 0.05))
  (fp_line (start 0 -14.54) (end 2.75 -14.54) (layer Dwgs.User) (width 0.05))
  (fp_line (start 4.15 -4.14) (end 0 -4.14) (layer Dwgs.User) (width 0.05))
  (fp_line (start 0 -2.54) (end 0 -4.14) (layer Dwgs.User) (width 0.05))
  (fp_line (start 12.35 -4.14) (end 16.35 -4.14) (layer Dwgs.User) (width 0.05))
  (fp_line (start 0 -16.14) (end 16.25 -16.14) (layer Dwgs.User) (width 0.05))
  (fp_line (start 16.25 -2.54) (end 16.25 -4.14) (layer Dwgs.User) (width 0.05))
  (fp_line (start -0.25 -2.23) (end -0.25 -0.23) (layer F.SilkS) (width 0.15))
  (fp_line (start 16.5 -2.23) (end 16.5 -0.23) (layer F.SilkS) (width 0.15))
  (fp_line (start 0.25 -2.73) (end 16 -2.73) (layer F.SilkS) (width 0.15))
  (fp_line (start 16.5 0.27) (end 16.5 2.77) (layer F.SilkS) (width 0.15))
  (fp_line (start 16.5 2.77) (end -0.25 2.77) (layer F.SilkS) (width 0.15))
  (fp_line (start -0.25 2.77) (end -0.25 0.27) (layer F.SilkS) (width 0.15))
  (pad 1 thru_hole circle (at 1.75 1.27) (size 1.524 1.524) (drill 0.762) (layers *.Cu *.Mask))
  (pad 2 thru_hole circle (at 4.29 1.27) (size 1.524 1.524) (drill 0.762) (layers *.Cu *.Mask))
  (pad 3 thru_hole circle (at 6.83 1.27) (size 1.524 1.524) (drill 0.762) (layers *.Cu *.Mask))
  (pad 4 thru_hole circle (at 9.37 1.27) (size 1.524 1.524) (drill 0.762) (layers *.Cu *.Mask))
  (pad 5 thru_hole circle (at 11.91 1.27) (size 1.524 1.524) (drill 0.762) (layers *.Cu *.Mask))
  (pad 6 thru_hole circle (at 14.45 1.27) (size 1.524 1.524) (drill 0.762) (layers *.Cu *.Mask))
)
