(footprint "PR0200F02R1-045W050L-S" (version 20221018) (generator pcbnew)
  (layer "F.Cu")
  (descr "Power Responder Hybrid Capacitor")
  (attr smd)
  (fp_text reference "REF**" (at 0 -0.5 unlocked) (layer "F.Fab")
      (effects (font (size 1 1) (thickness 0.15)))
    (tstamp cc7fc019-d11d-40f0-8d54-e6466914587f)
  )
  (fp_text value "PR0200F02R1-045W050L-S" (at 0 1 unlocked) (layer "B.Fab")
      (effects (font (size 1 1) (thickness 0.15)) (justify mirror))
    (tstamp 41197704-4b56-470c-9fb5-3a2aa12ed731)
  )
  (fp_text user "+" (at 14 -29 unlocked) (layer "F.SilkS")
      (effects (font (size 1 1) (thickness 0.15)))
    (tstamp efb609ff-d0a3-4b14-8f94-95f822e845af)
  )
  (fp_line (start -25.5 22.5) (end -25.5 -22.5)
    (stroke (width 0.15) (type solid)) (layer "F.SilkS") (tstamp a8e42827-0430-45c8-8569-ee3de0f3ceb6))
  (fp_line (start -25 23) (end 25 23)
    (stroke (width 0.15) (type solid)) (layer "F.SilkS") (tstamp c1fedcb1-5209-45f8-8dea-be5d400637e3))
  (fp_line (start -11 -33.5) (end -11 -24.5)
    (stroke (width 0.15) (type solid)) (layer "F.SilkS") (tstamp de9b4303-fba8-46fe-a744-600728f4a9c7))
  (fp_line (start -5 -33.5) (end -11 -33.5)
    (stroke (width 0.15) (type solid)) (layer "F.SilkS") (tstamp 9cfacd49-5892-4b6c-9ba0-e54f49c5c145))
  (fp_line (start -5 -24.5) (end -5 -33.5)
    (stroke (width 0.15) (type solid)) (layer "F.SilkS") (tstamp 1544ffa5-a817-46e8-8b30-38ba9803c28b))
  (fp_line (start 7 -33.5) (end 7 -24.5)
    (stroke (width 0.15) (type solid)) (layer "F.SilkS") (tstamp b75f5ac4-bac3-40aa-ac26-a0f37d083a8a))
  (fp_line (start 13 -33.5) (end 7 -33.5)
    (stroke (width 0.15) (type solid)) (layer "F.SilkS") (tstamp 6db1f577-cfa8-4131-8c9d-9b775b154c48))
  (fp_line (start 13 -25) (end 13 -33.5)
    (stroke (width 0.15) (type solid)) (layer "F.SilkS") (tstamp a0b7468c-ad01-45f6-bf49-337185f59efe))
  (fp_line (start 25.5 -22.5) (end 25.5 22.5)
    (stroke (width 0.15) (type solid)) (layer "F.SilkS") (tstamp 8fd7e1d8-c9e6-454c-ace0-2baf17d6029f))
  (fp_line (start -25 0) (end -25 -22.5)
    (stroke (width 0.15) (type solid)) (layer "Dwgs.User") (tstamp 118fc922-1734-4b8a-8977-32d8dba346e3))
  (fp_line (start -25 22.5) (end -25 0)
    (stroke (width 0.15) (type solid)) (layer "Dwgs.User") (tstamp aab82c69-231e-464d-9ccf-97d3435cd418))
  (fp_line (start -10 -32.5) (end -10 -22.5)
    (stroke (width 0.05) (type solid)) (layer "Dwgs.User") (tstamp 55e13acf-37c9-4d5c-9c18-eace1a22d2d6))
  (fp_line (start -10 -24.5) (end -8 -24.5)
    (stroke (width 0.05) (type solid)) (layer "Dwgs.User") (tstamp 1326f82e-5fed-41fb-a069-28ff25967ce0))
  (fp_line (start -10 -22.5) (end -8 -22.5)
    (stroke (width 0.05) (type solid)) (layer "Dwgs.User") (tstamp c2f42d0e-182d-458d-9f0c-146a523dce3a))
  (fp_line (start -8 -26.5) (end -10 -26.5)
    (stroke (width 0.05) (type solid)) (layer "Dwgs.User") (tstamp d8bcc9d2-7a8b-47e3-8379-8205e3ccd277))
  (fp_line (start -8 -26.5) (end -6 -26.5)
    (stroke (width 0.05) (type solid)) (layer "Dwgs.User") (tstamp e2aaecce-8c05-40b6-8d2b-e82b7b645fb6))
  (fp_line (start -8 -24.5) (end -8 -26.5)
    (stroke (width 0.05) (type solid)) (layer "Dwgs.User") (tstamp e4c7f75c-cc57-4aac-a07b-6a48111dcbdf))
  (fp_line (start -8 -24.5) (end -6 -24.5)
    (stroke (width 0.05) (type solid)) (layer "Dwgs.User") (tstamp 9e160178-9429-40ea-aed3-61a2b2646808))
  (fp_line (start -8 -22.5) (end -8 -24.5)
    (stroke (width 0.05) (type solid)) (layer "Dwgs.User") (tstamp b49183d6-bca3-4881-97fb-34b9ad1129f0))
  (fp_line (start -8 -22.5) (end -6 -22.5)
    (stroke (width 0.05) (type solid)) (layer "Dwgs.User") (tstamp 6ea8bb5a-b364-46aa-b045-0becb11a8c0d))
  (fp_line (start -8 -22) (end 10 -22)
    (stroke (width 0.05) (type solid)) (layer "Dwgs.User") (tstamp 3ca644c4-63b8-469b-ae34-990ba9cdd398))
  (fp_line (start -6 -32.5) (end -10 -32.5)
    (stroke (width 0.05) (type solid)) (layer "Dwgs.User") (tstamp 8c4e47b8-0b2b-4bf8-b1fb-73364aa11902))
  (fp_line (start -6 -22.5) (end -6 -32.5)
    (stroke (width 0.05) (type solid)) (layer "Dwgs.User") (tstamp 37b46d9b-ca30-4888-9ac1-a428e98bf180))
  (fp_line (start -6 -22.5) (end 8 -22.5)
    (stroke (width 0.15) (type solid)) (layer "Dwgs.User") (tstamp 85762d00-cf6c-4160-902e-d3ab11f8ec4e))
  (fp_line (start 8 -24.5) (end 10 -24.5)
    (stroke (width 0.05) (type solid)) (layer "Dwgs.User") (tstamp 05c59cab-0d2e-4436-a91e-969f0881bc31))
  (fp_line (start 8 -22.5) (end 8 -32.5)
    (stroke (width 0.05) (type solid)) (layer "Dwgs.User") (tstamp 3dd10c23-168f-4fa8-91bd-1d25290089c6))
  (fp_line (start 10 -26.5) (end 8 -26.5)
    (stroke (width 0.05) (type solid)) (layer "Dwgs.User") (tstamp 66810ad8-6074-4bdd-8dd5-7bdb10f35d19))
  (fp_line (start 10 -26.5) (end 12 -26.5)
    (stroke (width 0.05) (type solid)) (layer "Dwgs.User") (tstamp 6f9d9f70-4ba6-4952-93db-60ac9da7c8ba))
  (fp_line (start 10 -24.5) (end 10 -26.5)
    (stroke (width 0.05) (type solid)) (layer "Dwgs.User") (tstamp d3be1b27-cac6-4abb-b03b-7bf9868be32c))
  (fp_line (start 10 -24.5) (end 12 -24.5)
    (stroke (width 0.05) (type solid)) (layer "Dwgs.User") (tstamp 8b6744d0-daea-4d52-9435-6810f57e3ce6))
  (fp_line (start 10 -22.5) (end 8 -22.5)
    (stroke (width 0.05) (type solid)) (layer "Dwgs.User") (tstamp 239645ce-6981-4ab1-a50a-c2e8b8411afe))
  (fp_line (start 10 -22.5) (end 10 -24.5)
    (stroke (width 0.05) (type solid)) (layer "Dwgs.User") (tstamp b77b011a-498a-456a-ab3a-810fd1ded72f))
  (fp_line (start 10 -22.5) (end 12 -22.5)
    (stroke (width 0.05) (type solid)) (layer "Dwgs.User") (tstamp 0a3bfe6f-c590-4e2b-8644-a7b9e8b40b7c))
  (fp_line (start 12 -32.5) (end 8 -32.5)
    (stroke (width 0.05) (type solid)) (layer "Dwgs.User") (tstamp 1c797aa3-860d-4dee-94d6-e362db7a4b0e))
  (fp_line (start 12 -22.5) (end 12 -32.5)
    (stroke (width 0.05) (type solid)) (layer "Dwgs.User") (tstamp df4b64fa-69c4-4e82-a2d2-9414c4d672ea))
  (fp_line (start 12 -22.5) (end 25 -22.5)
    (stroke (width 0.15) (type solid)) (layer "Dwgs.User") (tstamp ef94142d-0d41-4463-a4a0-8c472e374340))
  (fp_line (start 25 0) (end 25 -22.5)
    (stroke (width 0.15) (type solid)) (layer "Dwgs.User") (tstamp fea27efa-d464-4911-a7a9-5f35d4654839))
  (fp_line (start 25 22.5) (end 25 0)
    (stroke (width 0.15) (type solid)) (layer "Dwgs.User") (tstamp 6530f66a-45a9-4853-be1e-d7af0e963764))
  (fp_rect (start -25 -22.5) (end -10 -22.5)
    (stroke (width 0.15) (type solid)) (fill none) (layer "Dwgs.User") (tstamp 01ff5ef4-d2ee-46bc-953f-6db8e304dbc8))
  (fp_rect (start 0 0) (end -25 0)
    (stroke (width 0.15) (type solid)) (fill none) (layer "Dwgs.User") (tstamp 72772eb4-d7cc-45c9-95d2-d8e60cdf6dae))
  (fp_rect (start 0 22.5) (end -25 22.5)
    (stroke (width 0.15) (type solid)) (fill none) (layer "Dwgs.User") (tstamp 3becc9a8-a6a9-48cf-b378-071374f21b69))
  (fp_rect (start 0 22.5) (end 25 22.5)
    (stroke (width 0.15) (type solid)) (fill none) (layer "Dwgs.User") (tstamp 2563ff4a-f1f9-406d-b475-35d064bf1460))
  (fp_rect (start 25 0) (end 0 0)
    (stroke (width 0.15) (type solid)) (fill none) (layer "Dwgs.User") (tstamp 86e74a34-f50e-45ac-b759-cb2a0bcbbb85))
  (pad "1" smd rect (at 10 -28.75) (size 5 8.5) (layers "B.Cu" "F.Paste" "F.Mask") (tstamp e515238a-98a0-4613-b2f0-6d05a22b5158))
  (pad "2" smd rect (at -8 -28.75) (size 5 8.5) (layers "B.Cu" "F.Paste" "F.Mask") (tstamp 509527d9-13c8-4c28-b23e-e1f012e08958))
)
