
(module SAMTEC_FSI-150-10-X-D-E-AD-TR (layer F.Cu) (tedit 65CFB3AB)
  (descr "")
  (attr smd)
  (fp_text reference REF** (at -26.373 -6.985 0) (layer F.SilkS)
    (effects (font (size 1.0 1.0) (thickness 0.15)))
  )
  (fp_text value SAMTEC_FSI-150-10-X-D-E-AD-TR (at -11.387 6.477 0) (layer F.Fab)
    (effects (font (size 1.0 1.0) (thickness 0.15)))
  )
  (pad 06 smd rect (at -26.5 4.73) (size 0.61 1.26) (layers F.Cu F.Mask F.Paste) (solder_mask_margin 0.102))
  (pad 04 smd rect (at -27.5 4.73) (size 0.61 1.26) (layers F.Cu F.Mask F.Paste) (solder_mask_margin 0.102))
  (pad 02 smd rect (at -28.5 4.73) (size 0.61 1.26) (layers F.Cu F.Mask F.Paste) (solder_mask_margin 0.102))
  (pad 08 smd rect (at -25.5 4.73) (size 0.61 1.26) (layers F.Cu F.Mask F.Paste) (solder_mask_margin 0.102))
  (pad 10 smd rect (at -24.5 4.73) (size 0.61 1.26) (layers F.Cu F.Mask F.Paste) (solder_mask_margin 0.102))
  (pad 05 smd rect (at -26.5 -4.73) (size 0.61 1.26) (layers F.Cu F.Mask F.Paste) (solder_mask_margin 0.102))
  (pad 03 smd rect (at -27.5 -4.73) (size 0.61 1.26) (layers F.Cu F.Mask F.Paste) (solder_mask_margin 0.102))
  (pad 01 smd rect (at -28.5 -4.73) (size 0.61 1.26) (layers F.Cu F.Mask F.Paste) (solder_mask_margin 0.102))
  (pad 07 smd rect (at -25.5 -4.73) (size 0.61 1.26) (layers F.Cu F.Mask F.Paste) (solder_mask_margin 0.102))
  (pad 09 smd rect (at -24.5 -4.73) (size 0.61 1.26) (layers F.Cu F.Mask F.Paste) (solder_mask_margin 0.102))
  (pad 11 smd rect (at -23.5 -4.73) (size 0.61 1.26) (layers F.Cu F.Mask F.Paste) (solder_mask_margin 0.102))
  (pad 12 smd rect (at -23.5 4.73) (size 0.61 1.26) (layers F.Cu F.Mask F.Paste) (solder_mask_margin 0.102))
  (pad 13 smd rect (at -22.5 -4.73) (size 0.61 1.26) (layers F.Cu F.Mask F.Paste) (solder_mask_margin 0.102))
  (pad 14 smd rect (at -22.5 4.73) (size 0.61 1.26) (layers F.Cu F.Mask F.Paste) (solder_mask_margin 0.102))
  (pad 15 smd rect (at -21.5 -4.73) (size 0.61 1.26) (layers F.Cu F.Mask F.Paste) (solder_mask_margin 0.102))
  (pad 16 smd rect (at -21.5 4.73) (size 0.61 1.26) (layers F.Cu F.Mask F.Paste) (solder_mask_margin 0.102))
  (pad 17 smd rect (at -20.5 -4.73) (size 0.61 1.26) (layers F.Cu F.Mask F.Paste) (solder_mask_margin 0.102))
  (pad 18 smd rect (at -20.5 4.73) (size 0.61 1.26) (layers F.Cu F.Mask F.Paste) (solder_mask_margin 0.102))
  (pad 19 smd rect (at -19.5 -4.73) (size 0.61 1.26) (layers F.Cu F.Mask F.Paste) (solder_mask_margin 0.102))
  (pad 20 smd rect (at -19.5 4.73) (size 0.61 1.26) (layers F.Cu F.Mask F.Paste) (solder_mask_margin 0.102))
  (pad 21 smd rect (at -18.5 -4.73) (size 0.61 1.26) (layers F.Cu F.Mask F.Paste) (solder_mask_margin 0.102))
  (pad 22 smd rect (at -18.5 4.73) (size 0.61 1.26) (layers F.Cu F.Mask F.Paste) (solder_mask_margin 0.102))
  (pad 23 smd rect (at -17.5 -4.73) (size 0.61 1.26) (layers F.Cu F.Mask F.Paste) (solder_mask_margin 0.102))
  (pad 24 smd rect (at -17.5 4.73) (size 0.61 1.26) (layers F.Cu F.Mask F.Paste) (solder_mask_margin 0.102))
  (pad 25 smd rect (at -16.5 -4.73) (size 0.61 1.26) (layers F.Cu F.Mask F.Paste) (solder_mask_margin 0.102))
  (pad 26 smd rect (at -16.5 4.73) (size 0.61 1.26) (layers F.Cu F.Mask F.Paste) (solder_mask_margin 0.102))
  (pad 27 smd rect (at -15.5 -4.73) (size 0.61 1.26) (layers F.Cu F.Mask F.Paste) (solder_mask_margin 0.102))
  (pad 28 smd rect (at -15.5 4.73) (size 0.61 1.26) (layers F.Cu F.Mask F.Paste) (solder_mask_margin 0.102))
  (pad 29 smd rect (at -14.5 -4.73) (size 0.61 1.26) (layers F.Cu F.Mask F.Paste) (solder_mask_margin 0.102))
  (pad 30 smd rect (at -14.5 4.73) (size 0.61 1.26) (layers F.Cu F.Mask F.Paste) (solder_mask_margin 0.102))
  (pad 31 smd rect (at -13.5 -4.73) (size 0.61 1.26) (layers F.Cu F.Mask F.Paste) (solder_mask_margin 0.102))
  (pad 32 smd rect (at -13.5 4.73) (size 0.61 1.26) (layers F.Cu F.Mask F.Paste) (solder_mask_margin 0.102))
  (pad 33 smd rect (at -12.5 -4.73) (size 0.61 1.26) (layers F.Cu F.Mask F.Paste) (solder_mask_margin 0.102))
  (pad 34 smd rect (at -12.5 4.73) (size 0.61 1.26) (layers F.Cu F.Mask F.Paste) (solder_mask_margin 0.102))
  (pad 35 smd rect (at -11.5 -4.73) (size 0.61 1.26) (layers F.Cu F.Mask F.Paste) (solder_mask_margin 0.102))
  (pad 36 smd rect (at -11.5 4.73) (size 0.61 1.26) (layers F.Cu F.Mask F.Paste) (solder_mask_margin 0.102))
  (pad 37 smd rect (at -10.5 -4.73) (size 0.61 1.26) (layers F.Cu F.Mask F.Paste) (solder_mask_margin 0.102))
  (pad 38 smd rect (at -10.5 4.73) (size 0.61 1.26) (layers F.Cu F.Mask F.Paste) (solder_mask_margin 0.102))
  (pad 39 smd rect (at -9.5 -4.73) (size 0.61 1.26) (layers F.Cu F.Mask F.Paste) (solder_mask_margin 0.102))
  (pad 40 smd rect (at -9.5 4.73) (size 0.61 1.26) (layers F.Cu F.Mask F.Paste) (solder_mask_margin 0.102))
  (pad 41 smd rect (at -8.5 -4.73) (size 0.61 1.26) (layers F.Cu F.Mask F.Paste) (solder_mask_margin 0.102))
  (pad 42 smd rect (at -8.5 4.73) (size 0.61 1.26) (layers F.Cu F.Mask F.Paste) (solder_mask_margin 0.102))
  (pad 43 smd rect (at -7.5 -4.73) (size 0.61 1.26) (layers F.Cu F.Mask F.Paste) (solder_mask_margin 0.102))
  (pad 44 smd rect (at -7.5 4.73) (size 0.61 1.26) (layers F.Cu F.Mask F.Paste) (solder_mask_margin 0.102))
  (pad 45 smd rect (at -6.5 -4.73) (size 0.61 1.26) (layers F.Cu F.Mask F.Paste) (solder_mask_margin 0.102))
  (pad 46 smd rect (at -6.5 4.73) (size 0.61 1.26) (layers F.Cu F.Mask F.Paste) (solder_mask_margin 0.102))
  (pad 47 smd rect (at -5.5 -4.73) (size 0.61 1.26) (layers F.Cu F.Mask F.Paste) (solder_mask_margin 0.102))
  (pad 48 smd rect (at -5.5 4.73) (size 0.61 1.26) (layers F.Cu F.Mask F.Paste) (solder_mask_margin 0.102))
  (pad 49 smd rect (at -4.5 -4.73) (size 0.61 1.26) (layers F.Cu F.Mask F.Paste) (solder_mask_margin 0.102))
  (pad 50 smd rect (at -4.5 4.73) (size 0.61 1.26) (layers F.Cu F.Mask F.Paste) (solder_mask_margin 0.102))
  (pad 51 smd rect (at 4.5 -4.73) (size 0.61 1.26) (layers F.Cu F.Mask F.Paste) (solder_mask_margin 0.102))
  (pad 52 smd rect (at 4.5 4.73) (size 0.61 1.26) (layers F.Cu F.Mask F.Paste) (solder_mask_margin 0.102))
  (pad 53 smd rect (at 5.5 -4.73) (size 0.61 1.26) (layers F.Cu F.Mask F.Paste) (solder_mask_margin 0.102))
  (pad 54 smd rect (at 5.5 4.73) (size 0.61 1.26) (layers F.Cu F.Mask F.Paste) (solder_mask_margin 0.102))
  (pad 55 smd rect (at 6.5 -4.73) (size 0.61 1.26) (layers F.Cu F.Mask F.Paste) (solder_mask_margin 0.102))
  (pad 56 smd rect (at 6.5 4.73) (size 0.61 1.26) (layers F.Cu F.Mask F.Paste) (solder_mask_margin 0.102))
  (pad 57 smd rect (at 7.5 -4.73) (size 0.61 1.26) (layers F.Cu F.Mask F.Paste) (solder_mask_margin 0.102))
  (pad 58 smd rect (at 7.5 4.73) (size 0.61 1.26) (layers F.Cu F.Mask F.Paste) (solder_mask_margin 0.102))
  (pad 59 smd rect (at 8.5 -4.73) (size 0.61 1.26) (layers F.Cu F.Mask F.Paste) (solder_mask_margin 0.102))
  (pad 60 smd rect (at 8.5 4.73) (size 0.61 1.26) (layers F.Cu F.Mask F.Paste) (solder_mask_margin 0.102))
  (pad None np_thru_hole circle (at -32.62 0.0) (size 2.54 2.54) (drill 2.54) (layers *.Cu *.Mask))
  (pad None np_thru_hole circle (at 32.62 0.0) (size 2.54 2.54) (drill 2.54) (layers *.Cu *.Mask))
  (pad 61 smd rect (at 9.5 -4.73) (size 0.61 1.26) (layers F.Cu F.Mask F.Paste) (solder_mask_margin 0.102))
  (pad 62 smd rect (at 9.5 4.73) (size 0.61 1.26) (layers F.Cu F.Mask F.Paste) (solder_mask_margin 0.102))
  (pad 63 smd rect (at 10.5 -4.73) (size 0.61 1.26) (layers F.Cu F.Mask F.Paste) (solder_mask_margin 0.102))
  (pad 64 smd rect (at 10.5 4.73) (size 0.61 1.26) (layers F.Cu F.Mask F.Paste) (solder_mask_margin 0.102))
  (pad 65 smd rect (at 11.5 -4.73) (size 0.61 1.26) (layers F.Cu F.Mask F.Paste) (solder_mask_margin 0.102))
  (pad 66 smd rect (at 11.5 4.73) (size 0.61 1.26) (layers F.Cu F.Mask F.Paste) (solder_mask_margin 0.102))
  (pad 67 smd rect (at 12.5 -4.73) (size 0.61 1.26) (layers F.Cu F.Mask F.Paste) (solder_mask_margin 0.102))
  (pad 68 smd rect (at 12.5 4.73) (size 0.61 1.26) (layers F.Cu F.Mask F.Paste) (solder_mask_margin 0.102))
  (pad 69 smd rect (at 13.5 -4.73) (size 0.61 1.26) (layers F.Cu F.Mask F.Paste) (solder_mask_margin 0.102))
  (pad 70 smd rect (at 13.5 4.73) (size 0.61 1.26) (layers F.Cu F.Mask F.Paste) (solder_mask_margin 0.102))
  (pad 71 smd rect (at 14.5 -4.73) (size 0.61 1.26) (layers F.Cu F.Mask F.Paste) (solder_mask_margin 0.102))
  (pad 72 smd rect (at 14.5 4.73) (size 0.61 1.26) (layers F.Cu F.Mask F.Paste) (solder_mask_margin 0.102))
  (pad 73 smd rect (at 15.5 -4.73) (size 0.61 1.26) (layers F.Cu F.Mask F.Paste) (solder_mask_margin 0.102))
  (pad 74 smd rect (at 15.5 4.73) (size 0.61 1.26) (layers F.Cu F.Mask F.Paste) (solder_mask_margin 0.102))
  (pad 75 smd rect (at 16.5 -4.73) (size 0.61 1.26) (layers F.Cu F.Mask F.Paste) (solder_mask_margin 0.102))
  (pad 76 smd rect (at 16.5 4.73) (size 0.61 1.26) (layers F.Cu F.Mask F.Paste) (solder_mask_margin 0.102))
  (pad 77 smd rect (at 17.5 -4.73) (size 0.61 1.26) (layers F.Cu F.Mask F.Paste) (solder_mask_margin 0.102))
  (pad 78 smd rect (at 17.5 4.73) (size 0.61 1.26) (layers F.Cu F.Mask F.Paste) (solder_mask_margin 0.102))
  (pad 79 smd rect (at 18.5 -4.73) (size 0.61 1.26) (layers F.Cu F.Mask F.Paste) (solder_mask_margin 0.102))
  (pad 80 smd rect (at 18.5 4.73) (size 0.61 1.26) (layers F.Cu F.Mask F.Paste) (solder_mask_margin 0.102))
  (pad None np_thru_hole circle (at 0.0 0.0) (size 2.54 2.54) (drill 2.54) (layers *.Cu *.Mask))
  (pad 81 smd rect (at 19.5 -4.73) (size 0.61 1.26) (layers F.Cu F.Mask F.Paste) (solder_mask_margin 0.102))
  (pad 82 smd rect (at 19.5 4.73) (size 0.61 1.26) (layers F.Cu F.Mask F.Paste) (solder_mask_margin 0.102))
  (pad 83 smd rect (at 20.5 -4.73) (size 0.61 1.26) (layers F.Cu F.Mask F.Paste) (solder_mask_margin 0.102))
  (pad 84 smd rect (at 20.5 4.73) (size 0.61 1.26) (layers F.Cu F.Mask F.Paste) (solder_mask_margin 0.102))
  (pad 85 smd rect (at 21.5 -4.73) (size 0.61 1.26) (layers F.Cu F.Mask F.Paste) (solder_mask_margin 0.102))
  (pad 86 smd rect (at 21.5 4.73) (size 0.61 1.26) (layers F.Cu F.Mask F.Paste) (solder_mask_margin 0.102))
  (pad 87 smd rect (at 22.5 -4.73) (size 0.61 1.26) (layers F.Cu F.Mask F.Paste) (solder_mask_margin 0.102))
  (pad 88 smd rect (at 22.5 4.73) (size 0.61 1.26) (layers F.Cu F.Mask F.Paste) (solder_mask_margin 0.102))
  (pad 89 smd rect (at 23.5 -4.73) (size 0.61 1.26) (layers F.Cu F.Mask F.Paste) (solder_mask_margin 0.102))
  (pad 90 smd rect (at 23.5 4.73) (size 0.61 1.26) (layers F.Cu F.Mask F.Paste) (solder_mask_margin 0.102))
  (pad 91 smd rect (at 24.5 -4.73) (size 0.61 1.26) (layers F.Cu F.Mask F.Paste) (solder_mask_margin 0.102))
  (pad 92 smd rect (at 24.5 4.73) (size 0.61 1.26) (layers F.Cu F.Mask F.Paste) (solder_mask_margin 0.102))
  (pad 93 smd rect (at 25.5 -4.73) (size 0.61 1.26) (layers F.Cu F.Mask F.Paste) (solder_mask_margin 0.102))
  (pad 94 smd rect (at 25.5 4.73) (size 0.61 1.26) (layers F.Cu F.Mask F.Paste) (solder_mask_margin 0.102))
  (pad 95 smd rect (at 26.5 -4.73) (size 0.61 1.26) (layers F.Cu F.Mask F.Paste) (solder_mask_margin 0.102))
  (pad 96 smd rect (at 26.5 4.73) (size 0.61 1.26) (layers F.Cu F.Mask F.Paste) (solder_mask_margin 0.102))
  (pad 97 smd rect (at 27.5 -4.73) (size 0.61 1.26) (layers F.Cu F.Mask F.Paste) (solder_mask_margin 0.102))
  (pad 98 smd rect (at 27.5 4.73) (size 0.61 1.26) (layers F.Cu F.Mask F.Paste) (solder_mask_margin 0.102))
  (pad 99 smd rect (at 28.5 -4.73) (size 0.61 1.26) (layers F.Cu F.Mask F.Paste) (solder_mask_margin 0.102))
  (pad 100 smd rect (at 28.5 4.73) (size 0.61 1.26) (layers F.Cu F.Mask F.Paste) (solder_mask_margin 0.102))
  (pad None np_thru_hole circle (at -28.5 0.0) (size 1.19 1.19) (drill 1.19) (layers *.Cu *.Mask))
  (pad None np_thru_hole circle (at 28.5 0.0) (size 1.19 1.19) (drill 1.19) (layers *.Cu *.Mask))
  (fp_line (start -29.18 -4.51) (end -29.38 -4.51) (layer F.SilkS) (width 0.2))
  (fp_line (start -29.38 4.51) (end -29.18 4.51) (layer F.SilkS) (width 0.2))
  (fp_line (start 29.38 -4.51) (end 29.38 -3.495) (layer F.SilkS) (width 0.2))
  (fp_line (start 29.38 3.495) (end 29.38 4.51) (layer F.SilkS) (width 0.2))
  (fp_line (start 29.18 -4.51) (end 29.38 -4.51) (layer F.SilkS) (width 0.2))
  (fp_line (start 29.38 4.51) (end 29.18 4.51) (layer F.SilkS) (width 0.2))
  (fp_circle (center -28.5 -5.94) (end -28.4 -5.94) (layer F.SilkS) (width 0.2))
  (fp_line (start -29.63 -5.61) (end 29.63 -5.61) (layer F.CrtYd) (width 0.05))
  (fp_line (start 29.63 -5.61) (end 29.63 -3.75) (layer F.CrtYd) (width 0.05))
  (fp_line (start 29.63 -3.75) (end 36.3 -3.75) (layer F.CrtYd) (width 0.05))
  (fp_line (start 36.3 -3.75) (end 36.3 3.75) (layer F.CrtYd) (width 0.05))
  (fp_line (start 36.3 3.75) (end 29.63 3.75) (layer F.CrtYd) (width 0.05))
  (fp_line (start 29.63 3.75) (end 29.63 5.61) (layer F.CrtYd) (width 0.05))
  (fp_line (start 29.63 5.61) (end -29.63 5.61) (layer F.CrtYd) (width 0.05))
  (fp_line (start -29.63 5.61) (end -29.63 3.75) (layer F.CrtYd) (width 0.05))
  (fp_line (start -29.63 3.75) (end -36.3 3.75) (layer F.CrtYd) (width 0.05))
  (fp_line (start -36.3 3.75) (end -36.3 -3.75) (layer F.CrtYd) (width 0.05))
  (fp_line (start -36.3 -3.75) (end -29.63 -3.75) (layer F.CrtYd) (width 0.05))
  (fp_line (start -29.63 -3.75) (end -29.63 -5.61) (layer F.CrtYd) (width 0.05))
  (fp_line (start -29.38 -3.495) (end -36.05 -3.495) (layer F.SilkS) (width 0.2))
  (fp_line (start -36.05 -3.495) (end -36.05 3.495) (layer F.SilkS) (width 0.2))
  (fp_line (start -36.05 3.495) (end -29.38 3.495) (layer F.SilkS) (width 0.2))
  (fp_line (start 29.38 -3.495) (end 36.05 -3.495) (layer F.SilkS) (width 0.2))
  (fp_line (start 36.05 -3.495) (end 36.05 3.495) (layer F.SilkS) (width 0.2))
  (fp_line (start 36.05 3.495) (end 29.38 3.495) (layer F.SilkS) (width 0.2))
  (fp_line (start -29.38 -4.51) (end -29.38 -3.495) (layer F.SilkS) (width 0.2))
  (fp_line (start -29.38 4.51) (end -29.38 3.495) (layer F.SilkS) (width 0.2))
  (fp_line (start -29.38 -4.51) (end 29.38 -4.51) (layer F.Fab) (width 0.1))
  (fp_line (start 29.38 -4.51) (end 29.38 -3.495) (layer F.Fab) (width 0.1))
  (fp_line (start 29.38 3.495) (end 29.38 4.51) (layer F.Fab) (width 0.1))
  (fp_line (start 29.38 4.51) (end -29.38 4.51) (layer F.Fab) (width 0.1))
  (fp_line (start -29.38 4.51) (end -29.38 3.495) (layer F.Fab) (width 0.1))
  (fp_line (start -29.38 -3.495) (end -29.38 -4.51) (layer F.Fab) (width 0.1))
  (fp_circle (center -28.5 -5.94) (end -28.4 -5.94) (layer F.Fab) (width 0.2))
  (fp_line (start 29.38 -3.495) (end 36.05 -3.495) (layer F.Fab) (width 0.1))
  (fp_line (start 36.05 -3.495) (end 36.05 3.495) (layer F.Fab) (width 0.1))
  (fp_line (start 36.05 3.495) (end 29.38 3.495) (layer F.Fab) (width 0.1))
  (fp_line (start -29.38 -3.495) (end -36.05 -3.495) (layer F.Fab) (width 0.1))
  (fp_line (start -36.05 -3.495) (end -36.05 3.495) (layer F.Fab) (width 0.1))
  (fp_line (start -36.05 3.495) (end -29.38 3.495) (layer F.Fab) (width 0.1))
)