(footprint "SAMTEC-CLP-105-02-X-D" (version 20221018) (generator pcbnew)
  (layer "F.Cu")
  (descr "CLP-105-02-L-D-2")
  (tags "Connector")
  (property "Sheetfile" "AP-TINY.kicad_sch")
  (property "Sheetname" "")
  (attr smd)
  (fp_text reference "J3" (at -4.9784 0 90) (layer "F.SilkS") hide
      (effects (font (size 0.75 0.75) (thickness 0.05)))
    (tstamp a2b5dd70-9003-4940-aa47-2cfcc44690b8)
  )
  (fp_text value "Conn_02x05_Odd_Even" (at 0.055 0) (layer "F.SilkS") hide
      (effects (font (size 0.75 0.75) (thickness 0.05)))
    (tstamp ba562460-f517-4e08-9a00-7593eb8fcd2c)
  )
  (fp_text user "${REFERENCE}" (at 0.055 0) (layer "F.Fab")
      (effects (font (size 1 1) (thickness 0.15)))
    (tstamp 7dcb5d44-ed2c-4220-b4b8-9e6d6b793639)
  )
  (fp_line (start -3.39 -1.525) (end -3.39 1.5)
    (stroke (width 0.12) (type solid)) (layer "F.SilkS") (tstamp 5c505fae-f86b-4b4e-b3b1-bc8caf13434c))
  (fp_line (start 3.39 -1.525) (end 3.39 1.5)
    (stroke (width 0.12) (type solid)) (layer "F.SilkS") (tstamp e11de650-11c5-484b-80b7-ba63fe8368c2))
  (fp_circle (center 3.5 2.5) (end 3.75 2.5)
    (stroke (width 0.1) (type solid)) (fill solid) (layer "F.SilkS") (tstamp 474181dc-8be8-4f02-9843-9ee6ef6694dd))
  (fp_line (start -3.89 -2.85) (end 4 -2.85)
    (stroke (width 0.05) (type solid)) (layer "F.CrtYd") (tstamp 774ad50e-b079-42dc-98f1-1bd73c95a1b0))
  (fp_line (start -3.89 2.85) (end -3.89 -2.85)
    (stroke (width 0.05) (type solid)) (layer "F.CrtYd") (tstamp a28edf0a-2d60-4a00-99ab-2b8ee5ecec0f))
  (fp_line (start 4 -2.85) (end 4 2.85)
    (stroke (width 0.05) (type solid)) (layer "F.CrtYd") (tstamp 3c130d64-9137-4c65-8366-1112524f50cc))
  (fp_line (start 4 2.85) (end -3.89 2.85)
    (stroke (width 0.05) (type solid)) (layer "F.CrtYd") (tstamp 98431e52-cda3-49a2-8321-cc1b0505f1ba))
  (fp_line (start -3.39 -1.525) (end 3.39 -1.525)
    (stroke (width 0.15) (type solid)) (layer "F.Fab") (tstamp 54723153-3d15-4fb3-afdb-8c5e783a2426))
  (fp_line (start -3.39 1.525) (end -3.39 -1.525)
    (stroke (width 0.15) (type solid)) (layer "F.Fab") (tstamp f94909db-8479-4332-b43d-50cb0970a1d8))
  (fp_line (start 3.39 -1.525) (end 3.39 1.525)
    (stroke (width 0.15) (type solid)) (layer "F.Fab") (tstamp 985dd7f9-e819-4573-86f0-4c00259a8f0d))
  (fp_line (start 3.39 1.525) (end -3.39 1.525)
    (stroke (width 0.15) (type solid)) (layer "F.Fab") (tstamp 5ef16d50-7620-456a-8163-0ebedacd2bd1))
  (pad "1" smd rect (at 2.54 1.615) (size 0.74 1.47) (layers "F.Cu" "F.Paste" "F.Mask") (tstamp b94b08e0-8a72-4c91-b468-6695aebfd98e))
  (pad "2" smd rect (at 2.54 -1.615) (size 0.74 1.47) (layers "F.Cu" "F.Paste" "F.Mask") (tstamp 03c21131-f920-4c20-a246-42c25a642e45))
  (pad "3" smd rect (at 1.27 1.615) (size 0.74 1.47) (layers "F.Cu" "F.Paste" "F.Mask") (tstamp 6d72ec54-0c84-4307-ba30-529b224a9303))
  (pad "4" smd rect (at 1.27 -1.615) (size 0.74 1.47) (layers "F.Cu" "F.Paste" "F.Mask") (tstamp b21bf5e8-985e-42c1-9341-be540c57e99c))
  (pad "5" smd rect (at 0 1.615) (size 0.74 1.47) (layers "F.Cu" "F.Paste" "F.Mask") (tstamp 543df134-3e59-4bb4-967d-c2b817c8ee51))
  (pad "6" smd rect (at 0 -1.615) (size 0.74 1.47) (layers "F.Cu" "F.Paste" "F.Mask") (tstamp 61c79d74-3864-40c4-aaea-978e51b41411))
  (pad "7" smd rect (at -1.27 1.615) (size 0.74 1.47) (layers "F.Cu" "F.Paste" "F.Mask") (tstamp b168edb0-9191-4f74-8278-9c9fb73a0128))
  (pad "8" smd rect (at -1.27 -1.615) (size 0.74 1.47) (layers "F.Cu" "F.Paste" "F.Mask") (tstamp fa0b543c-881c-48ea-83e8-4db113c284f4))
  (pad "9" smd rect (at -2.54 1.615) (size 0.74 1.47) (layers "F.Cu" "F.Paste" "F.Mask") (tstamp 98303ac1-b7d5-40e4-aac5-5ff68116461f))
  (pad "10" smd rect (at -2.54 -1.615) (size 0.74 1.47) (layers "F.Cu" "F.Paste" "F.Mask") (tstamp b02eb32d-b1cd-4d0f-b8c6-e12eb2c10ef4))
  (model "Z:\\Electronics\\Cad\\KiCad\\GITLIBS\\Mouser\\SamacSys_Parts.3dshapes\\CLP-105-02-L-D.stp" hide
    (offset (xyz 0 0 0))
    (scale (xyz 1 1 1))
    (rotate (xyz 0 0 0))
  )
  (model "Z:/Electronics/Cad/KiCad/GITLIBS/third-party/MK_THIRD_PARTY/mk_third_party3D/CLP-105-02-F-D.stp"
    (offset (xyz 0 0 0))
    (scale (xyz 1 1 1))
    (rotate (xyz -90 0 0))
  )
)
