(footprint "SAMTEC-FTS-112-03-X-DV" (version 20221018) (generator pcbnew)
  (layer "F.Cu")
  (descr "1.27mm Pitch 24 Pin Header")
  (attr smd)
  (fp_text reference "REF**" (at -0.05 -5.4) (layer "F.SilkS")
      (effects (font (size 0.8 0.8) (thickness 0.15)))
    (tstamp 628b66f5-4c04-4cab-ae5a-82e7445a9460)
  )
  (fp_text value "SAMTEC-FTS-112-03-X-DV" (at -0.15 -4.45) (layer "F.Fab")
      (effects (font (size 0.5 0.5) (thickness 0.15)))
    (tstamp d03e50fe-7d10-44de-af2b-200ebf2696b9)
  )
  (fp_poly
    (pts
      (xy -7.355 -3.427)
      (xy -6.615 -3.427)
      (xy -6.615 -0.637)
      (xy -7.355 -0.637)
    )

    (stroke (width 0.01) (type solid)) (fill solid) (layer "F.Paste") (tstamp c8a11cc6-4e97-49ff-80fc-bfe89fb1e6d9))
  (fp_poly
    (pts
      (xy -7.355 0.637)
      (xy -6.615 0.637)
      (xy -6.615 3.427)
      (xy -7.355 3.427)
    )

    (stroke (width 0.01) (type solid)) (fill solid) (layer "F.Paste") (tstamp 7eb0511b-a37e-4d8a-84d5-67777e231c71))
  (fp_poly
    (pts
      (xy -6.085 -3.427)
      (xy -5.345 -3.427)
      (xy -5.345 -0.637)
      (xy -6.085 -0.637)
    )

    (stroke (width 0.01) (type solid)) (fill solid) (layer "F.Paste") (tstamp a273af0e-f839-4eda-8af5-6dab0ab39c93))
  (fp_poly
    (pts
      (xy -6.085 0.637)
      (xy -5.345 0.637)
      (xy -5.345 3.427)
      (xy -6.085 3.427)
    )

    (stroke (width 0.01) (type solid)) (fill solid) (layer "F.Paste") (tstamp c4907265-7611-4cca-8c56-836bbfc5f47d))
  (fp_poly
    (pts
      (xy -4.815 -3.427)
      (xy -4.075 -3.427)
      (xy -4.075 -0.637)
      (xy -4.815 -0.637)
    )

    (stroke (width 0.01) (type solid)) (fill solid) (layer "F.Paste") (tstamp 1f9bf5db-9302-459c-9e0b-980b1fa02be1))
  (fp_poly
    (pts
      (xy -4.815 0.637)
      (xy -4.075 0.637)
      (xy -4.075 3.427)
      (xy -4.815 3.427)
    )

    (stroke (width 0.01) (type solid)) (fill solid) (layer "F.Paste") (tstamp 5b4d9a15-25f2-47db-8840-59d7b4856aff))
  (fp_poly
    (pts
      (xy -3.545 -3.427)
      (xy -2.805 -3.427)
      (xy -2.805 -0.637)
      (xy -3.545 -0.637)
    )

    (stroke (width 0.01) (type solid)) (fill solid) (layer "F.Paste") (tstamp 26d1903d-abc2-41a2-ad4e-4bb48c78a7f7))
  (fp_poly
    (pts
      (xy -3.545 0.637)
      (xy -2.805 0.637)
      (xy -2.805 3.427)
      (xy -3.545 3.427)
    )

    (stroke (width 0.01) (type solid)) (fill solid) (layer "F.Paste") (tstamp 176a291e-8e02-416e-b1a8-e54441e6067f))
  (fp_poly
    (pts
      (xy -2.275 -3.427)
      (xy -1.535 -3.427)
      (xy -1.535 -0.637)
      (xy -2.275 -0.637)
    )

    (stroke (width 0.01) (type solid)) (fill solid) (layer "F.Paste") (tstamp e47bdab2-0783-4e08-a28d-7419f71fea7f))
  (fp_poly
    (pts
      (xy -2.275 0.637)
      (xy -1.535 0.637)
      (xy -1.535 3.427)
      (xy -2.275 3.427)
    )

    (stroke (width 0.01) (type solid)) (fill solid) (layer "F.Paste") (tstamp 274167ce-d2a3-46e6-9b24-f6b3d99ce21d))
  (fp_poly
    (pts
      (xy -1.005 -3.427)
      (xy -0.265 -3.427)
      (xy -0.265 -0.637)
      (xy -1.005 -0.637)
    )

    (stroke (width 0.01) (type solid)) (fill solid) (layer "F.Paste") (tstamp fb668560-17ed-4ce5-b949-2ec218a979a1))
  (fp_poly
    (pts
      (xy -1.005 0.637)
      (xy -0.265 0.637)
      (xy -0.265 3.427)
      (xy -1.005 3.427)
    )

    (stroke (width 0.01) (type solid)) (fill solid) (layer "F.Paste") (tstamp 75bb587a-b0fb-4624-b9ba-4dbee0e41d24))
  (fp_poly
    (pts
      (xy 0.265 -3.427)
      (xy 1.005 -3.427)
      (xy 1.005 -0.637)
      (xy 0.265 -0.637)
    )

    (stroke (width 0.01) (type solid)) (fill solid) (layer "F.Paste") (tstamp 87164e44-a096-4be8-a146-3347dbc690c1))
  (fp_poly
    (pts
      (xy 0.265 0.637)
      (xy 1.005 0.637)
      (xy 1.005 3.427)
      (xy 0.265 3.427)
    )

    (stroke (width 0.01) (type solid)) (fill solid) (layer "F.Paste") (tstamp 24fde02c-5b25-4899-b0c3-f0cf9d06c201))
  (fp_poly
    (pts
      (xy 1.535 -3.427)
      (xy 2.275 -3.427)
      (xy 2.275 -0.637)
      (xy 1.535 -0.637)
    )

    (stroke (width 0.01) (type solid)) (fill solid) (layer "F.Paste") (tstamp 65c72266-8626-4507-a12c-0e2cff12125c))
  (fp_poly
    (pts
      (xy 1.535 0.637)
      (xy 2.275 0.637)
      (xy 2.275 3.427)
      (xy 1.535 3.427)
    )

    (stroke (width 0.01) (type solid)) (fill solid) (layer "F.Paste") (tstamp 99998949-e65d-4a66-ab7a-a54e0c5743c8))
  (fp_poly
    (pts
      (xy 2.805 -3.427)
      (xy 3.545 -3.427)
      (xy 3.545 -0.637)
      (xy 2.805 -0.637)
    )

    (stroke (width 0.01) (type solid)) (fill solid) (layer "F.Paste") (tstamp 9f4d90f2-1a41-4d07-a050-3096b60f436d))
  (fp_poly
    (pts
      (xy 2.805 0.637)
      (xy 3.545 0.637)
      (xy 3.545 3.427)
      (xy 2.805 3.427)
    )

    (stroke (width 0.01) (type solid)) (fill solid) (layer "F.Paste") (tstamp fc822e45-efb9-473a-b6cd-12b54aa32306))
  (fp_poly
    (pts
      (xy 4.075 -3.427)
      (xy 4.815 -3.427)
      (xy 4.815 -0.637)
      (xy 4.075 -0.637)
    )

    (stroke (width 0.01) (type solid)) (fill solid) (layer "F.Paste") (tstamp 74cf5510-5caa-4238-80d9-c3e5c32a8472))
  (fp_poly
    (pts
      (xy 4.075 0.637)
      (xy 4.815 0.637)
      (xy 4.815 3.427)
      (xy 4.075 3.427)
    )

    (stroke (width 0.01) (type solid)) (fill solid) (layer "F.Paste") (tstamp 47847aad-d1c5-4c1a-9c71-a6f1faafe22b))
  (fp_poly
    (pts
      (xy 5.345 -3.427)
      (xy 6.085 -3.427)
      (xy 6.085 -0.637)
      (xy 5.345 -0.637)
    )

    (stroke (width 0.01) (type solid)) (fill solid) (layer "F.Paste") (tstamp ac414bec-cea6-4eef-895c-fdebded90f32))
  (fp_poly
    (pts
      (xy 5.345 0.637)
      (xy 6.085 0.637)
      (xy 6.085 3.427)
      (xy 5.345 3.427)
    )

    (stroke (width 0.01) (type solid)) (fill solid) (layer "F.Paste") (tstamp a26e45a1-1851-404c-bf45-be26737e6acb))
  (fp_poly
    (pts
      (xy 6.615 -3.427)
      (xy 7.355 -3.427)
      (xy 7.355 -0.637)
      (xy 6.615 -0.637)
    )

    (stroke (width 0.01) (type solid)) (fill solid) (layer "F.Paste") (tstamp 6d2088b1-7b0e-4856-9f15-066036c1fe1b))
  (fp_poly
    (pts
      (xy 6.615 0.637)
      (xy 7.355 0.637)
      (xy 7.355 3.427)
      (xy 6.615 3.427)
    )

    (stroke (width 0.01) (type solid)) (fill solid) (layer "F.Paste") (tstamp f4db729d-c876-4b2f-96cf-d8c86cb3bc5d))
  (fp_line (start -7.8 -1.75) (end -7.8 1.75)
    (stroke (width 0.15) (type solid)) (layer "F.SilkS") (tstamp 444545bd-9d28-4cd0-8f1b-8f226fb45abd))
  (fp_line (start -7.6 0) (end -8.15 0)
    (stroke (width 0.15) (type solid)) (layer "F.SilkS") (tstamp 927040b4-1a52-489a-a622-36fb9e81b040))
  (fp_line (start -7.225 3.7) (end -6.775 3.7)
    (stroke (width 0.15) (type solid)) (layer "F.SilkS") (tstamp c27bed73-6f49-4d70-9ae6-9869a3fb10d1))
  (fp_line (start 7.8 -1.725) (end 7.8 1.725)
    (stroke (width 0.15) (type solid)) (layer "F.SilkS") (tstamp 973bc4d8-78f2-44df-b4c2-4e122c3994e6))
  (fp_line (start 7.8 0) (end 8.1 0)
    (stroke (width 0.15) (type solid)) (layer "F.SilkS") (tstamp ddd3fcca-e8f4-48ae-8f5e-5abb8b43f809))
  (fp_poly
    (pts
      (xy -7.406 -3.478)
      (xy -6.564 -3.478)
      (xy -6.564 -0.586)
      (xy -7.406 -0.586)
    )

    (stroke (width 0.01) (type solid)) (fill solid) (layer "F.Mask") (tstamp 269e12f1-14fa-41d6-9153-c0f49d7f3e44))
  (fp_poly
    (pts
      (xy -7.406 0.586)
      (xy -6.564 0.586)
      (xy -6.564 3.478)
      (xy -7.406 3.478)
    )

    (stroke (width 0.01) (type solid)) (fill solid) (layer "F.Mask") (tstamp cbf31ddb-0e03-46bc-80d6-55e01d807dbe))
  (fp_poly
    (pts
      (xy -6.136 -3.478)
      (xy -5.294 -3.478)
      (xy -5.294 -0.586)
      (xy -6.136 -0.586)
    )

    (stroke (width 0.01) (type solid)) (fill solid) (layer "F.Mask") (tstamp 37639140-8cce-4c3a-bc73-31dd929ca9e1))
  (fp_poly
    (pts
      (xy -6.136 0.586)
      (xy -5.294 0.586)
      (xy -5.294 3.478)
      (xy -6.136 3.478)
    )

    (stroke (width 0.01) (type solid)) (fill solid) (layer "F.Mask") (tstamp 98d3e948-bf95-4d03-a3ee-c13e20719873))
  (fp_poly
    (pts
      (xy -4.866 -3.478)
      (xy -4.024 -3.478)
      (xy -4.024 -0.586)
      (xy -4.866 -0.586)
    )

    (stroke (width 0.01) (type solid)) (fill solid) (layer "F.Mask") (tstamp 987078f6-9aab-4e0b-a0b8-297e29697881))
  (fp_poly
    (pts
      (xy -4.866 0.586)
      (xy -4.024 0.586)
      (xy -4.024 3.478)
      (xy -4.866 3.478)
    )

    (stroke (width 0.01) (type solid)) (fill solid) (layer "F.Mask") (tstamp e87b9324-7817-40a9-abb8-5742589a57d0))
  (fp_poly
    (pts
      (xy -3.596 -3.478)
      (xy -2.754 -3.478)
      (xy -2.754 -0.586)
      (xy -3.596 -0.586)
    )

    (stroke (width 0.01) (type solid)) (fill solid) (layer "F.Mask") (tstamp 70ee9527-0df8-42db-a02a-5e7b6475e594))
  (fp_poly
    (pts
      (xy -3.596 0.586)
      (xy -2.754 0.586)
      (xy -2.754 3.478)
      (xy -3.596 3.478)
    )

    (stroke (width 0.01) (type solid)) (fill solid) (layer "F.Mask") (tstamp 4d3ed011-95d0-4012-b325-74e3c0c95039))
  (fp_poly
    (pts
      (xy -2.326 -3.478)
      (xy -1.484 -3.478)
      (xy -1.484 -0.586)
      (xy -2.326 -0.586)
    )

    (stroke (width 0.01) (type solid)) (fill solid) (layer "F.Mask") (tstamp 772e30f5-cc5b-45ec-b97e-94bcf9634f92))
  (fp_poly
    (pts
      (xy -2.326 0.586)
      (xy -1.484 0.586)
      (xy -1.484 3.478)
      (xy -2.326 3.478)
    )

    (stroke (width 0.01) (type solid)) (fill solid) (layer "F.Mask") (tstamp 43bcd35e-8a7a-4667-8fb8-361f224b1776))
  (fp_poly
    (pts
      (xy -1.056 -3.478)
      (xy -0.214 -3.478)
      (xy -0.214 -0.586)
      (xy -1.056 -0.586)
    )

    (stroke (width 0.01) (type solid)) (fill solid) (layer "F.Mask") (tstamp f48b5668-7591-4329-be3a-f6473ebd46ad))
  (fp_poly
    (pts
      (xy -1.056 0.586)
      (xy -0.214 0.586)
      (xy -0.214 3.478)
      (xy -1.056 3.478)
    )

    (stroke (width 0.01) (type solid)) (fill solid) (layer "F.Mask") (tstamp 4a140ee3-9f60-4588-abc8-ad022600428b))
  (fp_poly
    (pts
      (xy 0.214 -3.478)
      (xy 1.056 -3.478)
      (xy 1.056 -0.586)
      (xy 0.214 -0.586)
    )

    (stroke (width 0.01) (type solid)) (fill solid) (layer "F.Mask") (tstamp 0337f29f-7df8-4ac9-84d0-eb8dc3b4d0a7))
  (fp_poly
    (pts
      (xy 0.214 0.586)
      (xy 1.056 0.586)
      (xy 1.056 3.478)
      (xy 0.214 3.478)
    )

    (stroke (width 0.01) (type solid)) (fill solid) (layer "F.Mask") (tstamp b7217554-5c60-4769-a605-d2db6a98ad0f))
  (fp_poly
    (pts
      (xy 1.484 -3.478)
      (xy 2.326 -3.478)
      (xy 2.326 -0.586)
      (xy 1.484 -0.586)
    )

    (stroke (width 0.01) (type solid)) (fill solid) (layer "F.Mask") (tstamp e23070aa-7a6e-4950-acb1-b45aa4b17e4d))
  (fp_poly
    (pts
      (xy 1.484 0.586)
      (xy 2.326 0.586)
      (xy 2.326 3.478)
      (xy 1.484 3.478)
    )

    (stroke (width 0.01) (type solid)) (fill solid) (layer "F.Mask") (tstamp 3f0fd35b-194e-477a-b10a-07af34b0944a))
  (fp_poly
    (pts
      (xy 2.754 -3.478)
      (xy 3.596 -3.478)
      (xy 3.596 -0.586)
      (xy 2.754 -0.586)
    )

    (stroke (width 0.01) (type solid)) (fill solid) (layer "F.Mask") (tstamp b38c0a96-4343-4cc4-b0fa-a191e8bae944))
  (fp_poly
    (pts
      (xy 2.754 0.586)
      (xy 3.596 0.586)
      (xy 3.596 3.478)
      (xy 2.754 3.478)
    )

    (stroke (width 0.01) (type solid)) (fill solid) (layer "F.Mask") (tstamp 86f75642-3b0b-4bfa-b011-f6c2379b55a1))
  (fp_poly
    (pts
      (xy 4.024 -3.478)
      (xy 4.866 -3.478)
      (xy 4.866 -0.586)
      (xy 4.024 -0.586)
    )

    (stroke (width 0.01) (type solid)) (fill solid) (layer "F.Mask") (tstamp bd2cf36c-7a19-47cc-987e-33b220480572))
  (fp_poly
    (pts
      (xy 4.024 0.586)
      (xy 4.866 0.586)
      (xy 4.866 3.478)
      (xy 4.024 3.478)
    )

    (stroke (width 0.01) (type solid)) (fill solid) (layer "F.Mask") (tstamp 9b7bce42-2e61-4514-b573-8d91d1f38f3f))
  (fp_poly
    (pts
      (xy 5.294 -3.478)
      (xy 6.136 -3.478)
      (xy 6.136 -0.586)
      (xy 5.294 -0.586)
    )

    (stroke (width 0.01) (type solid)) (fill solid) (layer "F.Mask") (tstamp e32ea2ab-7f5d-4b3c-a747-a5c08adcf2db))
  (fp_poly
    (pts
      (xy 5.294 0.586)
      (xy 6.136 0.586)
      (xy 6.136 3.478)
      (xy 5.294 3.478)
    )

    (stroke (width 0.01) (type solid)) (fill solid) (layer "F.Mask") (tstamp efcfb158-502f-4f92-bc66-3e2bd851bfc1))
  (fp_poly
    (pts
      (xy 6.564 -3.478)
      (xy 7.406 -3.478)
      (xy 7.406 -0.586)
      (xy 6.564 -0.586)
    )

    (stroke (width 0.01) (type solid)) (fill solid) (layer "F.Mask") (tstamp 2dba5570-b189-4b10-a47a-784b59fd0684))
  (fp_poly
    (pts
      (xy 6.564 0.586)
      (xy 7.406 0.586)
      (xy 7.406 3.478)
      (xy 6.564 3.478)
    )

    (stroke (width 0.01) (type solid)) (fill solid) (layer "F.Mask") (tstamp 7b8c79fe-dd8c-462a-80ca-f3b25e98f5b4))
  (fp_line (start -8.07 -3.878) (end -8.07 3.878)
    (stroke (width 0.1) (type solid)) (layer "Dwgs.User") (tstamp 6965c6d1-7003-4870-b8f2-3da233bab13c))
  (fp_line (start -8.07 3.878) (end 8.07 3.878)
    (stroke (width 0.1) (type solid)) (layer "Dwgs.User") (tstamp dc0bd73e-9625-4bd9-aee8-d2d6383cc595))
  (fp_line (start 8.07 -3.878) (end -8.07 -3.878)
    (stroke (width 0.1) (type solid)) (layer "Dwgs.User") (tstamp c678afec-9cf4-4a17-8ebc-7bf5f1a69e72))
  (fp_line (start 8.07 3.878) (end 8.07 -3.878)
    (stroke (width 0.1) (type solid)) (layer "Dwgs.User") (tstamp 9a1c6ca9-15b8-40e7-b8b6-84066a14c386))
  (fp_line (start -7.62 -1.714) (end -6.35 -1.714)
    (stroke (width 0.1) (type solid)) (layer "F.Fab") (tstamp ff3aeea1-e785-4aee-b5f2-6110e315294b))
  (fp_line (start -7.62 1.714) (end -7.62 -1.714)
    (stroke (width 0.1) (type solid)) (layer "F.Fab") (tstamp 17a95157-02e1-45a2-ad0a-a8f233b318fd))
  (fp_line (start -7.188 -2.921) (end -6.782 -2.921)
    (stroke (width 0.1) (type solid)) (layer "F.Fab") (tstamp d8968e5b-3be1-4a77-9d72-338631c56cca))
  (fp_line (start -7.188 -1.714) (end -7.188 -2.921)
    (stroke (width 0.1) (type solid)) (layer "F.Fab") (tstamp f819942e-f0f4-46e4-ae0a-c02dee093493))
  (fp_line (start -7.188 -0.838) (end -6.782 -0.838)
    (stroke (width 0.1) (type solid)) (layer "F.Fab") (tstamp 56340f8d-ca9e-4a35-898a-b5bb52142e2a))
  (fp_line (start -7.188 -0.432) (end -7.188 -0.838)
    (stroke (width 0.1) (type solid)) (layer "F.Fab") (tstamp 7f55d55f-62c5-474a-9a50-70aad7421d84))
  (fp_line (start -7.188 0.432) (end -6.782 0.432)
    (stroke (width 0.1) (type solid)) (layer "F.Fab") (tstamp 34a53ecf-853d-4299-b677-859cab6ff9f3))
  (fp_line (start -7.188 0.838) (end -7.188 0.432)
    (stroke (width 0.1) (type solid)) (layer "F.Fab") (tstamp 0c143cd1-8827-4b8f-9a2c-70451ab5a039))
  (fp_line (start -7.188 1.714) (end -7.188 2.921)
    (stroke (width 0.1) (type solid)) (layer "F.Fab") (tstamp 1bc96a9b-c7ec-4d1f-ace8-00bdbbd70211))
  (fp_line (start -7.188 2.921) (end -6.782 2.921)
    (stroke (width 0.1) (type solid)) (layer "F.Fab") (tstamp 1e2a572a-1ad5-4078-9a44-a890fb21b5e0))
  (fp_line (start -6.782 -2.921) (end -6.782 -1.714)
    (stroke (width 0.1) (type solid)) (layer "F.Fab") (tstamp 6f0cf960-62cd-43f0-a26e-3f6108f41a8a))
  (fp_line (start -6.782 -0.838) (end -6.782 -0.432)
    (stroke (width 0.1) (type solid)) (layer "F.Fab") (tstamp eaddf731-d89d-4cba-8b03-ad3ee49ff80d))
  (fp_line (start -6.782 -0.432) (end -7.188 -0.432)
    (stroke (width 0.1) (type solid)) (layer "F.Fab") (tstamp f4da86b8-ea38-4987-bfcf-e247d424e9f6))
  (fp_line (start -6.782 0.432) (end -6.782 0.838)
    (stroke (width 0.1) (type solid)) (layer "F.Fab") (tstamp 0a29a3a2-62d7-4007-8ceb-55bbd3a2aa1b))
  (fp_line (start -6.782 0.838) (end -7.188 0.838)
    (stroke (width 0.1) (type solid)) (layer "F.Fab") (tstamp 17028636-f1e7-41bc-90be-d3d233ee5f97))
  (fp_line (start -6.782 2.921) (end -6.782 1.714)
    (stroke (width 0.1) (type solid)) (layer "F.Fab") (tstamp 90c73778-1fec-4772-ab2e-7be095b9c7a7))
  (fp_line (start -6.35 -1.714) (end -5.08 -1.714)
    (stroke (width 0.1) (type solid)) (layer "F.Fab") (tstamp 876b2f3f-0895-46f4-a486-75ba8f76ff27))
  (fp_line (start -6.35 1.714) (end -7.62 1.714)
    (stroke (width 0.1) (type solid)) (layer "F.Fab") (tstamp d17ec7bb-700a-4fa4-823d-8eb666ead6ea))
  (fp_line (start -6.35 1.714) (end -5.08 1.714)
    (stroke (width 0.1) (type solid)) (layer "F.Fab") (tstamp 7d0e5294-4da8-4492-8299-5feb484343e3))
  (fp_line (start -5.918 -2.921) (end -5.512 -2.921)
    (stroke (width 0.1) (type solid)) (layer "F.Fab") (tstamp 3eeed2aa-7347-4385-a108-a2641225ed63))
  (fp_line (start -5.918 -1.714) (end -5.918 -2.921)
    (stroke (width 0.1) (type solid)) (layer "F.Fab") (tstamp d808dc91-6e55-4d6b-b023-3e1d8ab68608))
  (fp_line (start -5.918 -0.838) (end -5.512 -0.838)
    (stroke (width 0.1) (type solid)) (layer "F.Fab") (tstamp fb28fe96-2726-4ebd-9f8f-ccc38163292a))
  (fp_line (start -5.918 -0.432) (end -5.918 -0.838)
    (stroke (width 0.1) (type solid)) (layer "F.Fab") (tstamp 2c078b9b-8475-4257-b2d2-edbcac9195e0))
  (fp_line (start -5.918 0.432) (end -5.512 0.432)
    (stroke (width 0.1) (type solid)) (layer "F.Fab") (tstamp e491dc87-4fd4-4dec-a0f9-ed3ac99c4711))
  (fp_line (start -5.918 0.838) (end -5.918 0.432)
    (stroke (width 0.1) (type solid)) (layer "F.Fab") (tstamp 9286405b-9d59-4205-bbe0-b8e3aacf3044))
  (fp_line (start -5.918 1.714) (end -5.918 2.921)
    (stroke (width 0.1) (type solid)) (layer "F.Fab") (tstamp d1192d8d-265f-4cb8-8f17-d6a7c45284fd))
  (fp_line (start -5.918 2.921) (end -5.512 2.921)
    (stroke (width 0.1) (type solid)) (layer "F.Fab") (tstamp 2ba1f8da-d19f-4d35-8116-1c72ac32ef60))
  (fp_line (start -5.512 -2.921) (end -5.512 -1.714)
    (stroke (width 0.1) (type solid)) (layer "F.Fab") (tstamp 678adaf2-0d48-4938-8120-6cb85038f5e6))
  (fp_line (start -5.512 -0.838) (end -5.512 -0.432)
    (stroke (width 0.1) (type solid)) (layer "F.Fab") (tstamp b6b19457-2173-4aed-899b-464da584c788))
  (fp_line (start -5.512 -0.432) (end -5.918 -0.432)
    (stroke (width 0.1) (type solid)) (layer "F.Fab") (tstamp e8a0bcf6-f7bc-47b9-aee3-bd32e8ddcd3c))
  (fp_line (start -5.512 0.432) (end -5.512 0.838)
    (stroke (width 0.1) (type solid)) (layer "F.Fab") (tstamp 481f29b8-cb89-4e21-8637-44dfbc1a3ba5))
  (fp_line (start -5.512 0.838) (end -5.918 0.838)
    (stroke (width 0.1) (type solid)) (layer "F.Fab") (tstamp 4402976e-d933-4910-9c62-e0d7919ff431))
  (fp_line (start -5.512 2.921) (end -5.512 1.714)
    (stroke (width 0.1) (type solid)) (layer "F.Fab") (tstamp 2790232e-5c6b-495a-81cd-f9fc1977dd81))
  (fp_line (start -5.08 -1.714) (end -3.81 -1.714)
    (stroke (width 0.1) (type solid)) (layer "F.Fab") (tstamp 2e96dc87-873b-4f0f-a4d9-61334eda82cc))
  (fp_line (start -5.08 1.714) (end -3.81 1.714)
    (stroke (width 0.1) (type solid)) (layer "F.Fab") (tstamp a10fc344-02ce-481c-89e9-e3aa936e2a56))
  (fp_line (start -4.648 -2.921) (end -4.242 -2.921)
    (stroke (width 0.1) (type solid)) (layer "F.Fab") (tstamp f07fd45c-da00-45a6-ad84-a5c77700ae38))
  (fp_line (start -4.648 -1.714) (end -4.648 -2.921)
    (stroke (width 0.1) (type solid)) (layer "F.Fab") (tstamp 50164188-d4ec-4cce-88cd-7fff9f733595))
  (fp_line (start -4.648 -0.838) (end -4.242 -0.838)
    (stroke (width 0.1) (type solid)) (layer "F.Fab") (tstamp 624ce299-e1a6-491b-9698-b59616db7968))
  (fp_line (start -4.648 -0.432) (end -4.648 -0.838)
    (stroke (width 0.1) (type solid)) (layer "F.Fab") (tstamp 7d6ac91c-f3db-4e05-9fd4-5b647f0f4c50))
  (fp_line (start -4.648 0.432) (end -4.242 0.432)
    (stroke (width 0.1) (type solid)) (layer "F.Fab") (tstamp 0aa7698b-abc3-4e13-8d23-b7caa33e26fc))
  (fp_line (start -4.648 0.838) (end -4.648 0.432)
    (stroke (width 0.1) (type solid)) (layer "F.Fab") (tstamp 88385b2b-622a-42f2-a3de-34eb9e49023d))
  (fp_line (start -4.648 1.714) (end -4.648 2.921)
    (stroke (width 0.1) (type solid)) (layer "F.Fab") (tstamp f56644e1-329c-4db9-aa43-47a302967c64))
  (fp_line (start -4.648 2.921) (end -4.242 2.921)
    (stroke (width 0.1) (type solid)) (layer "F.Fab") (tstamp fb294dcc-8a14-4c92-9d07-a792b98bdda1))
  (fp_line (start -4.242 -2.921) (end -4.242 -1.714)
    (stroke (width 0.1) (type solid)) (layer "F.Fab") (tstamp 9e2f8a55-dd70-49b1-a4cc-ba445ead19e1))
  (fp_line (start -4.242 -0.838) (end -4.242 -0.432)
    (stroke (width 0.1) (type solid)) (layer "F.Fab") (tstamp 1362176b-a4d1-4234-b089-41ff02930cf3))
  (fp_line (start -4.242 -0.432) (end -4.648 -0.432)
    (stroke (width 0.1) (type solid)) (layer "F.Fab") (tstamp e98b6030-3b27-420b-9d6a-9a647872337d))
  (fp_line (start -4.242 0.432) (end -4.242 0.838)
    (stroke (width 0.1) (type solid)) (layer "F.Fab") (tstamp 806a2b66-74c6-47e0-8930-3d592fda2a03))
  (fp_line (start -4.242 0.838) (end -4.648 0.838)
    (stroke (width 0.1) (type solid)) (layer "F.Fab") (tstamp 11474d9d-421b-4eec-925f-ae6c13f574b2))
  (fp_line (start -4.242 2.921) (end -4.242 1.714)
    (stroke (width 0.1) (type solid)) (layer "F.Fab") (tstamp 2e28b8b4-cc5b-4bc5-a2d8-bdb2acd50c05))
  (fp_line (start -3.81 -1.714) (end -2.54 -1.714)
    (stroke (width 0.1) (type solid)) (layer "F.Fab") (tstamp 0d23bc0f-ac9d-4fb9-929b-69db36fcca94))
  (fp_line (start -3.81 1.714) (end -2.54 1.714)
    (stroke (width 0.1) (type solid)) (layer "F.Fab") (tstamp 25c10b8c-d12e-46a3-af85-2120a595dc98))
  (fp_line (start -3.378 -2.921) (end -2.972 -2.921)
    (stroke (width 0.1) (type solid)) (layer "F.Fab") (tstamp a4a68094-cfda-4d2d-b323-a5a833aad4a8))
  (fp_line (start -3.378 -1.714) (end -3.378 -2.921)
    (stroke (width 0.1) (type solid)) (layer "F.Fab") (tstamp 5c75c6c7-e7d4-42fe-9834-8f5eb2094c60))
  (fp_line (start -3.378 -0.838) (end -2.972 -0.838)
    (stroke (width 0.1) (type solid)) (layer "F.Fab") (tstamp ac28a6a8-7811-45b1-ac69-255f2c663905))
  (fp_line (start -3.378 -0.432) (end -3.378 -0.838)
    (stroke (width 0.1) (type solid)) (layer "F.Fab") (tstamp 3744f885-24da-471e-8eeb-43a8dfa7eb52))
  (fp_line (start -3.378 0.432) (end -2.972 0.432)
    (stroke (width 0.1) (type solid)) (layer "F.Fab") (tstamp a3db5390-c9ca-437c-839b-1fb7c4a930e1))
  (fp_line (start -3.378 0.838) (end -3.378 0.432)
    (stroke (width 0.1) (type solid)) (layer "F.Fab") (tstamp 49efa7ac-8637-4c32-a502-f1304a7e4298))
  (fp_line (start -3.378 1.714) (end -3.378 2.921)
    (stroke (width 0.1) (type solid)) (layer "F.Fab") (tstamp 6f4b9043-7911-482b-8e40-dacb2fe88942))
  (fp_line (start -3.378 2.921) (end -2.972 2.921)
    (stroke (width 0.1) (type solid)) (layer "F.Fab") (tstamp 2294a213-2785-4928-9763-e386f41a7428))
  (fp_line (start -2.972 -2.921) (end -2.972 -1.714)
    (stroke (width 0.1) (type solid)) (layer "F.Fab") (tstamp d347e457-2740-4f5f-8217-10eb4dc6c2db))
  (fp_line (start -2.972 -0.838) (end -2.972 -0.432)
    (stroke (width 0.1) (type solid)) (layer "F.Fab") (tstamp 5922670f-cddb-4f29-8333-1942ba324c98))
  (fp_line (start -2.972 -0.432) (end -3.378 -0.432)
    (stroke (width 0.1) (type solid)) (layer "F.Fab") (tstamp 3173d855-2308-4b18-baa8-60d8c478ea08))
  (fp_line (start -2.972 0.432) (end -2.972 0.838)
    (stroke (width 0.1) (type solid)) (layer "F.Fab") (tstamp 97a88e98-e781-428e-88a1-93f4b7309853))
  (fp_line (start -2.972 0.838) (end -3.378 0.838)
    (stroke (width 0.1) (type solid)) (layer "F.Fab") (tstamp 7156eccd-9037-489a-8684-a03708cf3a05))
  (fp_line (start -2.972 2.921) (end -2.972 1.714)
    (stroke (width 0.1) (type solid)) (layer "F.Fab") (tstamp 370f1a37-5f07-4f34-857a-0e51dcbf8c40))
  (fp_line (start -2.54 -1.714) (end -1.27 -1.714)
    (stroke (width 0.1) (type solid)) (layer "F.Fab") (tstamp aae8c5ab-570d-4b35-9603-0ff9906d9cb7))
  (fp_line (start -2.54 1.714) (end -1.27 1.714)
    (stroke (width 0.1) (type solid)) (layer "F.Fab") (tstamp cdbb3df4-efd2-4b61-8099-fcfa6a740b61))
  (fp_line (start -2.108 -2.921) (end -1.702 -2.921)
    (stroke (width 0.1) (type solid)) (layer "F.Fab") (tstamp bec8fb8e-ef16-4b2a-abf7-8e3066616bfb))
  (fp_line (start -2.108 -1.714) (end -2.108 -2.921)
    (stroke (width 0.1) (type solid)) (layer "F.Fab") (tstamp 74da071c-50fa-4154-865d-a1dfcc60b37f))
  (fp_line (start -2.108 -0.838) (end -1.702 -0.838)
    (stroke (width 0.1) (type solid)) (layer "F.Fab") (tstamp c5f4ffa9-0861-4893-b379-4ca4041b649e))
  (fp_line (start -2.108 -0.432) (end -2.108 -0.838)
    (stroke (width 0.1) (type solid)) (layer "F.Fab") (tstamp 9200741e-1d14-4ae8-a498-b7f0c117c3d8))
  (fp_line (start -2.108 0.432) (end -1.702 0.432)
    (stroke (width 0.1) (type solid)) (layer "F.Fab") (tstamp db75d440-1dd9-4b80-84d6-fbf27fe07b60))
  (fp_line (start -2.108 0.838) (end -2.108 0.432)
    (stroke (width 0.1) (type solid)) (layer "F.Fab") (tstamp 7a0162ad-f114-4298-b588-10962f10f3f0))
  (fp_line (start -2.108 1.714) (end -2.108 2.921)
    (stroke (width 0.1) (type solid)) (layer "F.Fab") (tstamp 25f94fa7-eafd-4ff5-aa97-fae4dcafb749))
  (fp_line (start -2.108 2.921) (end -1.702 2.921)
    (stroke (width 0.1) (type solid)) (layer "F.Fab") (tstamp 6b392ed2-1baa-4c0b-8ea7-b931ed519ad8))
  (fp_line (start -1.702 -2.921) (end -1.702 -1.714)
    (stroke (width 0.1) (type solid)) (layer "F.Fab") (tstamp 3e4fa0aa-edc1-49bf-bf74-dc01bf1fb9c8))
  (fp_line (start -1.702 -0.838) (end -1.702 -0.432)
    (stroke (width 0.1) (type solid)) (layer "F.Fab") (tstamp ea5cc87a-126e-4699-ac6d-18781e7c9d54))
  (fp_line (start -1.702 -0.432) (end -2.108 -0.432)
    (stroke (width 0.1) (type solid)) (layer "F.Fab") (tstamp 98c0e859-bb62-4711-85b9-601b365ef530))
  (fp_line (start -1.702 0.432) (end -1.702 0.838)
    (stroke (width 0.1) (type solid)) (layer "F.Fab") (tstamp a0892bab-414a-41b2-9c11-6d6181fe63f6))
  (fp_line (start -1.702 0.838) (end -2.108 0.838)
    (stroke (width 0.1) (type solid)) (layer "F.Fab") (tstamp 20d5cd2f-b23c-4786-bbc0-155195d7f501))
  (fp_line (start -1.702 2.921) (end -1.702 1.714)
    (stroke (width 0.1) (type solid)) (layer "F.Fab") (tstamp d8339fe4-573e-415d-87d1-665f452fa408))
  (fp_line (start -1.27 -1.714) (end 0 -1.714)
    (stroke (width 0.1) (type solid)) (layer "F.Fab") (tstamp 6d2a8f21-46d6-43a5-8f88-aff1f4caf641))
  (fp_line (start -1.27 1.714) (end 0 1.714)
    (stroke (width 0.1) (type solid)) (layer "F.Fab") (tstamp d87da687-c449-44ae-b2e1-ea16bf32185b))
  (fp_line (start -0.838 -2.921) (end -0.432 -2.921)
    (stroke (width 0.1) (type solid)) (layer "F.Fab") (tstamp 7558e4e8-0827-443f-bb21-5d277aa7c2ff))
  (fp_line (start -0.838 -1.714) (end -0.838 -2.921)
    (stroke (width 0.1) (type solid)) (layer "F.Fab") (tstamp c6a05cf5-571b-4e49-98b0-34a05ac1e3b3))
  (fp_line (start -0.838 -0.838) (end -0.432 -0.838)
    (stroke (width 0.1) (type solid)) (layer "F.Fab") (tstamp a3ffeecb-6baf-4b52-9a3d-ac5b190baf10))
  (fp_line (start -0.838 -0.432) (end -0.838 -0.838)
    (stroke (width 0.1) (type solid)) (layer "F.Fab") (tstamp 01075b49-8b02-4714-8af2-3a87d1f837d2))
  (fp_line (start -0.838 0.432) (end -0.432 0.432)
    (stroke (width 0.1) (type solid)) (layer "F.Fab") (tstamp aec5bbb3-ab8b-47a6-b933-d33f4a052f06))
  (fp_line (start -0.838 0.838) (end -0.838 0.432)
    (stroke (width 0.1) (type solid)) (layer "F.Fab") (tstamp 37f356d2-e5d2-4d6b-b60a-e116605c539a))
  (fp_line (start -0.838 1.714) (end -0.838 2.921)
    (stroke (width 0.1) (type solid)) (layer "F.Fab") (tstamp d314dca1-3968-46df-b1a3-4b9422120029))
  (fp_line (start -0.838 2.921) (end -0.432 2.921)
    (stroke (width 0.1) (type solid)) (layer "F.Fab") (tstamp 3294491e-6bc9-425c-9f7a-161bdc6f8663))
  (fp_line (start -0.432 -2.921) (end -0.432 -1.714)
    (stroke (width 0.1) (type solid)) (layer "F.Fab") (tstamp 92e3e07f-cbed-4a16-a707-87b05b3d9bae))
  (fp_line (start -0.432 -0.838) (end -0.432 -0.432)
    (stroke (width 0.1) (type solid)) (layer "F.Fab") (tstamp 581ad69f-98aa-44aa-bc72-0c51a47eb6cd))
  (fp_line (start -0.432 -0.432) (end -0.838 -0.432)
    (stroke (width 0.1) (type solid)) (layer "F.Fab") (tstamp fde47e25-4870-4934-8e66-1c72359f7927))
  (fp_line (start -0.432 0.432) (end -0.432 0.838)
    (stroke (width 0.1) (type solid)) (layer "F.Fab") (tstamp 2a61a46f-2ac5-46c7-b975-74662fe0c066))
  (fp_line (start -0.432 0.838) (end -0.838 0.838)
    (stroke (width 0.1) (type solid)) (layer "F.Fab") (tstamp 5c8910a7-c30e-4a88-b8c5-cfccbdcb13f2))
  (fp_line (start -0.432 2.921) (end -0.432 1.714)
    (stroke (width 0.1) (type solid)) (layer "F.Fab") (tstamp 07608892-9a93-4b82-864a-5bd23d115c8b))
  (fp_line (start 0 -1.714) (end 1.27 -1.714)
    (stroke (width 0.1) (type solid)) (layer "F.Fab") (tstamp f194f59a-850a-4863-b93c-adae9bb9e318))
  (fp_line (start 0 1.714) (end 1.27 1.714)
    (stroke (width 0.1) (type solid)) (layer "F.Fab") (tstamp fea07d12-9674-43eb-9acc-a53d45b0a5ef))
  (fp_line (start 0.432 -2.921) (end 0.838 -2.921)
    (stroke (width 0.1) (type solid)) (layer "F.Fab") (tstamp 931e8bc0-fecb-468b-87aa-e8f1ab93a0d9))
  (fp_line (start 0.432 -1.714) (end 0.432 -2.921)
    (stroke (width 0.1) (type solid)) (layer "F.Fab") (tstamp f7ad6726-2f1f-431c-a84d-d93b17690617))
  (fp_line (start 0.432 -0.838) (end 0.838 -0.838)
    (stroke (width 0.1) (type solid)) (layer "F.Fab") (tstamp fcd28d74-f081-46cb-9faa-0d5a281e59d2))
  (fp_line (start 0.432 -0.432) (end 0.432 -0.838)
    (stroke (width 0.1) (type solid)) (layer "F.Fab") (tstamp ca35f3e5-77c2-404e-8cb7-7ecfd5fe0e3a))
  (fp_line (start 0.432 0.432) (end 0.838 0.432)
    (stroke (width 0.1) (type solid)) (layer "F.Fab") (tstamp 4bc7ba48-c78e-4027-a8a2-9b4948d1368d))
  (fp_line (start 0.432 0.838) (end 0.432 0.432)
    (stroke (width 0.1) (type solid)) (layer "F.Fab") (tstamp cf0d375c-9baf-43a2-a84f-226fd5dc71ba))
  (fp_line (start 0.432 1.714) (end 0.432 2.921)
    (stroke (width 0.1) (type solid)) (layer "F.Fab") (tstamp 8b82698c-5f53-4927-b44c-c12598912a8d))
  (fp_line (start 0.432 2.921) (end 0.838 2.921)
    (stroke (width 0.1) (type solid)) (layer "F.Fab") (tstamp 1391ddff-741c-48ea-adce-41ffcd11c7db))
  (fp_line (start 0.838 -2.921) (end 0.838 -1.714)
    (stroke (width 0.1) (type solid)) (layer "F.Fab") (tstamp 39cb74fe-5ec0-4822-a95e-57efeb18d399))
  (fp_line (start 0.838 -0.838) (end 0.838 -0.432)
    (stroke (width 0.1) (type solid)) (layer "F.Fab") (tstamp 42451cee-1f68-4441-8211-1ba38c04a25a))
  (fp_line (start 0.838 -0.432) (end 0.432 -0.432)
    (stroke (width 0.1) (type solid)) (layer "F.Fab") (tstamp 51fc5a06-e051-4110-94e2-e79f8e2d468c))
  (fp_line (start 0.838 0.432) (end 0.838 0.838)
    (stroke (width 0.1) (type solid)) (layer "F.Fab") (tstamp efd073b8-bd81-4675-b675-bb58d0d9a5fc))
  (fp_line (start 0.838 0.838) (end 0.432 0.838)
    (stroke (width 0.1) (type solid)) (layer "F.Fab") (tstamp e3d3fb3f-7787-4cdb-9669-2aebf2744410))
  (fp_line (start 0.838 2.921) (end 0.838 1.714)
    (stroke (width 0.1) (type solid)) (layer "F.Fab") (tstamp 4ae0929f-186c-4616-a109-c1afd1278f76))
  (fp_line (start 1.27 -1.714) (end 2.54 -1.714)
    (stroke (width 0.1) (type solid)) (layer "F.Fab") (tstamp 827c9fd1-bc2c-4732-9064-482483bcb4be))
  (fp_line (start 1.27 1.714) (end 2.54 1.714)
    (stroke (width 0.1) (type solid)) (layer "F.Fab") (tstamp cad38fd2-74b4-4eb5-b6f2-aeb1164dc687))
  (fp_line (start 1.702 -2.921) (end 2.108 -2.921)
    (stroke (width 0.1) (type solid)) (layer "F.Fab") (tstamp f37f9d0c-612e-4396-bfca-a8a2cfbe82b4))
  (fp_line (start 1.702 -1.714) (end 1.702 -2.921)
    (stroke (width 0.1) (type solid)) (layer "F.Fab") (tstamp ea611c8c-2d93-4001-9685-d8b809ccead5))
  (fp_line (start 1.702 -0.838) (end 2.108 -0.838)
    (stroke (width 0.1) (type solid)) (layer "F.Fab") (tstamp c861254b-994a-40be-9a10-88ad3d8ab849))
  (fp_line (start 1.702 -0.432) (end 1.702 -0.838)
    (stroke (width 0.1) (type solid)) (layer "F.Fab") (tstamp 680bde1d-7446-4d7d-a410-4f75c31caa8e))
  (fp_line (start 1.702 0.432) (end 2.108 0.432)
    (stroke (width 0.1) (type solid)) (layer "F.Fab") (tstamp c11b6e92-bf23-48fa-b1bc-ee2d69d09172))
  (fp_line (start 1.702 0.838) (end 1.702 0.432)
    (stroke (width 0.1) (type solid)) (layer "F.Fab") (tstamp 0e27f0c0-33ec-4900-94be-c9e335443561))
  (fp_line (start 1.702 1.714) (end 1.702 2.921)
    (stroke (width 0.1) (type solid)) (layer "F.Fab") (tstamp 28869520-7b7b-496e-bd50-e6904288332f))
  (fp_line (start 1.702 2.921) (end 2.108 2.921)
    (stroke (width 0.1) (type solid)) (layer "F.Fab") (tstamp 941f9c28-c3bc-4d33-a445-191a8ccfcf34))
  (fp_line (start 2.108 -2.921) (end 2.108 -1.714)
    (stroke (width 0.1) (type solid)) (layer "F.Fab") (tstamp 216d3928-01aa-4512-ad80-951a63a23a71))
  (fp_line (start 2.108 -0.838) (end 2.108 -0.432)
    (stroke (width 0.1) (type solid)) (layer "F.Fab") (tstamp 197966bd-99d2-4620-b23e-17b227f568d3))
  (fp_line (start 2.108 -0.432) (end 1.702 -0.432)
    (stroke (width 0.1) (type solid)) (layer "F.Fab") (tstamp 22c3c1bd-c3ba-45e8-ad1a-0c13698431e1))
  (fp_line (start 2.108 0.432) (end 2.108 0.838)
    (stroke (width 0.1) (type solid)) (layer "F.Fab") (tstamp df3e3e48-95ed-4929-9f24-392ea8e08179))
  (fp_line (start 2.108 0.838) (end 1.702 0.838)
    (stroke (width 0.1) (type solid)) (layer "F.Fab") (tstamp e6b01338-da52-497d-a439-c45f5d2f9a88))
  (fp_line (start 2.108 2.921) (end 2.108 1.714)
    (stroke (width 0.1) (type solid)) (layer "F.Fab") (tstamp 97f46767-2e2d-47ba-88c7-39b15a58812e))
  (fp_line (start 2.54 -1.714) (end 3.81 -1.714)
    (stroke (width 0.1) (type solid)) (layer "F.Fab") (tstamp 4cdcae77-1a35-497b-926e-e318afdf6eb6))
  (fp_line (start 2.54 1.714) (end 3.81 1.714)
    (stroke (width 0.1) (type solid)) (layer "F.Fab") (tstamp 45c337c2-39f1-4761-87dc-e17f42d9a305))
  (fp_line (start 2.972 -2.921) (end 3.378 -2.921)
    (stroke (width 0.1) (type solid)) (layer "F.Fab") (tstamp 30efa48a-45d9-4ef6-a50a-88528e9738be))
  (fp_line (start 2.972 -1.714) (end 2.972 -2.921)
    (stroke (width 0.1) (type solid)) (layer "F.Fab") (tstamp fdec62d1-1b81-4388-86f4-f22ad72d0627))
  (fp_line (start 2.972 -0.838) (end 3.378 -0.838)
    (stroke (width 0.1) (type solid)) (layer "F.Fab") (tstamp 7cfa4227-b344-4d66-8acc-7321901ea496))
  (fp_line (start 2.972 -0.432) (end 2.972 -0.838)
    (stroke (width 0.1) (type solid)) (layer "F.Fab") (tstamp 46cf1e5f-0ba1-42c1-badb-7f49012d181a))
  (fp_line (start 2.972 0.432) (end 3.378 0.432)
    (stroke (width 0.1) (type solid)) (layer "F.Fab") (tstamp e0e92975-56b6-4dbd-ab67-ce419863de1f))
  (fp_line (start 2.972 0.838) (end 2.972 0.432)
    (stroke (width 0.1) (type solid)) (layer "F.Fab") (tstamp dd3f7554-89fd-4bc8-bba4-45b414c2de59))
  (fp_line (start 2.972 1.714) (end 2.972 2.921)
    (stroke (width 0.1) (type solid)) (layer "F.Fab") (tstamp d193db67-b813-473a-9deb-8ee2de43d0da))
  (fp_line (start 2.972 2.921) (end 3.378 2.921)
    (stroke (width 0.1) (type solid)) (layer "F.Fab") (tstamp 090a4dc7-87c9-43cd-9b74-80603483b233))
  (fp_line (start 3.378 -2.921) (end 3.378 -1.714)
    (stroke (width 0.1) (type solid)) (layer "F.Fab") (tstamp ea4bd543-4901-4c4d-ac08-afbadc0087a7))
  (fp_line (start 3.378 -0.838) (end 3.378 -0.432)
    (stroke (width 0.1) (type solid)) (layer "F.Fab") (tstamp edb8557c-1fa7-4f28-928a-441bd7634f17))
  (fp_line (start 3.378 -0.432) (end 2.972 -0.432)
    (stroke (width 0.1) (type solid)) (layer "F.Fab") (tstamp 817f4621-1d4c-4bea-b5aa-156c75b2319e))
  (fp_line (start 3.378 0.432) (end 3.378 0.838)
    (stroke (width 0.1) (type solid)) (layer "F.Fab") (tstamp 181040c0-bb12-45d2-b103-5a78d0a5d828))
  (fp_line (start 3.378 0.838) (end 2.972 0.838)
    (stroke (width 0.1) (type solid)) (layer "F.Fab") (tstamp e56d12d5-7123-4a23-8083-ca5c5c4c268a))
  (fp_line (start 3.378 2.921) (end 3.378 1.714)
    (stroke (width 0.1) (type solid)) (layer "F.Fab") (tstamp 98daae93-afe1-4386-996a-70580f00e802))
  (fp_line (start 3.81 -1.714) (end 5.08 -1.714)
    (stroke (width 0.1) (type solid)) (layer "F.Fab") (tstamp 8c82f9cf-98b9-44bd-b7c0-e5e12a5f5731))
  (fp_line (start 3.81 1.714) (end 5.08 1.714)
    (stroke (width 0.1) (type solid)) (layer "F.Fab") (tstamp 66dd5079-b914-4b31-b394-a5222bface6d))
  (fp_line (start 4.242 -2.921) (end 4.648 -2.921)
    (stroke (width 0.1) (type solid)) (layer "F.Fab") (tstamp eade7ee8-24c5-40ce-9e9a-2efdfdc6677e))
  (fp_line (start 4.242 -1.714) (end 4.242 -2.921)
    (stroke (width 0.1) (type solid)) (layer "F.Fab") (tstamp abfe77f0-5ad1-4845-9b20-10da4c86653d))
  (fp_line (start 4.242 -0.838) (end 4.648 -0.838)
    (stroke (width 0.1) (type solid)) (layer "F.Fab") (tstamp a7e5e5e7-add5-4db5-b781-34a76b60275c))
  (fp_line (start 4.242 -0.432) (end 4.242 -0.838)
    (stroke (width 0.1) (type solid)) (layer "F.Fab") (tstamp fd85969d-91ff-4175-b5f0-4980419eb0d0))
  (fp_line (start 4.242 0.432) (end 4.648 0.432)
    (stroke (width 0.1) (type solid)) (layer "F.Fab") (tstamp 7e3f0267-3258-487c-a606-1e4b18def497))
  (fp_line (start 4.242 0.838) (end 4.242 0.432)
    (stroke (width 0.1) (type solid)) (layer "F.Fab") (tstamp 44555bf7-9130-41c8-a0ff-d42a13283195))
  (fp_line (start 4.242 1.714) (end 4.242 2.921)
    (stroke (width 0.1) (type solid)) (layer "F.Fab") (tstamp 17134b16-71f8-4a22-8cdb-40f551b9c7b2))
  (fp_line (start 4.242 2.921) (end 4.648 2.921)
    (stroke (width 0.1) (type solid)) (layer "F.Fab") (tstamp b85b461a-c7ca-4879-be2e-441deaf8a4c8))
  (fp_line (start 4.648 -2.921) (end 4.648 -1.714)
    (stroke (width 0.1) (type solid)) (layer "F.Fab") (tstamp 56b76905-67f1-4881-8018-bc087ad15de8))
  (fp_line (start 4.648 -0.838) (end 4.648 -0.432)
    (stroke (width 0.1) (type solid)) (layer "F.Fab") (tstamp c7f781f8-485b-4d63-b160-00bf98a84ad2))
  (fp_line (start 4.648 -0.432) (end 4.242 -0.432)
    (stroke (width 0.1) (type solid)) (layer "F.Fab") (tstamp b300dcf5-95ca-47b9-a6b0-3e8e8d92460a))
  (fp_line (start 4.648 0.432) (end 4.648 0.838)
    (stroke (width 0.1) (type solid)) (layer "F.Fab") (tstamp 3d4efb0e-39ac-420e-b574-d5bf4d496314))
  (fp_line (start 4.648 0.838) (end 4.242 0.838)
    (stroke (width 0.1) (type solid)) (layer "F.Fab") (tstamp f092b1f2-00f5-4549-b1cf-b920a334b14e))
  (fp_line (start 4.648 2.921) (end 4.648 1.714)
    (stroke (width 0.1) (type solid)) (layer "F.Fab") (tstamp 5230b2e3-b834-457a-aa91-a0bf5c8a0d69))
  (fp_line (start 5.08 -1.714) (end 6.35 -1.714)
    (stroke (width 0.1) (type solid)) (layer "F.Fab") (tstamp 925963d5-c45a-407e-953f-73c1f422b87c))
  (fp_line (start 5.08 1.714) (end 6.35 1.714)
    (stroke (width 0.1) (type solid)) (layer "F.Fab") (tstamp 4d9f3946-e9db-455b-9407-341b1558cf0e))
  (fp_line (start 5.512 -2.921) (end 5.918 -2.921)
    (stroke (width 0.1) (type solid)) (layer "F.Fab") (tstamp 9e61d1fb-5212-4969-9e59-fc0ddf6d8dff))
  (fp_line (start 5.512 -1.714) (end 5.512 -2.921)
    (stroke (width 0.1) (type solid)) (layer "F.Fab") (tstamp 68689643-a00f-47a1-9482-49bc08faf2f6))
  (fp_line (start 5.512 -0.838) (end 5.918 -0.838)
    (stroke (width 0.1) (type solid)) (layer "F.Fab") (tstamp 85b6eece-cc55-4252-9a0d-349f3ab0930b))
  (fp_line (start 5.512 -0.432) (end 5.512 -0.838)
    (stroke (width 0.1) (type solid)) (layer "F.Fab") (tstamp 3ac853a5-0ec9-455f-99e9-fd1c4a4ab85c))
  (fp_line (start 5.512 0.432) (end 5.918 0.432)
    (stroke (width 0.1) (type solid)) (layer "F.Fab") (tstamp 8f45755a-b741-4077-8530-cf48227f969c))
  (fp_line (start 5.512 0.838) (end 5.512 0.432)
    (stroke (width 0.1) (type solid)) (layer "F.Fab") (tstamp a7eadb49-450e-434f-aef3-277b17cc763e))
  (fp_line (start 5.512 1.714) (end 5.512 2.921)
    (stroke (width 0.1) (type solid)) (layer "F.Fab") (tstamp ceab32c9-925b-4933-b484-aa895014e222))
  (fp_line (start 5.512 2.921) (end 5.918 2.921)
    (stroke (width 0.1) (type solid)) (layer "F.Fab") (tstamp 9f23326c-66a4-47c8-b0e0-06c3485c2174))
  (fp_line (start 5.918 -2.921) (end 5.918 -1.714)
    (stroke (width 0.1) (type solid)) (layer "F.Fab") (tstamp bb8bbc1b-58c9-482d-8d27-10b2aefccf6c))
  (fp_line (start 5.918 -0.838) (end 5.918 -0.432)
    (stroke (width 0.1) (type solid)) (layer "F.Fab") (tstamp 95a25a28-93f6-4f97-8f4e-5d84015e29a1))
  (fp_line (start 5.918 -0.432) (end 5.512 -0.432)
    (stroke (width 0.1) (type solid)) (layer "F.Fab") (tstamp 8bcc2966-5c4d-4031-a20b-27c91794d40f))
  (fp_line (start 5.918 0.432) (end 5.918 0.838)
    (stroke (width 0.1) (type solid)) (layer "F.Fab") (tstamp d00fd368-b234-4be2-941e-a5a8754dc409))
  (fp_line (start 5.918 0.838) (end 5.512 0.838)
    (stroke (width 0.1) (type solid)) (layer "F.Fab") (tstamp c355d54c-0897-49f8-ad73-627d344c544b))
  (fp_line (start 5.918 2.921) (end 5.918 1.714)
    (stroke (width 0.1) (type solid)) (layer "F.Fab") (tstamp aae79efe-f788-47bc-8332-e616289c3ef4))
  (fp_line (start 6.35 1.714) (end 7.62 1.714)
    (stroke (width 0.1) (type solid)) (layer "F.Fab") (tstamp 65cfb6af-727c-479e-8044-c171f46f80fc))
  (fp_line (start 6.782 -2.921) (end 6.782 -1.714)
    (stroke (width 0.1) (type solid)) (layer "F.Fab") (tstamp b9e40b9a-8dea-4bc7-8e1b-a14136a10f18))
  (fp_line (start 6.782 -0.838) (end 6.782 -0.432)
    (stroke (width 0.1) (type solid)) (layer "F.Fab") (tstamp f198ec21-9481-485c-b041-c495f599c4f1))
  (fp_line (start 6.782 -0.432) (end 7.188 -0.432)
    (stroke (width 0.1) (type solid)) (layer "F.Fab") (tstamp 69c5ccd6-743d-4a3f-bacd-9323fdddc6c8))
  (fp_line (start 6.782 0.432) (end 6.782 0.838)
    (stroke (width 0.1) (type solid)) (layer "F.Fab") (tstamp 82ec0adb-eaab-4482-8b31-c611657026e1))
  (fp_line (start 6.782 0.838) (end 7.188 0.838)
    (stroke (width 0.1) (type solid)) (layer "F.Fab") (tstamp fcdaa356-857d-4818-aee5-5cf0dd5725dc))
  (fp_line (start 6.782 2.921) (end 6.782 1.714)
    (stroke (width 0.1) (type solid)) (layer "F.Fab") (tstamp f1f4b3c6-c1ec-44c3-ab37-bdc775182acb))
  (fp_line (start 7.188 -2.921) (end 6.782 -2.921)
    (stroke (width 0.1) (type solid)) (layer "F.Fab") (tstamp d74d7015-b7b5-4a36-9e97-b3348780cf2c))
  (fp_line (start 7.188 -1.714) (end 7.188 -2.921)
    (stroke (width 0.1) (type solid)) (layer "F.Fab") (tstamp 0b7e8b15-871a-4163-8253-0840e74e0408))
  (fp_line (start 7.188 -0.838) (end 6.782 -0.838)
    (stroke (width 0.1) (type solid)) (layer "F.Fab") (tstamp 863de257-fed3-45ea-9178-dc5a4af7e1a6))
  (fp_line (start 7.188 -0.432) (end 7.188 -0.838)
    (stroke (width 0.1) (type solid)) (layer "F.Fab") (tstamp 3202e96a-bbbc-4ab5-8a0f-86279ba352c4))
  (fp_line (start 7.188 0.432) (end 6.782 0.432)
    (stroke (width 0.1) (type solid)) (layer "F.Fab") (tstamp fc3da800-48e2-4d00-80a5-807fadf01222))
  (fp_line (start 7.188 0.838) (end 7.188 0.432)
    (stroke (width 0.1) (type solid)) (layer "F.Fab") (tstamp 785f4775-e75e-46b3-9710-4725943325c2))
  (fp_line (start 7.188 1.714) (end 7.188 2.921)
    (stroke (width 0.1) (type solid)) (layer "F.Fab") (tstamp 91f1e5d3-8a94-4d74-92bd-d8d81893997e))
  (fp_line (start 7.188 2.921) (end 6.782 2.921)
    (stroke (width 0.1) (type solid)) (layer "F.Fab") (tstamp 68322571-e4ae-4f2e-9b78-3855cf44110b))
  (fp_line (start 7.62 -1.714) (end 6.35 -1.714)
    (stroke (width 0.1) (type solid)) (layer "F.Fab") (tstamp 32d6db08-476e-4f71-a56e-16889186d62c))
  (fp_line (start 7.62 1.714) (end 7.62 -1.714)
    (stroke (width 0.1) (type solid)) (layer "F.Fab") (tstamp c324e9d0-0faf-4a6f-af70-e5ed8869d8f7))
  (pad "1" smd rect (at -6.985 2.032) (size 0.74 2.79) (layers "F.Cu" "F.Paste") (tstamp eecf99ab-5234-4430-a069-44e72b63eba7))
  (pad "2" smd rect (at -6.985 -2.032) (size 0.74 2.79) (layers "F.Cu" "F.Paste") (tstamp 610a4168-9ca5-4b86-ada5-9469d6645f0a))
  (pad "3" smd rect (at -5.715 2.032) (size 0.74 2.79) (layers "F.Cu" "F.Paste") (tstamp 211c0a4e-2eb0-4ebb-aa6e-f1d1d0f477de))
  (pad "4" smd rect (at -5.715 -2.032) (size 0.74 2.79) (layers "F.Cu" "F.Paste") (tstamp 604c85a9-e0a8-4f9b-96b9-42c31f5713b2))
  (pad "5" smd rect (at -4.445 2.032) (size 0.74 2.79) (layers "F.Cu" "F.Paste") (tstamp c6e3bca2-53b4-4670-b740-5e3b715bf288))
  (pad "6" smd rect (at -4.445 -2.032) (size 0.74 2.79) (layers "F.Cu" "F.Paste") (tstamp 4d456948-26eb-4997-af45-8a59771d30a8))
  (pad "7" smd rect (at -3.175 2.032) (size 0.74 2.79) (layers "F.Cu" "F.Paste") (tstamp 59866a44-2a3d-4acb-8cea-ab640b191875))
  (pad "8" smd rect (at -3.175 -2.032) (size 0.74 2.79) (layers "F.Cu" "F.Paste") (tstamp be7529ab-a1cc-4314-8c3f-5273925141fa))
  (pad "9" smd rect (at -1.905 2.032) (size 0.74 2.79) (layers "F.Cu" "F.Paste") (tstamp b6036ee8-8441-4b24-9085-8e30abf8c5cd))
  (pad "10" smd rect (at -1.905 -2.032) (size 0.74 2.79) (layers "F.Cu" "F.Paste") (tstamp 22367592-51c9-43c4-afe3-43724ad6f278))
  (pad "11" smd rect (at -0.635 2.032) (size 0.74 2.79) (layers "F.Cu" "F.Paste") (tstamp e8388376-aa36-4c6c-b398-387e8f183d88))
  (pad "12" smd rect (at -0.635 -2.032) (size 0.74 2.79) (layers "F.Cu" "F.Paste") (tstamp 7e1d5cc2-8f7c-4cd4-a8fb-e86a51f3b515))
  (pad "13" smd rect (at 0.635 2.032) (size 0.74 2.79) (layers "F.Cu" "F.Paste") (tstamp c27793e6-bf90-41c8-b9bc-431596bf6b3d))
  (pad "14" smd rect (at 0.635 -2.032) (size 0.74 2.79) (layers "F.Cu" "F.Paste") (tstamp 0e4601d6-15b3-4b59-8f15-de2dcfb81271))
  (pad "15" smd rect (at 1.905 2.032) (size 0.74 2.79) (layers "F.Cu" "F.Paste") (tstamp 40c292d9-c734-43bd-b4c1-818ee4eb8d20))
  (pad "16" smd rect (at 1.905 -2.032) (size 0.74 2.79) (layers "F.Cu" "F.Paste") (tstamp d89501fc-a5a7-446c-a893-6440acb4ad50))
  (pad "17" smd rect (at 3.175 2.032) (size 0.74 2.79) (layers "F.Cu" "F.Paste") (tstamp 155b4049-f9db-4bd2-91d3-c4b347d61d5c))
  (pad "18" smd rect (at 3.175 -2.032) (size 0.74 2.79) (layers "F.Cu" "F.Paste") (tstamp 63c1e858-19c5-42e2-8f35-ee84a281a51e))
  (pad "19" smd rect (at 4.445 2.032) (size 0.74 2.79) (layers "F.Cu" "F.Paste") (tstamp f3391cc2-f909-4e6a-9198-bfcea52d073e))
  (pad "20" smd rect (at 4.445 -2.032) (size 0.74 2.79) (layers "F.Cu" "F.Paste") (tstamp 97898c84-11d1-4dd7-8944-9c20403a3f09))
  (pad "21" smd rect (at 5.715 2.032) (size 0.74 2.79) (layers "F.Cu" "F.Paste") (tstamp 7f53af4e-5fec-4d60-a82c-2be3baaf9578))
  (pad "22" smd rect (at 5.715 -2.032) (size 0.74 2.79) (layers "F.Cu" "F.Paste") (tstamp 25e31f71-ca7a-42ba-9d89-1933a0365ef6))
  (pad "23" smd rect (at 6.985 2.032) (size 0.74 2.79) (layers "F.Cu" "F.Paste") (tstamp ac5be8bd-58de-42b2-96b7-9c9152cc8877))
  (pad "24" smd rect (at 6.985 -2.032) (size 0.74 2.79) (layers "F.Cu" "F.Paste") (tstamp d6f1830b-6d6e-47c7-a48c-8e125294d719))
  (model "Z:/Electronics/Cad/KiCad/GITLIBS/third-party/MK_THIRD_PARTY/mk_third_party3D/SAMTEC-FTS-112-03-X-DV.step"
    (offset (xyz 0 0 0.4))
    (scale (xyz 1 1 1))
    (rotate (xyz -90 0 0))
  )
)
