(footprint "SM141K04L"
	(version 20240108)
	(generator "pcbnew")
	(generator_version "8.0")
	(layer "F.Cu")
	(property "Reference" "REF**"
		(at 0 -0.5 0)
		(unlocked yes)
		(layer "F.SilkS")
		(uuid "10d43214-6110-4a92-b190-93156122075d")
		(effects
			(font
				(size 1 1)
				(thickness 0.1)
			)
		)
	)
	(property "Value" "SM141K04L"
		(at 0 1 0)
		(unlocked yes)
		(layer "F.Fab")
		(uuid "8ee215bf-96d4-477e-87e9-b73ad83ad5bd")
		(effects
			(font
				(size 1 1)
				(thickness 0.15)
			)
		)
	)
	(property "Footprint" ""
		(at 0 0 0)
		(unlocked yes)
		(layer "F.Fab")
		(hide yes)
		(uuid "7be27031-52a5-488d-b8b8-55e0895d1f53")
		(effects
			(font
				(size 1 1)
				(thickness 0.15)
			)
		)
	)
	(property "Datasheet" ""
		(at 0 0 0)
		(unlocked yes)
		(layer "F.Fab")
		(hide yes)
		(uuid "42b99b32-a117-4c0d-b97f-545bad425149")
		(effects
			(font
				(size 1 1)
				(thickness 0.15)
			)
		)
	)
	(property "Description" ""
		(at 0 0 0)
		(unlocked yes)
		(layer "F.Fab")
		(hide yes)
		(uuid "c5573cb7-9b56-49b9-9f44-c006b483c0ee")
		(effects
			(font
				(size 1 1)
				(thickness 0.15)
			)
		)
	)
	(attr smd)
	(fp_rect
		(start -11.75 -14.75)
		(end 11.75 14.75)
		(stroke
			(width 0.1)
			(type default)
		)
		(fill none)
		(layer "F.SilkS")
		(uuid "d052abee-0f5b-4fba-a540-abc2c52a483e")
	)
	(fp_rect
		(start -11.5 -14.5)
		(end 11.5 14.5)
		(stroke
			(width 0.1)
			(type default)
		)
		(fill none)
		(layer "Dwgs.User")
		(uuid "1c787241-0efb-4752-92c9-80c9b895c2f7")
	)
	(fp_text user "${REFERENCE}"
		(at 0 2.5 0)
		(unlocked yes)
		(layer "F.Fab")
		(uuid "af9658c2-b6a0-4b49-aa43-b01147366ae9")
		(effects
			(font
				(size 1 1)
				(thickness 0.15)
			)
		)
	)
	(pad "1" smd circle
		(at 0 -11.5)
		(size 3 3)
		(layers "F.Cu" "F.Paste" "F.Mask")
		(uuid "9a41412b-46cd-4927-aa8d-9f4355f4597f")
	)
	(pad "2" smd circle
		(at 0 11.5)
		(size 3 3)
		(layers "F.Cu" "F.Paste" "F.Mask")
		(uuid "f7d2d532-7681-44c9-acb1-cee4ba0af3d9")
	)
)
