(footprint "SolarBitSlot"
	(version 20240108)
	(generator "pcbnew")
	(generator_version "8.0")
	(layer "F.Cu")
	(descr "Through hole straight pin header, 1x01, 2.54mm pitch, single row")
	(tags "Through hole pin header THT 1x01 2.54mm single row")
	(property "Reference" "H5"
		(at 0 -2.33 0)
		(layer "F.Fab")
		(hide yes)
		(uuid "66a1df92-ba31-4513-86c5-7af6173cee5a")
		(effects
			(font
				(size 1 1)
				(thickness 0.15)
			)
		)
	)
	(property "Value" "Slot+"
		(at 0 2.33 0)
		(layer "F.Fab")
		(uuid "6c70bbae-3a64-4cba-a0bb-403db8d1056a")
		(effects
			(font
				(size 1 1)
				(thickness 0.15)
			)
		)
	)
	(property "Footprint" ""
		(at 0 0 0)
		(unlocked yes)
		(layer "F.Fab")
		(hide yes)
		(uuid "2c491e50-5bc3-4f08-a149-bfae85ea6f68")
		(effects
			(font
				(size 1.27 1.27)
			)
		)
	)
	(property "Datasheet" ""
		(at 0 0 0)
		(unlocked yes)
		(layer "F.Fab")
		(hide yes)
		(uuid "ed5f35fb-b6a9-4c7e-86fa-a49446f259e6")
		(effects
			(font
				(size 1.27 1.27)
			)
		)
	)
	(property "Description" ""
		(at 0 0 0)
		(unlocked yes)
		(layer "F.Fab")
		(hide yes)
		(uuid "5e9b9651-048d-48ac-a9ac-6679c879c8d2")
		(effects
			(font
				(size 1.27 1.27)
			)
		)
	)
	(attr through_hole)
	(pad "1" thru_hole oval
		(at 0 0)
		(size 6 1.25)
		(drill oval 5 0.75)
		(layers "*.Cu" "*.Mask")
		(remove_unused_layers no)
		(uuid "3975c262-332e-4ee2-a5a1-b9b7e360f348")
	)
)