(module USB_C_1x20_P1.27mm_ADAPTER_LEFT (layer F.Cu) (tedit 6127B52D)
  (descr "Through hole straight pin header, 1x20, 1.27mm pitch, single row")
  (tags "Through hole pin header THT 1x20 1.27mm single row")
  (fp_text reference REF** (at 0.25 2.75 180) (layer F.SilkS)
    (effects (font (size 1 1) (thickness 0.15)))
  )
  (fp_text value USB_C_LEFT (at -0.25 9.24 -180) (layer F.Fab)
    (effects (font (size 1 1) (thickness 0.15)))
  )
  (fp_line (start 4.004 21.508) (end 4.004 21.008) (layer F.CrtYd) (width 0.06))
  (fp_line (start 7.504 21.508) (end 4.004 21.508) (layer F.CrtYd) (width 0.06))
  (fp_line (start 7.504 20.008) (end 7.504 21.508) (layer F.CrtYd) (width 0.06))
  (fp_line (start 9.504 20.008) (end 7.504 20.008) (layer F.CrtYd) (width 0.06))
  (fp_line (start 9.504 -7.492) (end 9.504 20.008) (layer F.CrtYd) (width 0.06))
  (fp_line (start -5.5 -7.492) (end 9.504 -7.492) (layer F.CrtYd) (width 0.06))
  (fp_line (start -5.5 8.508) (end -5.5 -7.492) (layer F.CrtYd) (width 0.06))
  (fp_line (start 4.004 8.508) (end -5.5 8.508) (layer F.CrtYd) (width 0.06))
  (fp_line (start 4.004 21.008) (end 4.004 8.508) (layer F.CrtYd) (width 0.06))
  (fp_line (start 6.354 19.3492) (end 6.354 -6.762) (layer F.SilkS) (width 0.15))
  (fp_line (start 6.354 21.0764) (end 6.354 19.3238) (layer F.SilkS) (width 0.15))
  (fp_line (start 4.7538 21.0764) (end 6.354 21.0764) (layer F.SilkS) (width 0.15))
  (fp_line (start 4.7538 7.7668) (end 4.7538 21.0764) (layer F.SilkS) (width 0.15))
  (fp_line (start -5.1014 7.7668) (end 4.7538 7.7668) (layer F.SilkS) (width 0.15))
  (fp_line (start -5.1014 -6.762) (end -5.1014 7.7922) (layer F.SilkS) (width 0.15))
  (fp_line (start 6.354 -6.762) (end -5.1014 -6.762) (layer F.SilkS) (width 0.15))
  (fp_line (start 4.754 7.7795) (end -5.106 7.7795) (layer Dwgs.User) (width 0.12))
  (fp_line (start -5.106 -6.762) (end -5.106 7.778) (layer Dwgs.User) (width 0.12))
  (fp_line (start 8.734 -6.252) (end 6.354 -6.252) (layer F.SilkS) (width 0.12))
  (fp_line (start 8.734 -5.492) (end 8.734 -6.252) (layer F.SilkS) (width 0.12))
  (fp_line (start 8.734 -5.492) (end 8.734 19.333) (layer F.SilkS) (width 0.12))
  (fp_line (start 7.93153 19.333) (end 6.354 19.333) (layer F.SilkS) (width 0.12))
  (fp_line (start 8.734 19.333) (end 7.93153 19.333) (layer F.SilkS) (width 0.12))
  (fp_line (start 6.354 -6.692) (end 6.354 21.059) (layer Dwgs.User) (width 0.12))
  (fp_line (start 6.354 -6.762) (end -5.106 -6.762) (layer Dwgs.User) (width 0.12))
  (fp_line (start 8.5 0.5) (end 9.5 0.5) (layer F.SilkS) (width 0.1))
  (fp_text user %R (at 0 -8 180) (layer F.Fab)
    (effects (font (size 1 1) (thickness 0.15)))
  )
  (fp_text user USB-C (at 0.004 -2 180) (layer F.SilkS)
    (effects (font (size 1 1) (thickness 0.15)))
  )
  (fp_text user Adapter (at 0.004 -0.5 180) (layer F.SilkS)
    (effects (font (size 1 1) (thickness 0.15)))
  )
  (fp_text user Left (at 0 1.25 180) (layer F.SilkS)
    (effects (font (size 1 1) (thickness 0.15)))
  )
  (fp_poly (pts (xy 4.75 6.25) (xy -5.55 6.1) (xy -5.55 -4.15) (xy 4.75 -4.15)) (layer Cmts.User) (width 0.1))
  (fp_line (start 4.75 1) (end 4.75 21) (layer Dwgs.User) (width 0.05))
  (pad 20 thru_hole oval (at 7.624 18.638 180) (size 1 1) (drill 0.65) (layers *.Cu *.Mask))
  (pad 2 thru_hole oval (at 7.624 -4.222 180) (size 1 1) (drill 0.65) (layers *.Cu *.Mask))
  (pad 3 thru_hole oval (at 7.624 -2.952 180) (size 1 1) (drill 0.65) (layers *.Cu *.Mask))
  (pad 4 thru_hole oval (at 7.624 -1.682 180) (size 1 1) (drill 0.65) (layers *.Cu *.Mask))
  (pad 5 thru_hole oval (at 7.624 -0.412 180) (size 1 1) (drill 0.65) (layers *.Cu *.Mask))
  (pad 6 thru_hole oval (at 7.624 0.858 180) (size 1 1) (drill 0.65) (layers *.Cu *.Mask))
  (pad 7 thru_hole oval (at 7.624 2.128 180) (size 1 1) (drill 0.65) (layers *.Cu *.Mask))
  (pad 8 thru_hole oval (at 7.624 3.398 180) (size 1 1) (drill 0.65) (layers *.Cu *.Mask))
  (pad 9 thru_hole oval (at 7.624 4.668 180) (size 1 1) (drill 0.65) (layers *.Cu *.Mask))
  (pad 10 thru_hole oval (at 7.624 5.938 180) (size 1 1) (drill 0.65) (layers *.Cu *.Mask))
  (pad 11 thru_hole oval (at 7.624 7.208 180) (size 1 1) (drill 0.65) (layers *.Cu *.Mask))
  (pad 12 thru_hole oval (at 7.624 8.478 180) (size 1 1) (drill 0.65) (layers *.Cu *.Mask))
  (pad 13 thru_hole oval (at 7.624 9.748 180) (size 1 1) (drill 0.65) (layers *.Cu *.Mask))
  (pad 14 thru_hole oval (at 7.624 11.018 180) (size 1 1) (drill 0.65) (layers *.Cu *.Mask))
  (pad 15 thru_hole oval (at 7.624 12.288 180) (size 1 1) (drill 0.65) (layers *.Cu *.Mask))
  (pad 16 thru_hole oval (at 7.624 13.558 180) (size 1 1) (drill 0.65) (layers *.Cu *.Mask))
  (pad 17 thru_hole oval (at 7.624 14.828 180) (size 1 1) (drill 0.65) (layers *.Cu *.Mask))
  (pad 18 thru_hole oval (at 7.624 16.098 180) (size 1 1) (drill 0.65) (layers *.Cu *.Mask))
  (pad 19 thru_hole oval (at 7.624 17.368 180) (size 1 1) (drill 0.65) (layers *.Cu *.Mask))
  (pad 1 thru_hole rect (at 7.624 -5.492 180) (size 1 1) (drill 0.65) (layers *.Cu *.Mask))
  (pad "" np_thru_hole circle (at 0 -5) (size 2.3 2.3) (drill 2) (layers *.Cu *.Mask))
  (pad "" np_thru_hole circle (at 0 5.938) (size 2.3 2.3) (drill 2) (layers *.Cu *.Mask))
  (model ${KISYS3DMOD}/Connector_PinHeader_1.27mm.3dshapes/PinHeader_1x20_P1.27mm_Vertical.wrl
    (offset (xyz 13 -2 0))
    (scale (xyz 1 1 1))
    (rotate (xyz 0 0 0))
  )
)
