(module USB_C_20ADP (layer F.Cu) (tedit 612833B8)
  (fp_text reference REF** (at 0.5 0) (layer F.Fab)
    (effects (font (size 1 1) (thickness 0.15)))
  )
  (fp_text value USB_C_20ADP (at -6.985 0.635 -90) (layer F.SilkS) hide
    (effects (font (size 1 1) (thickness 0.15)))
  )
  (fp_line (start -5.334 5.207) (end 5.334 5.207) (layer F.SilkS) (width 0.15))
  (fp_line (start -5.334 5.969) (end 5.334 5.969) (layer F.SilkS) (width 0.15))
  (fp_line (start -4.57 -6.8) (end 0 -6.8) (layer Dwgs.User) (width 0.05))
  (fp_line (start 4.57 -6.8) (end 0 -6.8) (layer Dwgs.User) (width 0.05))
  (fp_line (start -5.25 7.27) (end 5.25 7.27) (layer Dwgs.User) (width 0.05))
  (fp_line (start 5.25 7.27) (end 5.25 6) (layer Dwgs.User) (width 0.05))
  (fp_line (start -5.25 7.27) (end -5.25 6) (layer Dwgs.User) (width 0.05))
  (fp_line (start 4.57 -6.8) (end 4.57 5.2) (layer Dwgs.User) (width 0.05))
  (fp_line (start -4.57 -6.8) (end -4.57 5.2) (layer Dwgs.User) (width 0.05))
  (fp_line (start 5.25 6) (end -5.25 6) (layer Dwgs.User) (width 0.05))
  (fp_line (start -5.25 6) (end -5.25 5.2) (layer Dwgs.User) (width 0.05))
  (fp_line (start 5.25 5.2) (end 5.25 6) (layer Dwgs.User) (width 0.05))
  (fp_line (start 0 5.2) (end -5.25 5.2) (layer Dwgs.User) (width 0.05))
  (fp_line (start 0 5.2) (end 5.25 5.2) (layer Dwgs.User) (width 0.05))
  (fp_line (start 5.25 5.2) (end 5.25 0) (layer Dwgs.User) (width 0.05))
  (fp_line (start -5.25 5.2) (end -5.25 0) (layer Dwgs.User) (width 0.05))
  (fp_line (start -5.25 0) (end -5.25 -5.2) (layer Dwgs.User) (width 0.05))
  (fp_line (start -5.25 -5.2) (end 0 -5.2) (layer Dwgs.User) (width 0.05))
  (fp_line (start 5.25 0) (end 5.25 -5.2) (layer Dwgs.User) (width 0.05))
  (fp_line (start 5.15 0) (end 0 0) (layer Dwgs.User) (width 0.05))
  (fp_line (start -5.15 0) (end 0 0) (layer Dwgs.User) (width 0.05))
  (fp_line (start 0 -5.2) (end 0 0) (layer Dwgs.User) (width 0.05))
  (fp_circle (center 0 0) (end 5.15 0) (layer Dwgs.User) (width 0.05))
  (fp_line (start 0 -5.2) (end 5.25 -5.2) (layer Dwgs.User) (width 0.05))
  (fp_line (start 0 5.2) (end 0 0) (layer Dwgs.User) (width 0.05))
  (fp_line (start 5.334 -5.08) (end 5.334 5.969) (layer F.SilkS) (width 0.15))
  (fp_line (start -5.334 -5.207) (end -5.334 5.969) (layer F.SilkS) (width 0.15))
  (fp_line (start 0 8.255) (end 0 8.636) (layer F.SilkS) (width 0.15))
  (fp_line (start -5.25 7.905) (end -5.25 7.27) (layer Dwgs.User) (width 0.05))
  (fp_line (start 5.25 7.27) (end 5.25 7.905) (layer Dwgs.User) (width 0.05))
  (fp_line (start -5.334 5.969) (end -5.334 8.636) (layer F.SilkS) (width 0.15))
  (fp_line (start 5.334 5.969) (end 5.334 8.636) (layer F.SilkS) (width 0.15))
  (fp_line (start 0 8.636) (end 5.334 8.636) (layer F.SilkS) (width 0.15))
  (fp_line (start 0 8.636) (end -5.334 8.636) (layer F.SilkS) (width 0.15))
  (fp_line (start 0 8.255) (end 0 5.207) (layer F.SilkS) (width 0.15))
  (fp_text user D+ (at 0.635 10.795 90) (layer Cmts.User)
    (effects (font (size 1 1) (thickness 0.15)))
  )
  (fp_text user D- (at -0.635 10.795 90) (layer Cmts.User)
    (effects (font (size 1 1) (thickness 0.15)))
  )
  (fp_text user GND (at -1.905 10.795 90) (layer Cmts.User)
    (effects (font (size 1 1) (thickness 0.15)))
  )
  (pad 1 thru_hole oval (at -1.905 7.905) (size 0.9 1.2) (drill 0.7) (layers *.Cu *.Mask))
  (pad 2 thru_hole oval (at -0.635 7.905) (size 0.9 1.2) (drill 0.7) (layers *.Cu *.Mask))
  (pad 3 thru_hole oval (at 0.635 7.905) (size 0.9 1.2) (drill 0.7) (layers *.Cu *.Mask))
  (pad 4 thru_hole oval (at 1.905 7.905) (size 0.9 1.2) (drill 0.7) (layers *.Cu *.Mask))
  (pad "" np_thru_hole circle (at 0 0) (size 2.3 2.3) (drill 2.3) (layers *.Cu *.Mask))
  (model Z:/Electronics/Cad/KiCad/GITLIBS/third-party/MK_THIRD_PARTY/mk_third_party3D/Plapple_USBC_2p0.step
    (offset (xyz 0 -6.5 5))
    (scale (xyz 1 1 1))
    (rotate (xyz -90 0 180))
  )
)
