(footprint "Vishay_90F_1.4V_Vertical" (version 20221018) (generator pcbnew)
  (layer "F.Cu")
  (descr "1.4V 90F Hybrid Capcitor Horizontal")
  (attr through_hole)
  (fp_text reference "REF**" (at 0 2.6) (layer "F.SilkS")
      (effects (font (size 1 1) (thickness 0.15)))
    (tstamp 79e2590d-493e-4a3e-981e-e1237607a59d)
  )
  (fp_text value "Vishay_90F_1.4V_Vertical" (at -0.1 -0.1) (layer "F.Fab")
      (effects (font (size 1 1) (thickness 0.15)))
    (tstamp bda31d77-1dd1-476b-a1d7-81a27734317c)
  )
  (fp_text user "-" (at -1.7 -2.5 90) (layer "F.SilkS")
      (effects (font (size 1 1) (thickness 0.15)))
    (tstamp 4d191187-9f5b-4baf-8041-861b8828d1e2)
  )
  (fp_text user "+" (at -6.9 2.4) (layer "F.SilkS")
      (effects (font (size 1 1) (thickness 0.15)))
    (tstamp d2279bb5-2a9c-49bd-aa63-e74e263ce0df)
  )
  (fp_text user "MAL219690106E3" (at 0 -1.2) (layer "F.Fab")
      (effects (font (size 1 1) (thickness 0.15)))
    (tstamp dae76c8f-17cf-4140-8ef5-901df07eeb56)
  )
  (fp_line (start -17.5 0) (end 17.5 0)
    (stroke (width 0.1) (type solid)) (layer "Dwgs.User") (tstamp b4f87e60-61d2-4fa0-9107-3e82986c9ee6))
  (fp_line (start 0 2.5) (end 0 -2.5)
    (stroke (width 0.12) (type solid)) (layer "Dwgs.User") (tstamp ed37dc14-9e4a-4650-aa94-7568053cd209))
  (fp_line (start 5 2.5) (end -5 2.5)
    (stroke (width 0.12) (type solid)) (layer "Dwgs.User") (tstamp 97c44006-7b30-459b-9973-c027bf372bc7))
  (fp_rect (start -17.5 -2.5) (end 17.5 2.5)
    (stroke (width 0.1) (type solid)) (fill solid) (layer "Dwgs.User") (tstamp 3ded9a5d-5c5c-4123-b57e-287ae0aeed19))
  (pad "1" thru_hole oval (at -5 2.5) (size 2.524 1.524) (drill oval 1.524 1) (layers "*.Cu" "*.Mask") (tstamp c0d0ee22-2a6e-4faf-b0a3-ec052e223690))
  (pad "1" thru_hole oval (at 5 2.5) (size 2.524 1.524) (drill oval 1.524 1) (layers "*.Cu" "*.Mask") (tstamp a9c6ed23-4ca7-4708-895e-22792a553a16))
  (pad "2" thru_hole oval (at 0 -2.5) (size 2.524 1.524) (drill oval 1.524 1) (layers "*.Cu" "*.Mask") (tstamp 4a1d5a20-8238-4ce3-8c8d-d83df2beb78e))
  (model "Z:/Electronics/Cad/KiCad/GITLIBS/third-party/MK_THIRD_PARTY/mk_third_party3D/MAL219690116E3.step"
    (offset (xyz 0 10.75 12.5))
    (scale (xyz 1 1 1))
    (rotate (xyz 90 0 0))
  )
)
