(footprint "Vishay_15F_1.4V" (version 20221018) (generator pcbnew)
  (layer "F.Cu")
  (descr "1.4V 15F Capacitor")
  (tags "supercap")
  (attr smd)
  (fp_text reference "REF**" (at 0 0.5) (layer "F.SilkS")
      (effects (font (size 1 1) (thickness 0.15)))
    (tstamp 82113b35-f3b9-40e8-86cf-9af0fd068e0d)
  )
  (fp_text value "Vishay_15F_1.4V" (at 0 -7.493) (layer "F.Fab")
      (effects (font (size 1 1) (thickness 0.15)))
    (tstamp a715d5d5-e223-4410-a5eb-35eaae5b67c2)
  )
  (fp_text user "-" (at -9 -3) (layer "F.SilkS")
      (effects (font (size 1 1) (thickness 0.15)))
    (tstamp 13aab6f0-321c-4ba3-a7f8-62a38eaf6940)
  )
  (fp_text user "+" (at 9 3) (layer "F.SilkS")
      (effects (font (size 1 1) (thickness 0.15)))
    (tstamp a6819d41-f3b9-437d-ac39-921b2c3349b3)
  )
  (fp_line (start -10.5 -2) (end -10.5 0)
    (stroke (width 0.15) (type solid)) (layer "F.SilkS") (tstamp 278f40c1-98e1-4ce4-8480-5a045302df45))
  (fp_line (start -10.5 0) (end -10.5 2)
    (stroke (width 0.15) (type solid)) (layer "F.SilkS") (tstamp b1bbc01d-ef0a-4a89-9b7f-b4a7f9d3c577))
  (fp_line (start -10.5 2) (end -6 2)
    (stroke (width 0.15) (type solid)) (layer "F.SilkS") (tstamp c5abcc65-39ed-409d-af9d-af1fb8e96e1c))
  (fp_line (start -6 -2) (end -10.5 -2)
    (stroke (width 0.15) (type solid)) (layer "F.SilkS") (tstamp a716b02c-3069-4430-a147-4746d12848aa))
  (fp_line (start 6 2) (end 10.5 2)
    (stroke (width 0.15) (type solid)) (layer "F.SilkS") (tstamp faee639b-c171-4837-b9f2-63e37eb41dcd))
  (fp_line (start 10.5 -2) (end 6 -2)
    (stroke (width 0.15) (type solid)) (layer "F.SilkS") (tstamp df707e4d-f7fd-4f1d-abfd-91492ce3b0ac))
  (fp_line (start 10.5 0) (end 10.5 -2)
    (stroke (width 0.15) (type solid)) (layer "F.SilkS") (tstamp ab5ccfeb-190f-4bb6-9e54-d23cb2a97530))
  (fp_line (start 10.5 2) (end 10.5 0)
    (stroke (width 0.15) (type solid)) (layer "F.SilkS") (tstamp 3b045dd9-af5d-4956-93ee-a6873a1cdb5d))
  (fp_circle (center 0 0) (end 6.25 0)
    (stroke (width 0.15) (type solid)) (fill none) (layer "F.SilkS") (tstamp 4da753e9-0721-4707-a424-e5ea855686a0))
  (pad "1" smd rect (at 8.25 0) (size 4.25 3.75) (layers "F.Cu" "F.Paste" "F.Mask") (tstamp 305ead43-35bf-49d2-ac59-8744384eee95))
  (pad "2" smd rect (at -8.25 0) (size 4.25 3.75) (layers "F.Cu" "F.Paste" "F.Mask") (tstamp 79480b62-5e83-4dba-8eb2-eda70c382848))
)
