(footprint "BulBul-5mm-Silk"
	(version 20240108)
	(generator "pcbnew")
	(generator_version "8.0")
	(layer "F.Cu")
	(property "Reference" "G***"
		(at 0 -3.65 0)
		(layer "F.Fab")
		(hide yes)
		(uuid "bfc5d670-b8e1-4ce6-b8d7-294940fd48f6")
		(effects
			(font
				(size 1.5 1.5)
				(thickness 0.3)
			)
		)
	)
	(property "Value" "LOGO"
		(at 0 -1.85 0)
		(layer "F.SilkS")
		(hide yes)
		(uuid "b09609f2-3e55-4b98-837e-e30dc76304a8")
		(effects
			(font
				(size 1.5 1.5)
				(thickness 0.3)
			)
		)
	)
	(property "Footprint" ""
		(at 0 0 0)
		(unlocked yes)
		(layer "F.Fab")
		(hide yes)
		(uuid "5a045146-20f3-4896-849b-daaae565d50d")
		(effects
			(font
				(size 1.27 1.27)
			)
		)
	)
	(property "Datasheet" ""
		(at 0 0 0)
		(unlocked yes)
		(layer "F.Fab")
		(hide yes)
		(uuid "5cd6f7fe-32d2-4c6d-9cef-ef2369ebb05c")
		(effects
			(font
				(size 1.27 1.27)
			)
		)
	)
	(property "Description" ""
		(at 0 0 0)
		(unlocked yes)
		(layer "F.Fab")
		(hide yes)
		(uuid "19ce197d-5788-413d-946b-3c2331a1c520")
		(effects
			(font
				(size 1.27 1.27)
			)
		)
	)
	(attr board_only exclude_from_pos_files exclude_from_bom)
	(fp_poly
		(pts
			(xy 0.316414 -0.450141) (xy 0.323794 -0.448664) (xy 0.328526 -0.446801) (xy 0.332831 -0.443748) (xy 0.337082 -0.439345)
			(xy 0.340878 -0.434203) (xy 0.343816 -0.428938) (xy 0.345496 -0.424163) (xy 0.34558 -0.420706) (xy 0.345481 -0.417739)
			(xy 0.346093 -0.414331) (xy 0.346572 -0.410535) (xy 0.346122 -0.407481) (xy 0.345067 -0.404445) (xy 0.343748 -0.400259)
			(xy 0.343279 -0.398685) (xy 0.341399 -0.393663) (xy 0.338825 -0.3886) (xy 0.335942 -0.384082) (xy 0.333137 -0.380696)
			(xy 0.330793 -0.379028) (xy 0.330311 -0.378948) (xy 0.327946 -0.377843) (xy 0.326949 -0.376241) (xy 0.324931 -0.373631)
			(xy 0.32138 -0.371777) (xy 0.31739 -0.371247) (xy 0.317348 -0.37125) (xy 0.314433 -0.371578) (xy 0.311184 -0.372009)
			(xy 0.307947 -0.372791) (xy 0.305986 -0.373786) (xy 0.303686 -0.374838) (xy 0.302308 -0.375) (xy 0.299771 -0.375885)
			(xy 0.296847 -0.37804) (xy 0.29659 -0.37829) (xy 0.292843 -0.380844) (xy 0.288109 -0.381579) (xy 0.283956 -0.382096)
			(xy 0.28153 -0.383832) (xy 0.281273 -0.384211) (xy 0.278912 -0.386301) (xy 0.276949 -0.386843) (xy 0.273622 -0.388108)
			(xy 0.270244 -0.391743) (xy 0.268422 -0.394735) (xy 0.266551 -0.396708) (xy 0.26503 -0.396854) (xy 0.263366 -0.396913)
			(xy 0.26343 -0.398348) (xy 0.264059 -0.399148) (xy 0.265631 -0.401794) (xy 0.266828 -0.405609) (xy 0.267378 -0.409412)
			(xy 0.267028 -0.411985) (xy 0.265965 -0.415306) (xy 0.265789 -0.417034) (xy 0.266605 -0.4198) (xy 0.268732 -0.423791)
			(xy 0.271686 -0.428305) (xy 0.274983 -0.432642) (xy 0.278141 -0.4361) (xy 0.279956 -0.437588) (xy 0.283084 -0.440018)
			(xy 0.285271 -0.44233) (xy 0.287287 -0.444257) (xy 0.28858 -0.444737) (xy 0.290636 -0.445327) (xy 0.29394 -0.446813)
			(xy 0.295414 -0.44758) (xy 0.301305 -0.44962) (xy 0.308611 -0.450466)
		)
		(stroke
			(width 0)
			(type solid)
		)
		(fill solid)
		(layer "F.SilkS")
		(uuid "12848331-f847-44aa-ad87-7acddc1e203d")
	)
	(fp_poly
		(pts
			(xy 0.131417 -0.352487) (xy 0.134715 -0.351756) (xy 0.137774 -0.349983) (xy 0.139385 -0.348754) (xy 0.142791 -0.346388)
			(xy 0.145673 -0.344944) (xy 0.146617 -0.344737) (xy 0.150381 -0.343585) (xy 0.154392 -0.340465) (xy 0.158 -0.335887)
			(xy 0.158086 -0.335748) (xy 0.161204 -0.330536) (xy 0.16313 -0.326936) (xy 0.164131 -0.324373) (xy 0.164474 -0.322269)
			(xy 0.164485 -0.321935) (xy 0.164551 -0.318243) (xy 0.164588 -0.31579) (xy 0.164116 -0.308707) (xy 0.162673 -0.300829)
			(xy 0.160472 -0.2928) (xy 0.157728 -0.285264) (xy 0.154653 -0.278868) (xy 0.151462 -0.274254) (xy 0.150488 -0.273292)
			(xy 0.148286 -0.270895) (xy 0.147368 -0.268938) (xy 0.147368 -0.268935) (xy 0.146312 -0.267252) (xy 0.143653 -0.264931)
			(xy 0.140153 -0.262488) (xy 0.136575 -0.260439) (xy 0.133681 -0.2593) (xy 0.132989 -0.259211) (xy 0.130143 -0.258258)
			(xy 0.128947 -0.257237) (xy 0.126585 -0.256043) (xy 0.122506 -0.255393) (xy 0.117566 -0.255291) (xy 0.112624 -0.255739)
			(xy 0.108535 -0.256739) (xy 0.107553 -0.257174) (xy 0.104913 -0.258284) (xy 0.103006 -0.25788) (xy 0.100705 -0.25585)
			(xy 0.098266 -0.253725) (xy 0.096559 -0.252785) (xy 0.096441 -0.252785) (xy 0.094399 -0.253194) (xy 0.092763 -0.25357)
			(xy 0.089974 -0.25465) (xy 0.088881 -0.255391) (xy 0.08664 -0.256362) (xy 0.084766 -0.256579) (xy 0.081693 -0.257438)
			(xy 0.080263 -0.258553) (xy 0.077777 -0.260237) (xy 0.076358 -0.260527) (xy 0.073321 -0.261724) (xy 0.070558 -0.264849)
			(xy 0.068448 -0.269197) (xy 0.067368 -0.274067) (xy 0.067399 -0.277183) (xy 0.067487 -0.281554) (xy 0.066888 -0.285488)
			(xy 0.066784 -0.285818) (xy 0.06631 -0.288961) (xy 0.066971 -0.293034) (xy 0.068212 -0.297002) (xy 0.070988 -0.304634)
			(xy 0.073247 -0.310064) (xy 0.075148 -0.313634) (xy 0.076848 -0.315686) (xy 0.076897 -0.315727) (xy 0.078616 -0.31807)
			(xy 0.078947 -0.319434) (xy 0.079737 -0.321518) (xy 0.081765 -0.324722) (xy 0.083552 -0.32706) (xy 0.086119 -0.330507)
			(xy 0.08779 -0.333356) (xy 0.088157 -0.334522) (xy 0.089191 -0.337293) (xy 0.091773 -0.340556) (xy 0.095126 -0.343574)
			(xy 0.098473 -0.345608) (xy 0.1003 -0.346053) (xy 0.104234 -0.346573) (xy 0.107503 -0.347554) (xy 0.111568 -0.349213)
			(xy 0.115131 -0.35067) (xy 0.118701 -0.351625) (xy 0.123566 -0.35232) (xy 0.126696 -0.352528)
		)
		(stroke
			(width 0)
			(type solid)
		)
		(fill solid)
		(layer "F.SilkS")
		(uuid "16ab2147-417b-4e2f-8603-03767d21f87a")
	)
	(fp_poly
		(pts
			(xy 0.168571 -0.068413) (xy 0.171585 -0.066448) (xy 0.174632 -0.064461) (xy 0.176658 -0.063291) (xy 0.177017 -0.063158)
			(xy 0.178522 -0.062208) (xy 0.181312 -0.059638) (xy 0.18501 -0.055871) (xy 0.189241 -0.051329) (xy 0.193627 -0.046433)
			(xy 0.197793 -0.041605) (xy 0.201362 -0.037267) (xy 0.203959 -0.033842) (xy 0.205206 -0.03175) (xy 0.205263 -0.031484)
			(xy 0.206161 -0.029932) (xy 0.208472 -0.027335) (xy 0.210526 -0.025343) (xy 0.213484 -0.022226) (xy 0.215393 -0.019453)
			(xy 0.215789 -0.018224) (xy 0.216439 -0.015837) (xy 0.217061 -0.015159) (xy 0.218418 -0.013503) (xy 0.220319 -0.010273)
			(xy 0.22233 -0.006339) (xy 0.224014 -0.00257) (xy 0.224936 0.000166) (xy 0.225 0.000672) (xy 0.225861 0.003033)
			(xy 0.226834 0.004278) (xy 0.2286 0.006718) (xy 0.230567 0.010387) (xy 0.232355 0.01442) (xy 0.23358 0.017952)
			(xy 0.233861 0.020118) (xy 0.233848 0.020163) (xy 0.234069 0.022125) (xy 0.235174 0.025611) (xy 0.236484 0.02884)
			(xy 0.238191 0.033488) (xy 0.239223 0.037846) (xy 0.239378 0.040024) (xy 0.239753 0.043917) (xy 0.241008 0.048329)
			(xy 0.241335 0.049124) (xy 0.24293 0.053501) (xy 0.243988 0.057738) (xy 0.244078 0.058335) (xy 0.244593 0.061718)
			(xy 0.245442 0.066635) (xy 0.246445 0.072042) (xy 0.246477 0.072209) (xy 0.247309 0.077275) (xy 0.247757 0.081571)
			(xy 0.247734 0.084242) (xy 0.247702 0.084389) (xy 0.247715 0.087392) (xy 0.248553 0.090474) (xy 0.249233 0.093447)
			(xy 0.249839 0.098661) (xy 0.250365 0.105724) (xy 0.250805 0.114247) (xy 0.251153 0.123839) (xy 0.251402 0.134111)
			(xy 0.251545 0.144671) (xy 0.251576 0.155129) (xy 0.251489 0.165095) (xy 0.251276 0.174179) (xy 0.250933 0.18199)
			(xy 0.250451 0.188138) (xy 0.250206 0.190131) (xy 0.248804 0.199878) (xy 0.247704 0.207352) (xy 0.24685 0.21289)
			(xy 0.246184 0.216824) (xy 0.245648 0.219491) (xy 0.245184 0.221224) (xy 0.244735 0.222359) (xy 0.244607 0.22261)
			(xy 0.243856 0.225147) (xy 0.243216 0.229264) (xy 0.242927 0.232571) (xy 0.241692 0.24168) (xy 0.238899 0.251123)
			(xy 0.238077 0.253289) (xy 0.237235 0.256275) (xy 0.23644 0.260384) (xy 0.236285 0.261424) (xy 0.2355 0.265156)
			(xy 0.234027 0.270598) (xy 0.232095 0.27704) (xy 0.229931 0.283775) (xy 0.227763 0.290092) (xy 0.225819 0.295284)
			(xy 0.224327 0.298639) (xy 0.22287 0.302283) (xy 0.221783 0.306596) (xy 0.221737 0.306869) (xy 0.220323 0.311293)
			(xy 0.217987 0.31528) (xy 0.21787 0.315421) (xy 0.215909 0.318655) (xy 0.21393 0.323351) (xy 0.212617 0.327574)
			(xy 0.211207 0.332292) (xy 0.209685 0.336175) (xy 0.20851 0.338204) (xy 0.206921 0.340865) (xy 0.206578 0.342429)
			(xy 0.205926 0.345069) (xy 0.204278 0.348982) (xy 0.202101 0.353254) (xy 0.19986 0.356969) (xy 0.198046 0.359193)
			(xy 0.196341 0.361612) (xy 0.196027 0.36299) (xy 0.195338 0.36521) (xy 0.193582 0.368726) (xy 0.191805 0.37171)
			(xy 0.188818 0.376693) (xy 0.18591 0.382015) (xy 0.184688 0.384466) (xy 0.18203 0.389079) (xy 0.178473 0.394025)
			(xy 0.17641 0.396455) (xy 0.173531 0.39991) (xy 0.171586 0.402879) (xy 0.171052 0.404372) (xy 0.170267 0.406416)
			(xy 0.168213 0.409724) (xy 0.165445 0.413435) (xy 0.162113 0.417701) (xy 0.159102 0.421774) (xy 0.157348 0.424342)
			(xy 0.154863 0.427715) (xy 0.151523 0.431587) (xy 0.150126 0.433048) (xy 0.146323 0.437067) (xy 0.142268 0.441636)
			(xy 0.1408 0.443376) (xy 0.137475 0.44694) (xy 0.134104 0.449837) (xy 0.132576 0.450822) (xy 0.130006 0.452851)
			(xy 0.128947 0.455067) (xy 0.127895 0.457845) (xy 0.125377 0.460713) (xy 0.122354 0.462737) (xy 0.120638 0.463157)
			(xy 0.118734 0.463692) (xy 0.118421 0.464251) (xy 0.117389 0.465613) (xy 0.115299 0.467015) (xy 0.11267 0.469223)
			(xy 0.109993 0.472649) (xy 0.109373 0.473675) (xy 0.105269 0.478543) (xy 0.101639 0.480657) (xy 0.097386 0.483013)
			(xy 0.093358 0.486204) (xy 0.092845 0.486719) (xy 0.09004 0.489254) (xy 0.087692 0.490677) (xy 0.087161 0.490789)
			(xy 0.08508 0.491491) (xy 0.081809 0.493279) (xy 0.079842 0.494551) (xy 0.072918 0.498926) (xy 0.067385 0.501656)
			(xy 0.063468 0.50263) (xy 0.063373 0.502631) (xy 0.06038 0.503227) (xy 0.057152 0.504537) (xy 0.054282 0.505683)
			(xy 0.052448 0.505806) (xy 0.052424 0.505792) (xy 0.050576 0.505841) (xy 0.048569 0.50664) (xy 0.045919 0.50736)
			(xy 0.041368 0.50794) (xy 0.035647 0.508353) (xy 0.029484 0.508568) (xy 0.023607 0.508556) (xy 0.018747 0.508289)
			(xy 0.016303 0.507926) (xy 0.012242 0.50651) (xy 0.009102 0.504809) (xy 0.005364 0.503143) (xy 0.002192 0.502631)
			(xy -0.001286 0.501645) (xy -0.00568 0.499017) (xy -0.010368 0.495241) (xy -0.01473 0.490813) (xy -0.017933 0.486574)
			(xy -0.02016 0.481776) (xy -0.02148 0.476526) (xy -0.021569 0.475684) (xy -0.021739 0.473056) (xy -0.021524 0.471157)
			(xy -0.020535 0.46964) (xy -0.018382 0.46816) (xy -0.014676 0.466371) (xy -0.009029 0.463925) (xy -0.007709 0.463359)
			(xy -0.004006 0.461577) (xy -0.001386 0.459956) (xy -0.000726 0.459319) (xy 0.001236 0.458032) (xy 0.00219 0.457894)
			(xy 0.004469 0.457094) (xy 0.007501 0.455116) (xy 0.008134 0.454605) (xy 0.011172 0.45246) (xy 0.013693 0.451356)
			(xy 0.014055 0.451315) (xy 0.016318 0.450515) (xy 0.019341 0.448539) (xy 0.019976 0.448026) (xy 0.023169 0.445866)
			(xy 0.026013 0.44477) (xy 0.026416 0.444736) (xy 0.028499 0.444171) (xy 0.028947 0.443432) (xy 0.030008 0.442155)
			(xy 0.032774 0.440123) (xy 0.036191 0.438039) (xy 0.040189 0.435571) (xy 0.043265 0.433284) (xy 0.044577 0.43191)
			(xy 0.046392 0.430151) (xy 0.049677 0.428039) (xy 0.051472 0.427106) (xy 0.055227 0.424836) (xy 0.058028 0.422314)
			(xy 0.058693 0.421332) (xy 0.061165 0.417496) (xy 0.064424 0.413936) (xy 0.067615 0.41154) (xy 0.068498 0.411159)
			(xy 0.07062 0.409404) (xy 0.071532 0.407477) (xy 0.073003 0.404919) (xy 0.075843 0.401927) (xy 0.077255 0.400769)
			(xy 0.081184 0.397068) (xy 0.085372 0.391979) (xy 0.089034 0.38653) (xy 0.090932 0.382894) (xy 0.092275 0.38085)
			(xy 0.094788 0.377757) (xy 0.096662 0.375657) (xy 0.100017 0.371631) (xy 0.102964 0.367424) (xy 0.103961 0.365701)
			(xy 0.106054 0.362211) (xy 0.108117 0.359602) (xy 0.108456 0.35929) (xy 0.110172 0.357209) (xy 0.110527 0.356088)
			(xy 0.111313 0.354151) (xy 0.113229 0.351397) (xy 0.113488 0.351083) (xy 0.116339 0.347371) (xy 0.118712 0.343847)
			(xy 0.12071 0.340614) (xy 0.122273 0.338157) (xy 0.123552 0.33589) (xy 0.125426 0.332217) (xy 0.126692 0.329605)
			(xy 0.130526 0.321701) (xy 0.133906 0.31507) (xy 0.136666 0.310019) (xy 0.138641 0.306853) (xy 0.13947 0.305922)
			(xy 0.140511 0.304097) (xy 0.140789 0.302057) (xy 0.141595 0.298932) (xy 0.142763 0.297368) (xy 0.14443 0.295213)
			(xy 0.144736 0.294078) (xy 0.145658 0.291918) (xy 0.14671 0.290789) (xy 0.148352 0.288181) (xy 0.148689 0.286352)
			(xy 0.149187 0.283662) (xy 0.150477 0.279445) (xy 0.152256 0.274486) (xy 0.154226 0.269571) (xy 0.156083 0.265486)
			(xy 0.157529 0.263016) (xy 0.157693 0.262832) (xy 0.159071 0.260282) (xy 0.159217 0.259276) (xy 0.159614 0.25731)
			(xy 0.160695 0.25339) (xy 0.162302 0.248053) (xy 0.164278 0.241839) (xy 0.164621 0.240789) (xy 0.166686 0.234475)
			(xy 0.168278 0.229491) (xy 0.169564 0.225221) (xy 0.17071 0.221049) (xy 0.171881 0.216359) (xy 0.173245 0.210536)
			(xy 0.174967 0.202964) (xy 0.175638 0.2) (xy 0.17765 0.191029) (xy 0.179176 0.18403) (xy 0.180328 0.178415)
			(xy 0.181222 0.173593) (xy 0.181973 0.168976) (xy 0.182695 0.163974) (xy 0.182807 0.163157) (xy 0.183649 0.156767)
			(xy 0.184319 0.150966) (xy 0.184838 0.145308) (xy 0.185231 0.139348) (xy 0.185519 0.132638) (xy 0.185725 0.124734)
			(xy 0.185874 0.11519) (xy 0.185986 0.103558) (xy 0.186008 0.100657) (xy 0.186097 0.091036) (xy 0.186211 0.082258)
			(xy 0.186344 0.074673) (xy 0.186487 0.06863) (xy 0.186634 0.064477) (xy 0.186777 0.062563) (xy 0.186794 0.0625)
			(xy 0.186782 0.060496) (xy 0.186125 0.057101) (xy 0.18581 0.055921) (xy 0.184486 0.049813) (xy 0.183258 0.041188)
			(xy 0.182153 0.030263) (xy 0.181745 0.026747) (xy 0.18104 0.021772) (xy 0.18015 0.016023) (xy 0.179186 0.010181)
			(xy 0.178263 0.00493) (xy 0.177491 0.000953) (xy 0.177002 -0.001022) (xy 0.176498 -0.002864) (xy 0.175549 -0.006758)
			(xy 0.17428 -0.012184) (xy 0.172813 -0.018622) (xy 0.172352 -0.020676) (xy 0.170797 -0.027323) (xy 0.169312 -0.03311)
			(xy 0.168041 -0.037516) (xy 0.167128 -0.040022) (xy 0.166947 -0.040323) (xy 0.165953 -0.042679) (xy 0.165306 -0.046311)
			(xy 0.165254 -0.046984) (xy 0.164677 -0.051279) (xy 0.163684 -0.055018) (xy 0.163587 -0.055264) (xy 0.161645 -0.060865)
			(xy 0.161244 -0.064775) (xy 0.162351 -0.067409) (xy 0.162592 -0.067668) (xy 0.164423 -0.069216) (xy 0.166153 -0.069499)
		)
		(stroke
			(width 0)
			(type solid)
		)
		(fill solid)
		(layer "F.SilkS")
		(uuid "cce70f0d-67ea-4630-9f8b-a628ac141793")
	)
	(fp_poly
		(pts
			(xy 0.54096 -0.467638) (xy 0.545431 -0.466558) (xy 0.547759 -0.465211) (xy 0.55039 -0.463428) (xy 0.552414 -0.462569)
			(xy 0.555326 -0.460624) (xy 0.558257 -0.457137) (xy 0.56058 -0.453067) (xy 0.561667 -0.449373) (xy 0.561654 -0.448444)
			(xy 0.562097 -0.445118) (xy 0.56352 -0.442128) (xy 0.565358 -0.438471) (xy 0.56568 -0.43534) (xy 0.564661 -0.433669)
			(xy 0.563909 -0.43207) (xy 0.563178 -0.428701) (xy 0.562799 -0.425858) (xy 0.562161 -0.421356) (xy 0.561334 -0.417646)
			(xy 0.560845 -0.41628) (xy 0.558199 -0.410687) (xy 0.555516 -0.404618) (xy 0.553302 -0.399229) (xy 0.552605 -0.397369)
			(xy 0.550787 -0.392767) (xy 0.547837 -0.385983) (xy 0.543727 -0.37696) (xy 0.539963 -0.368887) (xy 0.537861 -0.364843)
			(xy 0.535855 -0.361679) (xy 0.534838 -0.360502) (xy 0.533169 -0.35797) (xy 0.532894 -0.356545) (xy 0.532272 -0.354426)
			(xy 0.530657 -0.350789) (xy 0.52843 -0.346359) (xy 0.525968 -0.341865) (xy 0.523651 -0.338033) (xy 0.522138 -0.33591)
			(xy 0.520918 -0.334019) (xy 0.518913 -0.330494) (xy 0.516525 -0.326047) (xy 0.516179 -0.325383) (xy 0.513452 -0.320465)
			(xy 0.510253 -0.31519) (xy 0.506975 -0.310156) (xy 0.504016 -0.305962) (xy 0.501771 -0.303207) (xy 0.501117 -0.302609)
			(xy 0.50011 -0.301189) (xy 0.498276 -0.298028) (xy 0.495967 -0.293739) (xy 0.49534 -0.292529) (xy 0.492249 -0.287138)
			(xy 0.48872 -0.2819) (xy 0.485496 -0.277918) (xy 0.485384 -0.2778) (xy 0.482563 -0.274601) (xy 0.480702 -0.271987)
			(xy 0.480263 -0.27089) (xy 0.479532 -0.268751) (xy 0.477625 -0.265202) (xy 0.474969 -0.26092) (xy 0.471989 -0.256581)
			(xy 0.469112 -0.252862) (xy 0.468339 -0.251974) (xy 0.465751 -0.248597) (xy 0.463981 -0.245358) (xy 0.463811 -0.244875)
			(xy 0.46239 -0.242131) (xy 0.45979 -0.238536) (xy 0.457892 -0.236322) (xy 0.454603 -0.232311) (xy 0.451802 -0.228158)
			(xy 0.450815 -0.226316) (xy 0.449002 -0.223024) (xy 0.445994 -0.218251) (xy 0.442206 -0.212599) (xy 0.438054 -0.20667)
			(xy 0.433952 -0.201066) (xy 0.430315 -0.196387) (xy 0.429459 -0.195351) (xy 0.426095 -0.191309) (xy 0.422502 -0.186925)
			(xy 0.42171 -0.185949) (xy 0.418673 -0.182343) (xy 0.415794 -0.179167) (xy 0.415002 -0.178361) (xy 0.413134 -0.175665)
			(xy 0.413041 -0.17344) (xy 0.414716 -0.172384) (xy 0.41505 -0.172369) (xy 0.416972 -0.171412) (xy 0.420176 -0.168796)
			(xy 0.424284 -0.164909) (xy 0.428918 -0.160134) (xy 0.433702 -0.154858) (xy 0.438258 -0.149466) (xy 0.441372 -0.145479)
			(xy 0.44426 -0.141514) (xy 0.447327 -0.137141) (xy 0.45019 -0.132929) (xy 0.452468 -0.129444) (xy 0.453776 -0.127255)
			(xy 0.453947 -0.126831) (xy 0.454651 -0.125547) (xy 0.456443 -0.122879) (xy 0.457712 -0.121095) (xy 0.460423 -0.11694)
			(xy 0.462693 -0.11277) (xy 0.46323 -0.111567) (xy 0.464663 -0.108483) (xy 0.465862 -0.10664) (xy 0.465974 -0.106544)
			(xy 0.467002 -0.105069) (xy 0.468869 -0.101717) (xy 0.471324 -0.097009) (xy 0.474112 -0.091461) (xy 0.476981 -0.085593)
			(xy 0.479678 -0.079922) (xy 0.48195 -0.074966) (xy 0.483543 -0.071245) (xy 0.484205 -0.069276) (xy 0.48421 -0.0692)
			(xy 0.484931 -0.066984) (xy 0.485425 -0.06651) (xy 0.486517 -0.06481) (xy 0.487512 -0.061711) (xy 0.487559 -0.061499)
			(xy 0.488783 -0.057492) (xy 0.490642 -0.052997) (xy 0.491074 -0.052112) (xy 0.492824 -0.047842) (xy 0.493897 -0.043702)
			(xy 0.493995 -0.042901) (xy 0.494789 -0.037362) (xy 0.496192 -0.031413) (xy 0.497937 -0.025975) (xy 0.499759 -0.021969)
			(xy 0.500265 -0.021205) (xy 0.502001 -0.018232) (xy 0.50265 -0.015941) (xy 0.503084 -0.013472) (xy 0.504156 -0.009699)
			(xy 0.504762 -0.007895) (xy 0.506125 -0.003413) (xy 0.507574 0.002315) (xy 0.508631 0.007236) (xy 0.509903 0.01376)
			(xy 0.51133 0.02098) (xy 0.512266 0.025657) (xy 0.513215 0.030519) (xy 0.513937 0.034516) (xy 0.514282 0.036806)
			(xy 0.514285 0.036842) (xy 0.514546 0.03908) (xy 0.515075 0.043067) (xy 0.515759 0.047945) (xy 0.515771 0.048026)
			(xy 0.517605 0.063509) (xy 0.518979 0.080823) (xy 0.519873 0.099205) (xy 0.520268 0.117893) (xy 0.520146 0.136123)
			(xy 0.519488 0.153133) (xy 0.518646 0.164473) (xy 0.5173 0.176487) (xy 0.515449 0.189524) (xy 0.513265 0.202524)
			(xy 0.510919 0.214425) (xy 0.50987 0.219078) (xy 0.508523 0.225027) (xy 0.507161 0.23143) (xy 0.506544 0.234516)
			(xy 0.50556 0.238713) (xy 0.504523 0.241765) (xy 0.503858 0.242817) (xy 0.502973 0.244554) (xy 0.502631 0.247427)
			(xy 0.502204 0.250249) (xy 0.501052 0.254831) (xy 0.499366 0.260465) (xy 0.497926 0.264783) (xy 0.495837 0.270913)
			(xy 0.493961 0.276657) (xy 0.492551 0.281232) (xy 0.491988 0.283268) (xy 0.490871 0.287139) (xy 0.489726 0.290181)
			(xy 0.489567 0.290504) (xy 0.487038 0.295872) (xy 0.484783 0.301614) (xy 0.483452 0.305921) (xy 0.482151 0.309824)
			(xy 0.480263 0.314066) (xy 0.480061 0.314454) (xy 0.478493 0.31777) (xy 0.477668 0.320211) (xy 0.477631 0.320543)
			(xy 0.476716 0.322569) (xy 0.475657 0.323684) (xy 0.473969 0.32628) (xy 0.473684 0.327789) (xy 0.473081 0.33033)
			(xy 0.471411 0.33475) (xy 0.468885 0.340624) (xy 0.465713 0.347529) (xy 0.462106 0.355041) (xy 0.458272 0.362737)
			(xy 0.454422 0.370193) (xy 0.450767 0.376986) (xy 0.447516 0.382692) (xy 0.444879 0.386888) (xy 0.443408 0.388815)
			(xy 0.440778 0.392217) (xy 0.438971 0.395534) (xy 0.438792 0.396052) (xy 0.437568 0.399147) (xy 0.435569 0.403249)
			(xy 0.434475 0.405263) (xy 0.432137 0.409069) (xy 0.42864 0.414349) (xy 0.424334 0.420616) (xy 0.419565 0.427385)
			(xy 0.414683 0.434168) (xy 0.410035 0.44048) (xy 0.405969 0.445836) (xy 0.402833 0.449749) (xy 0.401665 0.451074)
			(xy 0.399144 0.453868) (xy 0.397598 0.455814) (xy 0.397368 0.456261) (xy 0.396544 0.457713) (xy 0.394309 0.460696)
			(xy 0.39102 0.464789) (xy 0.387032 0.469574) (xy 0.382702 0.474631) (xy 0.378386 0.47954) (xy 0.37444 0.483882)
			(xy 0.371221 0.487237) (xy 0.370367 0.488067) (xy 0.366905 0.491465) (xy 0.364352 0.494208) (xy 0.363184 0.495778)
			(xy 0.363157 0.495889) (xy 0.362249 0.497154) (xy 0.359805 0.499749) (xy 0.356243 0.503241) (xy 0.353618 0.505705)
			(xy 0.346044 0.512779) (xy 0.340403 0.518232) (xy 0.336618 0.52214) (xy 0.334614 0.524581) (xy 0.334229 0.525434)
			(xy 0.334898 0.527019) (xy 0.336674 0.530167) (xy 0.339179 0.534268) (xy 0.342036 0.538713) (xy 0.344867 0.542893)
			(xy 0.346186 0.544736) (xy 0.347971 0.547508) (xy 0.350437 0.551768) (xy 0.353086 0.556651) (xy 0.353392 0.557236)
			(xy 0.355785 0.561768) (xy 0.35779 0.565438) (xy 0.359039 0.567574) (xy 0.359168 0.567763) (xy 0.360154 0.569683)
			(xy 0.361598 0.573161) (xy 0.362538 0.575657) (xy 0.364209 0.579802) (xy 0.36584 0.583103) (xy 0.366567 0.58421)
			(xy 0.36808 0.586914) (xy 0.369178 0.590131) (xy 0.37048 0.594034) (xy 0.372368 0.598276) (xy 0.37257 0.598664)
			(xy 0.374153 0.602163) (xy 0.374969 0.604966) (xy 0.375 0.605353) (xy 0.375472 0.60771) (xy 0.375847 0.608303)
			(xy 0.376805 0.61011) (xy 0.378288 0.613879) (xy 0.380115 0.61904) (xy 0.382102 0.625022) (xy 0.384068 0.631253)
			(xy 0.38583 0.637161) (xy 0.387207 0.642175) (xy 0.388015 0.645723) (xy 0.388152 0.646878) (xy 0.388742 0.650305)
			(xy 0.390096 0.652602) (xy 0.391608 0.654925) (xy 0.392758 0.658494) (xy 0.392856 0.659013) (xy 0.393816 0.663286)
			(xy 0.395014 0.667036) (xy 0.395069 0.66717) (xy 0.396461 0.670524) (xy 0.399486 0.667499) (xy 0.402421 0.665358)
			(xy 0.405203 0.664473) (xy 0.407373 0.663926) (xy 0.407894 0.66314) (xy 0.409013 0.661895) (xy 0.411862 0.660156)
			(xy 0.415681 0.658276) (xy 0.419709 0.656609) (xy 0.423185 0.655507) (xy 0.424834 0.655263) (xy 0.427378 0.654653)
			(xy 0.431227 0.653077) (xy 0.434458 0.651454) (xy 0.441917 0.648056) (xy 0.45016 0.645406) (xy 0.458541 0.643615)
			(xy 0.466416 0.642794) (xy 0.473142 0.643054) (xy 0.477201 0.644089) (xy 0.481087 0.645399) (xy 0.484457 0.64604)
			(xy 0.484817 0.646052) (xy 0.488048 0.64699) (xy 0.492529 0.649596) (xy 0.497777 0.653557) (xy 0.501625 0.656946)
			(xy 0.50421 0.659829) (xy 0.505088 0.662622) (xy 0.50493 0.665498) (xy 0.505085 0.670436) (xy 0.506235 0.674195)
			(xy 0.50743 0.677745) (xy 0.506823 0.680902) (xy 0.506707 0.681165) (xy 0.50559 0.684415) (xy 0.505263 0.686504)
			(xy 0.504445 0.689102) (xy 0.502327 0.692863) (xy 0.499412 0.697029) (xy 0.496203 0.700847) (xy 0.494736 0.702306)
			(xy 0.49199 0.704304) (xy 0.487734 0.706812) (xy 0.482574 0.709539) (xy 0.477114 0.712194) (xy 0.471958 0.714487)
			(xy 0.46771 0.716128) (xy 0.464975 0.716825) (xy 0.464573 0.716813) (xy 0.462901 0.717274) (xy 0.459266 0.71875)
			(xy 0.454059 0.721072) (xy 0.447666 0.724073) (xy 0.4461 0.724826) (xy 0.442179 0.726494) (xy 0.438909 0.727498)
			(xy 0.43791 0.727631) (xy 0.43591 0.728241) (xy 0.435526 0.728966) (xy 0.434432 0.7306) (xy 0.431749 0.732567)
			(xy 0.428379 0.734344) (xy 0.425221 0.735411) (xy 0.424224 0.735521) (xy 0.421476 0.736716) (xy 0.419976 0.738815)
			(xy 0.418469 0.741233) (xy 0.417227 0.742105) (xy 0.415322 0.74294) (xy 0.414238 0.74384) (xy 0.412254 0.745519)
			(xy 0.409075 0.747919) (xy 0.405378 0.750565) (xy 0.401837 0.752985) (xy 0.399126 0.754705) (xy 0.397966 0.755263)
			(xy 0.396495 0.755806) (xy 0.393357 0.757229) (xy 0.389264 0.75921) (xy 0.382173 0.762081) (xy 0.375979 0.762961)
			(xy 0.369885 0.761875) (xy 0.365131 0.759897) (xy 0.361217 0.758094) (xy 0.358154 0.756901) (xy 0.357003 0.75662)
			(xy 0.355198 0.755641) (xy 0.352889 0.753313) (xy 0.352688 0.753062) (xy 0.349859 0.750133) (xy 0.347028 0.748103)
			(xy 0.344168 0.745712) (xy 0.341478 0.741941) (xy 0.339489 0.737751) (xy 0.33873 0.734101) (xy 0.338826 0.733239)
			(xy 0.338865 0.729854) (xy 0.33828 0.727976) (xy 0.337053 0.724999) (xy 0.335494 0.720311) (xy 0.333849 0.714769)
			(xy 0.332367 0.709229) (xy 0.331293 0.704547) (xy 0.330964 0.702631) (xy 0.330211 0.698144) (xy 0.329185 0.693282)
			(xy 0.32906 0.692763) (xy 0.326375 0.68173) (xy 0.32432 0.673056) (xy 0.322852 0.666557) (xy 0.321933 0.662046)
			(xy 0.321521 0.659338) (xy 0.321578 0.658247) (xy 0.321588 0.658235) (xy 0.321581 0.656695) (xy 0.320818 0.654825)
			(xy 0.319715 0.651899) (xy 0.318403 0.647166) (xy 0.317052 0.641419) (xy 0.315834 0.635456) (xy 0.314922 0.630071)
			(xy 0.314488 0.626059) (xy 0.314473 0.625473) (xy 0.314168 0.622336) (xy 0.313428 0.620566) (xy 0.313379 0.620531)
			(xy 0.31265 0.618972) (xy 0.311677 0.61537) (xy 0.31058 0.61029) (xy 0.309481 0.604294) (xy 0.308501 0.597946)
			(xy 0.308452 0.597591) (xy 0.307379 0.590178) (xy 0.306353 0.583845) (xy 0.30546 0.579091) (xy 0.304789 0.576415)
			(xy 0.304751 0.576315) (xy 0.304201 0.573945) (xy 0.303639 0.569995) (xy 0.303345 0.567105) (xy 0.302783 0.562047)
			(xy 0.302053 0.557301) (xy 0.301668 0.555416) (xy 0.30085 0.552592) (xy 0.300018 0.551993) (xy 0.298829 0.553114)
			(xy 0.296604 0.554879) (xy 0.295286 0.555263) (xy 0.293217 0.556143) (xy 0.290626 0.558273) (xy 0.290513 0.558389)
			(xy 0.287951 0.560677) (xy 0.284305 0.5635) (xy 0.280236 0.566401) (xy 0.276403 0.568924) (xy 0.273466 0.570611)
			(xy 0.272238 0.571052) (xy 0.270716 0.571755) (xy 0.267584 0.573642) (xy 0.26338 0.576379) (xy 0.260872 0.578081)
			(xy 0.255221 0.581757) (xy 0.249242 0.585305) (xy 0.244005 0.588098) (xy 0.242798 0.588669) (xy 0.238392 0.590788)
			(xy 0.234771 0.592751) (xy 0.23293 0.593974) (xy 0.230667 0.59541) (xy 0.226576 0.59753) (xy 0.221193 0.600099)
			(xy 0.215056 0.602883) (xy 0.2087 0.605647) (xy 0.202663 0.608157) (xy 0.197482 0.61018) (xy 0.193693 0.611479)
			(xy 0.192004 0.611842) (xy 0.188775 0.612461) (xy 0.184811 0.613996) (xy 0.183866 0.614473) (xy 0.180313 0.616133)
			(xy 0.177474 0.617045) (xy 0.176932 0.617105) (xy 0.174345 0.617793) (xy 0.171902 0.619074) (xy 0.168711 0.620594)
			(xy 0.164415 0.621986) (xy 0.163067 0.622312) (xy 0.159165 0.623226) (xy 0.153662 0.624599) (xy 0.147494 0.626194)
			(xy 0.144752 0.626922) (xy 0.138883 0.628382) (xy 0.13353 0.629518) (xy 0.129492 0.630169) (xy 0.128184 0.630263)
			(xy 0.124451 0.630654) (xy 0.119728 0.631645) (xy 0.117643 0.632222) (xy 0.112951 0.633398) (xy 0.108557 0.634105)
			(xy 0.10706 0.634196) (xy 0.104214 0.634468) (xy 0.103221 0.635781) (xy 0.103244 0.638113) (xy 0.103905 0.64152)
			(xy 0.104904 0.643705) (xy 0.105874 0.645839) (xy 0.107075 0.649761) (xy 0.108346 0.654741) (xy 0.109525 0.660052)
			(xy 0.110449 0.664967) (xy 0.110955 0.668757) (xy 0.110909 0.670635) (xy 0.111092 0.673028) (xy 0.111866 0.674371)
			(xy 0.112522 0.676445) (xy 0.11308 0.680625) (xy 0.113529 0.686385) (xy 0.113858 0.693201) (xy 0.114059 0.700548)
			(xy 0.114121 0.707901) (xy 0.114035 0.714736) (xy 0.11379 0.720527) (xy 0.113376 0.724751) (xy 0.112858 0.726765)
			(xy 0.11199 0.729745) (xy 0.111602 0.734041) (xy 0.111635 0.736184) (xy 0.111506 0.740993) (xy 0.110814 0.746938)
			(xy 0.10987 0.751973) (xy 0.108727 0.75708) (xy 0.107778 0.76158) (xy 0.107232 0.764473) (xy 0.106696 0.767479)
			(xy 0.105818 0.772) (xy 0.104941 0.776315) (xy 0.103166 0.784868) (xy 0.129458 0.78458) (xy 0.13943 0.784542)
			(xy 0.147386 0.784662) (xy 0.153155 0.784935) (xy 0.156566 0.785352) (xy 0.157396 0.785658) (xy 0.159842 0.786289)
			(xy 0.161787 0.785555) (xy 0.165144 0.784695) (xy 0.169776 0.784693) (xy 0.175037 0.785392) (xy 0.180282 0.786639)
			(xy 0.184866 0.788278) (xy 0.188144 0.790154) (xy 0.18947 0.792112) (xy 0.189473 0.792212) (xy 0.190604 0.793108)
			(xy 0.192893 0.793421) (xy 0.196448 0.794572) (xy 0.200353 0.797619) (xy 0.204153 0.80195) (xy 0.207393 0.806956)
			(xy 0.20962 0.812026) (xy 0.21038 0.81655) (xy 0.210361 0.816908) (xy 0.21055 0.821369) (xy 0.211481 0.826272)
			(xy 0.211752 0.827192) (xy 0.212731 0.830862) (xy 0.21259 0.833527) (xy 0.211163 0.836573) (xy 0.210488 0.837718)
			(xy 0.20683 0.843203) (xy 0.203535 0.84694) (xy 0.200887 0.848621) (xy 0.200402 0.848684) (xy 0.198295 0.849347)
			(xy 0.195003 0.851026) (xy 0.193341 0.852024) (xy 0.189333 0.854074) (xy 0.184767 0.855264) (xy 0.17862 0.855858)
			(xy 0.178564 0.855861) (xy 0.173469 0.855971) (xy 0.169138 0.855787) (xy 0.166487 0.855348) (xy 0.166447 0.855333)
			(xy 0.164594 0.85494) (xy 0.160954 0.85454) (xy 0.155392 0.854125) (xy 0.147769 0.853687) (xy 0.137948 0.85322)
			(xy 0.125793 0.852714) (xy 0.111167 0.852163) (xy 0.108552 0.852069) (xy 0.102245 0.851726) (xy 0.096573 0.851207)
			(xy 0.092263 0.850591) (xy 0.090374 0.850117) (xy 0.086953 0.849307) (xy 0.082203 0.848788) (xy 0.079113 0.848684)
			(xy 0.073727 0.8483) (xy 0.069855 0.847251) (xy 0.069001 0.846752) (xy 0.065939 0.845409) (xy 0.061988 0.844783)
			(xy 0.061742 0.844778) (xy 0.056868 0.843704) (xy 0.053985 0.841487) (xy 0.051652 0.839473) (xy 0.049987 0.838847)
			(xy 0.049869 0.838896) (xy 0.047908 0.839101) (xy 0.045451 0.838712) (xy 0.042732 0.837064) (xy 0.039616 0.833845)
			(xy 0.036742 0.829903) (xy 0.034746 0.826084) (xy 0.03421 0.823779) (xy 0.033257 0.820932) (xy 0.032236 0.819736)
			(xy 0.030712 0.816937) (xy 0.030179 0.812342) (xy 0.03055 0.806558) (xy 0.031738 0.800189) (xy 0.033657 0.793843)
			(xy 0.036218 0.788123) (xy 0.036962 0.786842) (xy 0.03799 0.785034) (xy 0.038807 0.783066) (xy 0.03972 0.780088)
			(xy 0.040749 0.776315) (xy 0.042145 0.771693) (xy 0.043681 0.767424) (xy 0.044092 0.766447) (xy 0.045526 0.762357)
			(xy 0.046636 0.757757) (xy 0.046692 0.757433) (xy 0.047761 0.752803) (xy 0.049207 0.748455) (xy 0.049304 0.748222)
			(xy 0.050808 0.74419) (xy 0.0523 0.73944) (xy 0.052583 0.738417) (xy 0.053876 0.734822) (xy 0.055347 0.732458)
			(xy 0.055875 0.732072) (xy 0.057025 0.730567) (xy 0.056672 0.727865) (xy 0.056469 0.72415) (xy 0.057276 0.718615)
			(xy 0.058094 0.715131) (xy 0.059477 0.709067) (xy 0.06063 0.702652) (xy 0.061207 0.698172) (xy 0.061735 0.693743)
			(xy 0.062369 0.690324) (xy 0.062825 0.688961) (xy 0.063574 0.68671) (xy 0.064426 0.68254) (xy 0.065269 0.677153)
			(xy 0.065987 0.671251) (xy 0.066362 0.667105) (xy 0.066797 0.662421) (xy 0.067327 0.658123) (xy 0.067465 0.657236)
			(xy 0.068645 0.649645) (xy 0.069242 0.644227) (xy 0.069254 0.640587) (xy 0.068676 0.638331) (xy 0.067506 0.637064)
			(xy 0.067306 0.636949) (xy 0.064467 0.6363) (xy 0.060999 0.637518) (xy 0.060973 0.637532) (xy 0.05826 0.638238)
			(xy 0.053423 0.638789) (xy 0.046962 0.639184) (xy 0.039382 0.639425) (xy 0.031183 0.639509) (xy 0.022869 0.639438)
			(xy 0.014941 0.63921) (xy 0.007901 0.638825) (xy 0.002253 0.638283) (xy -0.001503 0.637584) (xy -0.001542 0.637573)
			(xy -0.006035 0.636628) (xy -0.010232 0.636368) (xy -0.011185 0.636453) (xy -0.014347 0.636395) (xy -0.019085 0.635707)
			(xy -0.024456 0.63453) (xy -0.025305 0.634308) (xy -0.030463 0.633009) (xy -0.034894 0.632046) (xy -0.037777 0.631592)
			(xy -0.038094 0.631578) (xy -0.040903 0.630951) (xy -0.044557 0.629396) (xy -0.045395 0.628947) (xy -0.049292 0.627225)
			(xy -0.05291 0.626345) (xy -0.053469 0.626315) (xy -0.057895 0.625825) (xy -0.063658 0.62455) (xy -0.069697 0.622788)
			(xy -0.07495 0.620836) (xy -0.077378 0.61964) (xy -0.080868 0.61796) (xy -0.083788 0.617125) (xy -0.084126 0.617105)
			(xy -0.087264 0.616505) (xy -0.091507 0.615015) (xy -0.095702 0.613099) (xy -0.098685 0.611233) (xy -0.101043 0.60981)
			(xy -0.104807 0.608072) (xy -0.106952 0.607221) (xy -0.110757 0.605598) (xy -0.113475 0.604068) (xy -0.114189 0.603422)
			(xy -0.115882 0.601985) (xy -0.119013 0.600095) (xy -0.120395 0.599382) (xy -0.126903 0.595621) (xy -0.133675 0.590512)
			(xy -0.139997 0.584868) (xy -0.146199 0.578319) (xy -0.150064 0.572592) (xy -0.151567 0.567744) (xy -0.150686 0.563835)
			(xy -0.149014 0.561971) (xy -0.146371 0.559291) (xy -0.144082 0.556234) (xy -0.141392 0.553387) (xy -0.138326 0.551776)
			(xy -0.135244 0.550831) (xy -0.133553 0.550036) (xy -0.131472 0.549109) (xy -0.127589 0.54777) (xy -0.122658 0.546245)
			(xy -0.11743 0.544756) (xy -0.112658 0.543527) (xy -0.109211 0.542801) (xy -0.10526 0.542585) (xy -0.098728 0.54281)
			(xy -0.089629 0.543474) (xy -0.077977 0.544577) (xy -0.071711 0.545237) (xy -0.064993 0.546089) (xy -0.056904 0.547298)
			(xy -0.048646 0.548675) (xy -0.041423 0.550026) (xy -0.04079 0.550156) (xy -0.035374 0.551116) (xy -0.029863 0.551855)
			(xy -0.027632 0.55206) (xy -0.022248 0.552497) (xy -0.016646 0.553041) (xy -0.01579 0.553134) (xy -0.003753 0.554244)
			(xy 0.007959 0.554788) (xy 0.020114 0.554767) (xy 0.033482 0.554186) (xy 0.045058 0.55336) (xy 0.053762 0.552624)
			(xy 0.062026 0.551863) (xy 0.069323 0.55113) (xy 0.075127 0.550478) (xy 0.078912 0.54996) (xy 0.079268 0.549898)
			(xy 0.084531 0.549) (xy 0.090743 0.548024) (xy 0.094736 0.547441) (xy 0.100804 0.546471) (xy 0.107689 0.545197)
			(xy 0.1125 0.544197) (xy 0.117578 0.543162) (xy 0.122025 0.542418) (xy 0.124868 0.542128) (xy 0.127783 0.541546)
			(xy 0.131921 0.540074) (xy 0.134909 0.538737) (xy 0.140261 0.536625) (xy 0.14648 0.534878) (xy 0.150005 0.534209)
			(xy 0.155909 0.532941) (xy 0.160091 0.531137) (xy 0.161017 0.530428) (xy 0.164073 0.528256) (xy 0.168424 0.525936)
			(xy 0.173097 0.523907) (xy 0.177121 0.522611) (xy 0.178822 0.522368) (xy 0.181173 0.52161) (xy 0.184537 0.519687)
			(xy 0.186278 0.518457) (xy 0.18974 0.516146) (xy 0.192654 0.514723) (xy 0.193602 0.51451) (xy 0.195784 0.513779)
			(xy 0.199249 0.511919) (xy 0.202452 0.509868) (xy 0.206132 0.507444) (xy 0.208964 0.505776) (xy 0.210185 0.505263)
			(xy 0.212307 0.504578) (xy 0.215698 0.502857) (xy 0.219491 0.500601) (xy 0.222818 0.498311) (xy 0.224149 0.497204)
			(xy 0.226576 0.495237) (xy 0.230473 0.492398) (xy 0.235092 0.489227) (xy 0.236184 0.488503) (xy 0.241484 0.484876)
			(xy 0.246821 0.480995) (xy 0.251108 0.47765) (xy 0.2514 0.477407) (xy 0.254862 0.474702) (xy 0.257659 0.472873)
			(xy 0.258919 0.472368) (xy 0.260675 0.471335) (xy 0.261834 0.46975) (xy 0.264017 0.467216) (xy 0.266815 0.465234)
			(xy 0.268541 0.464149) (xy 0.270838 0.462371) (xy 0.273901 0.459718) (xy 0.277924 0.456008) (xy 0.283103 0.45106)
			(xy 0.289633 0.444691) (xy 0.297708 0.43672) (xy 0.302631 0.431833) (xy 0.309974 0.424482) (xy 0.316152 0.418144)
			(xy 0.321557 0.41236) (xy 0.326583 0.406676) (xy 0.331622 0.400635) (xy 0.337068 0.39378) (xy 0.343312 0.385657)
			(xy 0.349872 0.376973) (xy 0.354663 0.370496) (xy 0.358752 0.36476) (xy 0.361905 0.360109) (xy 0.363886 0.356891)
			(xy 0.364473 0.355524) (xy 0.365284 0.353842) (xy 0.366849 0.351892) (xy 0.368823 0.349224) (xy 0.37118 0.345299)
			(xy 0.372352 0.343079) (xy 0.374611 0.339044) (xy 0.376876 0.335755) (xy 0.377871 0.334651) (xy 0.379751 0.332152)
			(xy 0.380271 0.330388) (xy 0.380985 0.327939) (xy 0.38272 0.324732) (xy 0.38298 0.324342) (xy 0.384747 0.321441)
			(xy 0.387254 0.316924) (xy 0.390091 0.311538) (xy 0.391607 0.308552) (xy 0.394496 0.303084) (xy 0.39736 0.298174)
			(xy 0.399769 0.29454) (xy 0.40074 0.293349) (xy 0.403483 0.288718) (xy 0.403947 0.285418) (xy 0.4045 0.281427)
			(xy 0.405835 0.278153) (xy 0.405868 0.278105) (xy 0.407418 0.275346) (xy 0.409331 0.271209) (xy 0.410534 0.268273)
			(xy 0.413227 0.261543) (xy 0.415372 0.256808) (xy 0.417235 0.253558) (xy 0.419081 0.251284) (xy 0.419725 0.250668)
			(xy 0.42174 0.247727) (xy 0.421679 0.244595) (xy 0.421788 0.242109) (xy 0.42259 0.237789) (xy 0.423901 0.232285)
			(xy 0.425539 0.226246) (xy 0.427323 0.220319) (xy 0.429069 0.215155) (xy 0.430596 0.211402) (xy 0.431392 0.210017)
			(xy 0.432201 0.207951) (xy 0.433022 0.204248) (xy 0.433438 0.201529) (xy 0.434159 0.197124) (xy 0.435021 0.193573)
			(xy 0.435499 0.192319) (xy 0.436212 0.190137) (xy 0.437186 0.186031) (xy 0.43827 0.180675) (xy 0.438939 0.176973)
			(xy 0.440168 0.17077) (xy 0.441585 0.165002) (xy 0.44297 0.160524) (xy 0.443624 0.158948) (xy 0.445186 0.154669)
			(xy 0.444971 0.151298) (xy 0.444854 0.150966) (xy 0.444335 0.14751) (xy 0.444624 0.142867) (xy 0.444806 0.14177)
			(xy 0.445409 0.137535) (xy 0.44602 0.131591) (xy 0.446576 0.1248) (xy 0.447015 0.118023) (xy 0.447272 0.11212)
			(xy 0.447286 0.107952) (xy 0.447284 0.107894) (xy 0.447196 0.105358) (xy 0.447064 0.100813) (xy 0.446907 0.094881)
			(xy 0.446739 0.088183) (xy 0.446723 0.0875) (xy 0.446023 0.068632) (xy 0.444891 0.052188) (xy 0.443498 0.039473)
			(xy 0.442885 0.034488) (xy 0.442446 0.030137) (xy 0.442292 0.02773) (xy 0.441761 0.023958) (xy 0.440949 0.021151)
			(xy 0.44014 0.018237) (xy 0.439165 0.013596) (xy 0.438136 0.007921) (xy 0.437163 0.001908) (xy 0.436359 -0.003749)
			(xy 0.435832 -0.008355) (xy 0.435696 -0.011216) (xy 0.435725 -0.011518) (xy 0.435302 -0.014244) (xy 0.433927 -0.017106)
			(xy 0.432528 -0.01998) (xy 0.430854 -0.024489) (xy 0.429246 -0.029712) (xy 0.429094 -0.030264) (xy 0.427249 -0.03663)
			(xy 0.425083 -0.043453) (xy 0.42327 -0.048685) (xy 0.421524 -0.053426) (xy 0.420033 -0.057481) (xy 0.419158 -0.059869)
			(xy 0.416133 -0.0679) (xy 0.413679 -0.073868) (xy 0.41254 -0.076316) (xy 0.411112 -0.080004) (xy 0.41003 -0.084148)
			(xy 0.408703 -0.088119) (xy 0.406705 -0.091353) (xy 0.406676 -0.091385) (xy 0.40479 -0.094336) (xy 0.403064 -0.098486)
			(xy 0.402615 -0.09998) (xy 0.400748 -0.104869) (xy 0.398085 -0.109584) (xy 0.397409 -0.110506) (xy 0.394322 -0.114847)
			(xy 0.39139 -0.119596) (xy 0.39095 -0.120395) (xy 0.38578 -0.129515) (xy 0.380056 -0.138725) (xy 0.374224 -0.147357)
			(xy 0.368729 -0.154746) (xy 0.365231 -0.15892) (xy 0.359621 -0.164984) (xy 0.353242 -0.171616) (xy 0.346749 -0.178156)
			(xy 0.340796 -0.183942) (xy 0.336692 -0.187737) (xy 0.333369 -0.190808) (xy 0.331616 -0.193071) (xy 0.331021 -0.195443)
			(xy 0.331172 -0.198845) (xy 0.331265 -0.199833) (xy 0.331761 -0.2038) (xy 0.332607 -0.205902) (xy 0.334321 -0.2069)
			(xy 0.336413 -0.207367) (xy 0.340896 -0.20755) (xy 0.346979 -0.206914) (xy 0.353809 -0.205596) (xy 0.360535 -0.203733)
			(xy 0.361892 -0.203272) (xy 0.365168 -0.202208) (xy 0.36667 -0.202188) (xy 0.367088 -0.203327) (xy 0.367105 -0.204132)
			(xy 0.367711 -0.207291) (xy 0.368937 -0.210324) (xy 0.370566 -0.213734) (xy 0.372473 -0.21813) (xy 0.373127 -0.219737)
			(xy 0.375064 -0.223914) (xy 0.377154 -0.227438) (xy 0.377875 -0.228375) (xy 0.379684 -0.231286) (xy 0.380263 -0.233532)
			(xy 0.381017 -0.236338) (xy 0.383178 -0.240982) (xy 0.386594 -0.247181) (xy 0.391115 -0.25465) (xy 0.394025 -0.259211)
			(xy 0.402402 -0.272066) (xy 0.409465 -0.282783) (xy 0.415285 -0.291463) (xy 0.419931 -0.298206) (xy 0.423472 -0.303113)
			(xy 0.425979 -0.306284) (xy 0.42752 -0.307821) (xy 0.427687 -0.307925) (xy 0.429767 -0.310109) (xy 0.430263 -0.311902)
			(xy 0.430991 -0.31434) (xy 0.432876 -0.317965) (xy 0.434849 -0.321026) (xy 0.440677 -0.32941) (xy 0.445618 -0.336706)
			(xy 0.44947 -0.342608) (xy 0.45203 -0.346809) (xy 0.452585 -0.347824) (xy 0.454965 -0.351593) (xy 0.457519 -0.354787)
			(xy 0.459564 -0.357204) (xy 0.460517 -0.358748) (xy 0.460526 -0.358818) (xy 0.461192 -0.360201) (xy 0.462978 -0.363253)
			(xy 0.465565 -0.367441) (xy 0.467105 -0.369862) (xy 0.469984 -0.374445) (xy 0.472223 -0.37819) (xy 0.473503 -0.380554)
			(xy 0.473684 -0.381053) (xy 0.474415 -0.382598) (xy 0.47624 -0.385317) (xy 0.476973 -0.386302) (xy 0.479045 -0.389313)
			(xy 0.480186 -0.391543) (xy 0.480263 -0.391924) (xy 0.481074 -0.393922) (xy 0.481907 -0.394998) (xy 0.483334 -0.39701)
			(xy 0.485493 -0.400589) (xy 0.487918 -0.40496) (xy 0.492283 -0.413158) (xy 0.488324 -0.413158) (xy 0.485232 -0.413583)
			(xy 0.483497 -0.414564) (xy 0.481716 -0.415372) (xy 0.480501 -0.415153) (xy 0.478275 -0.415084) (xy 0.474364 -0.415609)
			(xy 0.469596 -0.416551) (xy 0.464804 -0.417734) (xy 0.460817 -0.418981) (xy 0.459167 -0.419682) (xy 0.456524 -0.420663)
			(xy 0.452848 -0.421636) (xy 0.452588 -0.421693) (xy 0.446886 -0.423393) (xy 0.439093 -0.426514) (xy 0.432894 -0.429307)
			(xy 0.429899 -0.430891) (xy 0.42584 -0.433266) (xy 0.423355 -0.434806) (xy 0.41897 -0.438279) (xy 0.417185 -0.441456)
			(xy 0.417983 -0.444314) (xy 0.421348 -0.44683) (xy 0.427261 -0.448979) (xy 0.434868 -0.4506) (xy 0.437529 -0.451158)
			(xy 0.441711 -0.452147) (xy 0.445394 -0.453069) (xy 0.452926 -0.454848) (xy 0.461045 -0.456434) (xy 0.470385 -0.457936)
			(xy 0.48158 -0.459463) (xy 0.484343 -0.459813) (xy 0.492976 -0.460918) (xy 0.499551 -0.461834) (xy 0.504628 -0.462655)
			(xy 0.508765 -0.46347) (xy 0.512521 -0.464372) (xy 0.513034 -0.464506) (xy 0.516286 -0.465145) (xy 0.518355 -0.46515)
			(xy 0.518484 -0.465093) (xy 0.52019 -0.465159) (xy 0.523409 -0.466008) (xy 0.525248 -0.466643) (xy 0.52999 -0.467737)
			(xy 0.53552 -0.46805)
		)
		(stroke
			(width 0)
			(type solid)
		)
		(fill solid)
		(layer "F.SilkS")
		(uuid "a02aaea9-c76b-4105-ad38-e83a4bc739fb")
	)
	(fp_poly
		(pts
			(xy 0.027904 -0.964753) (xy 0.029666 -0.963876) (xy 0.032786 -0.961722) (xy 0.034733 -0.959507) (xy 0.034892 -0.959136)
			(xy 0.036359 -0.956916) (xy 0.03913 -0.954189) (xy 0.040183 -0.95334) (xy 0.043005 -0.950642) (xy 0.044602 -0.948057)
			(xy 0.044736 -0.947348) (xy 0.045794 -0.944739) (xy 0.047274 -0.943472) (xy 0.048217 -0.942715) (xy 0.049206 -0.941278)
			(xy 0.050344 -0.938882) (xy 0.051731 -0.935246) (xy 0.05347 -0.930092) (xy 0.055663 -0.92314) (xy 0.058411 -0.91411)
			(xy 0.060439 -0.907345) (xy 0.061794 -0.902483) (xy 0.062768 -0.898367) (xy 0.063157 -0.895863) (xy 0.063157 -0.895814)
			(xy 0.063757 -0.89251) (xy 0.064318 -0.891101) (xy 0.064923 -0.889731) (xy 0.065625 -0.887698) (xy 0.066522 -0.884649)
			(xy 0.067711 -0.880233) (xy 0.06929 -0.874098) (xy 0.071354 -0.86589) (xy 0.072281 -0.862172) (xy 0.07422 -0.854159)
			(xy 0.076122 -0.845892) (xy 0.077867 -0.837928) (xy 0.079338 -0.830825) (xy 0.080414 -0.825138) (xy 0.080979 -0.821425)
			(xy 0.08099 -0.82132) (xy 0.08165 -0.817167) (xy 0.082599 -0.813806) (xy 0.082881 -0.813183) (xy 0.083706 -0.810353)
			(xy 0.084172 -0.806255) (xy 0.08421 -0.80477) (xy 0.084447 -0.801049) (xy 0.085043 -0.798568) (xy 0.085372 -0.798122)
			(xy 0.086228 -0.796331) (xy 0.087167 -0.792041) (xy 0.088164 -0.785383) (xy 0.088932 -0.778948) (xy 0.089297 -0.776487)
			(xy 0.090047 -0.772015) (xy 0.091083 -0.766105) (xy 0.092305 -0.759332) (xy 0.09269 -0.757237) (xy 0.094061 -0.749781)
			(xy 0.095396 -0.742496) (xy 0.096556 -0.736145) (xy 0.0974 -0.73149) (xy 0.097502 -0.730922) (xy 0.098512 -0.725713)
			(xy 0.099876 -0.719234) (xy 0.101321 -0.712768) (xy 0.101519 -0.711917) (xy 0.102779 -0.706055) (xy 0.103793 -0.700462)
			(xy 0.104379 -0.696156) (xy 0.104436 -0.695428) (xy 0.104867 -0.691623) (xy 0.105543 -0.68886) (xy 0.105738 -0.688454)
			(xy 0.106855 -0.685827) (xy 0.108018 -0.681881) (xy 0.109011 -0.677561) (xy 0.109619 -0.673807) (xy 0.109627 -0.671564)
			(xy 0.109608 -0.671509) (xy 0.109917 -0.669328) (xy 0.111056 -0.667703) (xy 0.112769 -0.664983) (xy 0.113157 -0.663215)
			(xy 0.11375 -0.660373) (xy 0.115123 -0.657059) (xy 0.116519 -0.653797) (xy 0.117097 -0.651298) (xy 0.117552 -0.649037)
			(xy 0.118719 -0.645279) (xy 0.119874 -0.642087) (xy 0.121814 -0.636997) (xy 0.123711 -0.631962) (xy 0.124568 -0.629659)
			(xy 0.126252 -0.625427) (xy 0.12794 -0.62166) (xy 0.128217 -0.621106) (xy 0.130025 -0.617322) (xy 0.13154 -0.613816)
			(xy 0.134007 -0.608284) (xy 0.137184 -0.601946) (xy 0.140674 -0.595522) (xy 0.144075 -0.589737) (xy 0.146991 -0.585312)
			(xy 0.148033 -0.583962) (xy 0.150152 -0.581156) (xy 0.151266 -0.579117) (xy 0.151315 -0.578847) (xy 0.152161 -0.577111)
			(xy 0.153947 -0.575) (xy 0.155916 -0.572172) (xy 0.156578 -0.569826) (xy 0.157678 -0.567379) (xy 0.159097 -0.566484)
			(xy 0.161317 -0.565023) (xy 0.164218 -0.56217) (xy 0.165914 -0.560145) (xy 0.171539 -0.553774) (xy 0.178584 -0.547093)
			(xy 0.186296 -0.540729) (xy 0.193919 -0.535308) (xy 0.200135 -0.531727) (xy 0.205555 -0.529236) (xy 0.209804 -0.527808)
			(xy 0.213977 -0.527175) (xy 0.219075 -0.527066) (xy 0.225002 -0.527376) (xy 0.229758 -0.528402) (xy 0.23478 -0.530495)
			(xy 0.236409 -0.531309) (xy 0.241213 -0.533996) (xy 0.245595 -0.536838) (xy 0.248251 -0.538915) (xy 0.251791 -0.541796)
			(xy 0.255359 -0.544122) (xy 0.255592 -0.544246) (xy 0.258147 -0.546133) (xy 0.25921 -0.548037) (xy 0.260072 -0.550046)
			(xy 0.262263 -0.552992) (xy 0.263733 -0.55461) (xy 0.266881 -0.558195) (xy 0.269471 -0.561728) (xy 0.270139 -0.562858)
			(xy 0.271671 -0.565771) (xy 0.273965 -0.57013) (xy 0.27656 -0.575053) (xy 0.276879 -0.575658) (xy 0.280748 -0.583461)
			(xy 0.283567 -0.590136) (xy 0.285179 -0.595285) (xy 0.285507 -0.597653) (xy 0.285987 -0.600183) (xy 0.287472 -0.604317)
			(xy 0.290074 -0.610353) (xy 0.291272 -0.612976) (xy 0.294023 -0.616271) (xy 0.297886 -0.617764) (xy 0.301937 -0.617117)
			(xy 0.302228 -0.616969) (xy 0.305403 -0.614069) (xy 0.308244 -0.609333) (xy 0.310356 -0.603558) (xy 0.311233 -0.59892)
			(xy 0.312445 -0.582807) (xy 0.312442 -0.568873) (xy 0.311228 -0.557164) (xy 0.308807 -0.547725) (xy 0.306981 -0.543555)
			(xy 0.305202 -0.539807) (xy 0.30411 -0.536824) (xy 0.303947 -0.535913) (xy 0.303242 -0.533501) (xy 0.301334 -0.529504)
			(xy 0.298532 -0.524491) (xy 0.295144 -0.519032) (xy 0.293224 -0.516162) (xy 0.290245 -0.51257) (xy 0.287579 -0.510689)
			(xy 0.286778 -0.510527) (xy 0.284763 -0.509732) (xy 0.28421 -0.507201) (xy 0.283246 -0.504561) (xy 0.280785 -0.501098)
			(xy 0.277472 -0.49748) (xy 0.273953 -0.494373) (xy 0.270874 -0.492445) (xy 0.269619 -0.492128) (xy 0.267577 -0.491028)
			(xy 0.266028 -0.488816) (xy 0.264319 -0.486387) (xy 0.262689 -0.485527) (xy 0.260386 -0.484596) (xy 0.259117 -0.483441)
			(xy 0.256172 -0.481904) (xy 0.253383 -0.481943) (xy 0.24802 -0.481502) (xy 0.243524 -0.478657) (xy 0.242446 -0.477404)
			(xy 0.2401 -0.475512) (xy 0.23659 -0.473825) (xy 0.23618 -0.473684) (xy 0.232764 -0.472989) (xy 0.227651 -0.472456)
			(xy 0.221538 -0.472101) (xy 0.215121 -0.471939) (xy 0.209097 -0.471985) (xy 0.204161 -0.472256) (xy 0.201009 -0.472766)
			(xy 0.200657 -0.472896) (xy 0.197411 -0.47384) (xy 0.193876 -0.474325) (xy 0.190393 -0.475044) (xy 0.185808 -0.476638)
			(xy 0.18256 -0.478074) (xy 0.17854 -0.479942) (xy 0.175416 -0.481213) (xy 0.174087 -0.481579) (xy 0.17231 -0.482294)
			(xy 0.169098 -0.484142) (xy 0.165118 -0.486674) (xy 0.161041 -0.489447) (xy 0.157536 -0.492012) (xy 0.155272 -0.493923)
			(xy 0.154868 -0.494398) (xy 0.152972 -0.495912) (xy 0.152237 -0.496059) (xy 0.150371 -0.496901) (xy 0.147569 -0.499008)
			(xy 0.146452 -0.500007) (xy 0.143786 -0.5024) (xy 0.14201 -0.503799) (xy 0.141703 -0.503948) (xy 0.141469 -0.503285)
			(xy 0.141527 -0.501104) (xy 0.141902 -0.497116) (xy 0.142619 -0.491033) (xy 0.143405 -0.484869) (xy 0.144386 -0.471968)
			(xy 0.143808 -0.460652) (xy 0.141702 -0.451092) (xy 0.138098 -0.44346) (xy 0.135415 -0.440069) (xy 0.132998 -0.437027)
			(xy 0.131668 -0.434351) (xy 0.131578 -0.433766) (xy 0.13059 -0.430513) (xy 0.127876 -0.426123) (xy 0.123815 -0.421043)
			(xy 0.118784 -0.415718) (xy 0.113161 -0.410595) (xy 0.109461 -0.407654) (xy 0.102709 -0.4031) (xy 0.096335 -0.399713)
			(xy 0.0909 -0.397765) (xy 0.088261 -0.397398) (xy 0.084792 -0.396498) (xy 0.082538 -0.395073) (xy 0.078836 -0.393276)
			(xy 0.073404 -0.392605) (xy 0.066855 -0.392989) (xy 0.059806 -0.394358) (xy 0.052869 -0.396643) (xy 0.047949 -0.399006)
			(xy 0.039977 -0.40352) (xy 0.030186 -0.394359) (xy 0.025033 -0.38969) (xy 0.019606 -0.385021) (xy 0.014794 -0.381108)
			(xy 0.013157 -0.379862) (xy 0.009423 -0.377072) (xy 0.006586 -0.374886) (xy 0.005263 -0.373777) (xy 0.003109 -0.372315)
			(xy -0.000783 -0.370471) (xy -0.00566 -0.368516) (xy -0.010767 -0.366726) (xy -0.015352 -0.365373)
			(xy -0.01866 -0.364733) (xy -0.019558 -0.364756) (xy -0.021181 -0.364717) (xy -0.024718 -0.364449)
			(xy -0.029467 -0.364006) (xy -0.030486 -0.363903) (xy -0.040576 -0.362869) (xy -0.037394 -0.357168)
			(xy -0.035479 -0.352964) (xy -0.034344 -0.348978) (xy -0.034211 -0.347649) (xy -0.033281 -0.343866)
			(xy -0.031579 -0.341448) (xy -0.029578 -0.338737) (xy -0.028948 -0.336517) (xy -0.028161 -0.333677)
			(xy -0.026406 -0.330737) (xy -0.02477 -0.327869) (xy -0.022879 -0.323396) (xy -0.021131 -0.318263)
			(xy -0.021062 -0.31803) (xy -0.019487 -0.312896) (xy -0.017997 -0.308361) (xy -0.016902 -0.305364)
			(xy -0.01686 -0.305264) (xy -0.015192 -0.300923) (xy -0.013389 -0.295578) (xy -0.011673 -0.289977)
			(xy -0.010266 -0.284867) (xy -0.00939 -0.280997) (xy -0.009211 -0.2795) (xy -0.008757 -0.276829)
			(xy -0.008041 -0.275748) (xy -0.007032 -0.274062) (xy -0.006179 -0.270957) (xy -0.00614 -0.270736)
			(xy -0.004701 -0.263053) (xy -0.002877 -0.254419) (xy -0.001554 -0.248685) (xy -0.00028 -0.24265)
			(xy 0.001191 -0.234467) (xy 0.002795 -0.224606) (xy 0.004469 -0.213539) (xy 0.006148 -0.201736) (xy 0.00777 -0.189667)
			(xy 0.00927 -0.177803) (xy 0.010586 -0.166615) (xy 0.011653 -0.156573) (xy 0.012409 -0.148148) (xy 0.012752 -0.142764)
			(xy 0.013036 -0.136463) (xy 0.013386 -0.128877) (xy 0.013739 -0.121347) (xy 0.013847 -0.119079) (xy 0.014235 -0.108992)
			(xy 0.014491 -0.098105) (xy 0.01462 -0.086757) (xy 0.014631 -0.075285) (xy 0.014529 -0.064029) (xy 0.014322 -0.053326)
			(xy 0.014017 -0.043515) (xy 0.01362 -0.034934) (xy 0.013137 -0.027922) (xy 0.012577 -0.022817) (xy 0.011945 -0.019956)
			(xy 0.011851 -0.019755) (xy 0.011302 -0.017475) (xy 0.010885 -0.013386) (xy 0.01068 -0.008311) (xy 0.010673 -0.007512)
			(xy 0.010484 -0.002301) (xy 0.010036 0.002102) (xy 0.009419 0.004846) (xy 0.009325 0.005049) (xy 0.008514 0.008268)
			(xy 0.008638 0.009984) (xy 0.008682 0.012116) (xy 0.008402 0.016337) (xy 0.007845 0.022131) (xy 0.007059 0.028982)
			(xy 0.00656 0.032894) (xy 0.005514 0.040939) (xy 0.004487 0.049009) (xy 0.003579 0.056314) (xy 0.002889 0.062064)
			(xy 0.002725 0.063493) (xy 0.001802 0.07099) (xy 0.000602 0.079746) (xy -0.000749 0.088927) (xy -0.002127 0.0977)
			(xy -0.003405 0.10523) (xy -0.004119 0.109036) (xy -0.00502 0.113789) (xy -0.006129 0.119948) (xy -0.007232 0.126321)
			(xy -0.007423 0.127457) (xy -0.008833 0.135828) (xy -0.009925 0.142135) (xy -0.010802 0.146912) (xy -0.011568 0.150691)
			(xy -0.012328 0.154005) (xy -0.013185 0.157388) (xy -0.013492 0.158552) (xy -0.01499 0.164559) (xy -0.016487 0.171101)
			(xy -0.017156 0.174276) (xy -0.01817 0.178824) (xy -0.01917 0.182507) (xy -0.019771 0.184144) (xy -0.020555 0.186373)
			(xy -0.021655 0.190366) (xy -0.022852 0.195309) (xy -0.022998 0.19596) (xy -0.024311 0.201094) (xy -0.025729 0.205492)
			(xy -0.026966 0.208273) (xy -0.027065 0.208424) (xy -0.028545 0.211873) (xy -0.028948 0.214593) (xy -0.029373 0.21719)
			(xy -0.030511 0.221591) (xy -0.032157 0.227135) (xy -0.034105 0.233161) (xy -0.03615 0.239007) (xy -0.038085 0.244011)
			(xy -0.038113 0.244078) (xy -0.039309 0.247119) (xy -0.040748 0.250979) (xy -0.04087 0.251315) (xy -0.042684 0.25524)
			(xy -0.044823 0.25849) (xy -0.04495 0.258637) (xy -0.046809 0.261964) (xy -0.047369 0.264781) (xy -0.047909 0.267078)
			(xy -0.049357 0.27107) (xy -0.051457 0.276193) (xy -0.053951 0.281881) (xy -0.056584 0.287569) (xy -0.059097 0.292693)
			(xy -0.061234 0.296687) (xy -0.062739 0.298986) (xy -0.063051 0.299275) (xy -0.064196 0.301001) (xy -0.065096 0.303784)
			(xy -0.066636 0.307629) (xy -0.06847 0.310274) (xy -0.070386 0.312864) (xy -0.07286 0.316909) (xy -0.075098 0.321039)
			(xy -0.077545 0.325374) (xy -0.079951 0.328853) (xy -0.081695 0.33064) (xy -0.083717 0.332824) (xy -0.084211 0.334475)
			(xy -0.084998 0.336606) (xy -0.087058 0.339978) (xy -0.089818 0.343698) (xy -0.093063 0.347822) (xy -0.095914 0.351611)
			(xy -0.097553 0.353947) (xy -0.100309 0.357585) (xy -0.104497 0.36238) (xy -0.10959 0.367799) (xy -0.11506 0.373311)
			(xy -0.120379 0.378381) (xy -0.125019 0.382479) (xy -0.12829 0.384967) (xy -0.1331 0.388395) (xy -0.13826 0.392547)
			(xy -0.140987 0.394975) (xy -0.144883 0.398385) (xy -0.148647 0.401269) (xy -0.150855 0.40266) (xy -0.154309 0.404652)
			(xy -0.158427 0.40731) (xy -0.159737 0.408216) (xy -0.163858 0.410507) (xy -0.167883 0.411778) (xy -0.168948 0.411878)
			(xy -0.173644 0.413229) (xy -0.176712 0.415673) (xy -0.180705 0.418581) (xy -0.185749 0.420742) (xy -0.186581 0.42097)
			(xy -0.191481 0.422469) (xy -0.19619 0.42434) (xy -0.197369 0.424913) (xy -0.201283 0.42653) (xy -0.206421 0.428114)
			(xy -0.209869 0.428938) (xy -0.214464 0.429991) (xy -0.218223 0.43105) (xy -0.219943 0.431706) (xy -0.222323 0.432448)
			(xy -0.226628 0.433354) (xy -0.232167 0.434321) (xy -0.238247 0.435243) (xy -0.244176 0.436018) (xy -0.249262 0.43654)
			(xy -0.252812 0.436707) (xy -0.253145 0.436696) (xy -0.257462 0.437075) (xy -0.261185 0.438106) (xy -0.264032 0.438717)
			(xy -0.269054 0.439232) (xy -0.275799 0.439645) (xy -0.28381 0.439951) (xy -0.292634 0.440145) (xy -0.301817 0.440222)
			(xy -0.310904 0.440176) (xy -0.319442 0.440003) (xy -0.326975 0.439697) (xy -0.33305 0.439253) (xy -0.335527 0.438959)
			(xy -0.341061 0.438022) (xy -0.345903 0.436951) (xy -0.349214 0.435938) (xy -0.349774 0.435679) (xy -0.352697 0.434645)
			(xy -0.354569 0.434672) (xy -0.356715 0.434752) (xy -0.360491 0.434275) (xy -0.364005 0.433579) (xy -0.36957 0.432311)
			(xy -0.376078 0.430828) (xy -0.380838 0.429744) (xy -0.38556 0.428531) (xy -0.389297 0.427319) (xy -0.391268 0.426362)
			(xy -0.391299 0.426333) (xy -0.393598 0.425259) (xy -0.395632 0.425) (xy -0.399634 0.42433) (xy -0.404611 0.422639)
			(xy -0.409376 0.420397) (xy -0.412518 0.418283) (xy -0.415728 0.416051) (xy -0.419674 0.414125) (xy -0.423396 0.412897)
			(xy -0.425933 0.412761) (xy -0.425967 0.412773) (xy -0.427952 0.412509) (xy -0.431693 0.411214) (xy -0.436651 0.409146)
			(xy -0.442288 0.406566) (xy -0.448065 0.403731) (xy -0.453443 0.400901) (xy -0.457884 0.398333) (xy -0.46085 0.396287)
			(xy -0.461457 0.395723) (xy -0.464177 0.393881) (xy -0.466134 0.393421) (xy -0.468656 0.392636) (xy -0.472082 0.39065)
			(xy -0.473685 0.389473) (xy -0.476808 0.387159) (xy -0.479114 0.385739) (xy -0.479724 0.385526) (xy -0.481389 0.384856)
			(xy -0.484293 0.383176) (xy -0.485456 0.382426) (xy -0.489531 0.379806) (xy -0.494286 0.376858) (xy -0.496053 0.375792)
			(xy -0.500667 0.372883) (xy -0.505262 0.369752) (xy -0.506712 0.368694) (xy -0.509894 0.366301) (xy -0.514414 0.362903)
			(xy -0.519506 0.359075) (xy -0.521843 0.357318) (xy -0.526282 0.353764) (xy -0.531429 0.349299) (xy -0.536934 0.344268)
			(xy -0.542444 0.339019) (xy -0.547608 0.333896) (xy -0.552074 0.329247) (xy -0.55549 0.325417) (xy -0.557504 0.322754)
			(xy -0.557895 0.321821) (xy -0.558797 0.319776) (xy -0.560677 0.317638) (xy -0.562698 0.315137) (xy -0.565164 0.311148)
			(xy -0.567203 0.307222) (xy -0.57132 0.296926) (xy -0.57397 0.286808) (xy -0.575233 0.277103) (xy -0.575191 0.268051)
			(xy -0.573924 0.259888) (xy -0.571513 0.252853) (xy -0.568039 0.247183) (xy -0.563582 0.243115) (xy -0.558224 0.240888)
			(xy -0.552044 0.240738) (xy -0.545314 0.242817) (xy -0.540548 0.245267) (xy -0.535353 0.248336) (xy -0.530412 0.251574)
			(xy -0.526406 0.254534) (xy -0.524017 0.256768) (xy -0.523939 0.25687) (xy -0.521766 0.258764) (xy -0.520335 0.25921)
			(xy -0.518443 0.259966) (xy -0.515146 0.261967) (xy -0.511094 0.264812) (xy -0.510289 0.265417) (xy -0.504859 0.26945)
			(xy -0.498843 0.273773) (xy -0.494156 0.277031) (xy -0.484499 0.283573) (xy -0.47677 0.288794) (xy -0.470723 0.292855)
			(xy -0.466111 0.295918) (xy -0.462689 0.298146) (xy -0.460211 0.299701) (xy -0.458432 0.300745) (xy -0.457566 0.301211)
			(xy -0.455029 0.302817) (xy -0.453948 0.304092) (xy -0.453948 0.304108) (xy -0.452859 0.305214) (xy -0.450097 0.306841)
			(xy -0.448356 0.307685) (xy -0.443681 0.310138) (xy -0.439122 0.313019) (xy -0.438232 0.313668) (xy -0.435094 0.315796)
			(xy -0.432672 0.317002) (xy -0.432164 0.317105) (xy -0.430361 0.317705) (xy -0.426921 0.319302) (xy -0.422489 0.321588)
			(xy -0.421053 0.322368) (xy -0.416589 0.324784) (xy -0.413073 0.326615) (xy -0.411084 0.327563) (xy -0.410862 0.327631)
			(xy -0.409453 0.328145) (xy -0.406308 0.3295) (xy -0.402071 0.331417) (xy -0.401504 0.331679) (xy -0.394913 0.334711)
			(xy -0.389913 0.336936) (xy -0.385719 0.338673) (xy -0.381545 0.340242) (xy -0.376605 0.341963) (xy -0.374343 0.342731)
			(xy -0.351776 0.348994) (xy -0.328231 0.352894) (xy -0.303915 0.35442) (xy -0.279035 0.353559) (xy -0.253797 0.350299)
			(xy -0.252632 0.350091) (xy -0.235904 0.346449) (xy -0.221315 0.341965) (xy -0.209037 0.336693) (xy -0.206198 0.335174)
			(xy -0.2015 0.332602) (xy -0.197357 0.33045) (xy -0.194578 0.329136) (xy -0.194356 0.329048) (xy -0.192432 0.327813)
			(xy -0.189132 0.325227) (xy -0.184987 0.321751) (xy -0.180526 0.317848) (xy -0.17628 0.313981) (xy -0.172781 0.310612)
			(xy -0.170846 0.308552) (xy -0.169602 0.307042) (xy -0.167092 0.303957) (xy -0.163699 0.299771) (xy -0.160428 0.295723)
			(xy -0.156618 0.291121) (xy -0.153355 0.287394) (xy -0.151012 0.284957) (xy -0.150013 0.28421) (xy -0.14898 0.283077)
			(xy -0.148045 0.280344) (xy -0.14803 0.280278) (xy -0.147076 0.27727) (xy -0.146029 0.275643) (xy -0.144821 0.274136)
			(xy -0.143012 0.271082) (xy -0.141943 0.269036) (xy -0.139712 0.265087) (xy -0.137456 0.261888) (xy -0.136603 0.260967)
			(xy -0.134749 0.258794) (xy -0.134211 0.257464) (xy -0.133666 0.2558) (xy -0.132189 0.252315) (xy -0.130016 0.247545)
			(xy -0.127791 0.242865) (xy -0.124685 0.236173) (xy -0.121275 0.228354) (xy -0.117713 0.219808) (xy -0.114151 0.210934)
			(xy -0.110742 0.202133) (xy -0.107638 0.193804) (xy -0.104993 0.186348) (xy -0.102957 0.180163) (xy -0.101685 0.175651)
			(xy -0.101316 0.173417) (xy -0.100578 0.170858) (xy -0.100203 0.170328) (xy -0.099416 0.168526) (xy -0.098314 0.164848)
			(xy -0.097103 0.159998) (xy -0.096777 0.158552) (xy -0.094983 0.15071) (xy -0.093293 0.14418) (xy -0.09137 0.137683)
			(xy -0.09069 0.135526) (xy -0.089965 0.13262) (xy -0.089039 0.128058) (xy -0.088104 0.122787) (xy -0.088035 0.122368)
			(xy -0.087113 0.117285) (xy -0.086173 0.113037) (xy -0.085401 0.110458) (xy -0.08533 0.110302) (xy -0.084612 0.10796)
			(xy -0.083756 0.103859) (xy -0.082938 0.098855) (xy -0.082882 0.09846) (xy -0.081839 0.091486) (xy -0.08055 0.083603)
			(xy -0.079129 0.075434) (xy -0.07769 0.067607) (xy -0.076346 0.060745) (xy -0.075212 0.055475) (xy -0.074666 0.053289)
			(xy -0.073824 0.049684) (xy -0.073511 0.047129) (xy -0.073551 0.046723) (xy -0.073549 0.044721) (xy -0.073176 0.040865)
			(xy -0.072536 0.035889) (xy -0.071735 0.030529) (xy -0.07088 0.025519) (xy -0.070075 0.021592) (xy -0.069763 0.020394)
			(xy -0.069033 0.016959) (xy -0.068323 0.012082) (xy -0.067885 0.007894) (xy -0.067385 0.002856) (xy -0.066621 -0.003759)
			(xy -0.065716 -0.010923) (xy -0.065146 -0.015132) (xy -0.064126 -0.022682) (xy -0.063078 -0.030844)
			(xy -0.062164 -0.038333) (xy -0.061806 -0.041448) (xy -0.061124 -0.047055) (xy -0.060431 -0.051893)
			(xy -0.059841 -0.055194) (xy -0.059656 -0.055922) (xy -0.059268 -0.057927) (xy -0.058945 -0.061403)
			(xy -0.05868 -0.066557) (xy -0.058466 -0.0736) (xy -0.058296 -0.082738) (xy -0.058164 -0.094183)
			(xy -0.058103 -0.101676) (xy -0.057963 -0.1093) (xy -0.057676 -0.115939) (xy -0.057276 -0.121116)
			(xy -0.056792 -0.12435) (xy -0.056563 -0.125032) (xy -0.055902 -0.128347) (xy -0.056644 -0.130384)
			(xy -0.057667 -0.133654) (xy -0.058436 -0.138623) (xy -0.058894 -0.144362) (xy -0.058981 -0.149946)
			(xy -0.05864 -0.154449) (xy -0.058256 -0.15611) (xy -0.057732 -0.159071) (xy -0.057891 -0.163381)
			(xy -0.058763 -0.169535) (xy -0.059272 -0.172372) (xy -0.060741 -0.180798) (xy -0.062019 -0.189168)
			(xy -0.063054 -0.197022) (xy -0.063793 -0.203899) (xy -0.064184 -0.209341) (xy -0.064175 -0.212886)
			(xy -0.064002 -0.213806) (xy -0.063895 -0.21633) (xy -0.06461 -0.220147) (xy -0.06519 -0.222082)
			(xy -0.066509 -0.226768) (xy -0.067779 -0.232581) (xy -0.068493 -0.236755) (xy -0.070431 -0.249076)
			(xy -0.072456 -0.260086) (xy -0.073668 -0.26579) (xy -0.074689 -0.270604) (xy -0.07581 -0.276338)
			(xy -0.07637 -0.279398) (xy -0.077058 -0.283044) (xy -0.07782 -0.286285) (xy -0.078852 -0.289749)
			(xy -0.08035 -0.29406) (xy -0.082512 -0.299844) (xy -0.084073 -0.303929) (xy -0.085596 -0.308335)
			(xy -0.086604 -0.312089) (xy -0.086848 -0.313798) (xy -0.087518 -0.316606) (xy -0.08917 -0.320211)
			(xy -0.089645 -0.321029) (xy -0.091982 -0.325383) (xy -0.09394 -0.329861) (xy -0.094077 -0.330239)
			(xy -0.094929 -0.332548) (xy -0.095988 -0.335184) (xy -0.097441 -0.338572) (xy -0.09947 -0.343133)
			(xy -0.102262 -0.349292) (xy -0.105444 -0.356254) (xy -0.107343 -0.360599) (xy -0.108696 -0.364075)
			(xy -0.109211 -0.365925) (xy -0.109747 -0.367685) (xy -0.111182 -0.371198) (xy -0.113261 -0.375854)
			(xy -0.114474 -0.378447) (xy -0.116777 -0.383422) (xy -0.118568 -0.387534) (xy -0.119593 -0.390185)
			(xy -0.119737 -0.390782) (xy -0.120249 -0.392541) (xy -0.12159 -0.395946) (xy -0.123472 -0.400263)
			(xy -0.123487 -0.400296) (xy -0.125573 -0.405153) (xy -0.127291 -0.409625) (xy -0.128189 -0.412455)
			(xy -0.129351 -0.416145) (xy -0.131093 -0.420599) (xy -0.131676 -0.421922) (xy -0.133211 -0.4257)
			(xy -0.134112 -0.428705) (xy -0.134211 -0.429472) (xy -0.134486 -0.431319) (xy -0.135398 -0.434255)
			(xy -0.137079 -0.438626) (xy -0.13966 -0.444783) (xy -0.142086 -0.450371) (xy -0.143517 -0.454144)
			(xy -0.144184 -0.456961) (xy -0.14411 -0.457846) (xy -0.144285 -0.459505) (xy -0.144647 -0.459813)
			(xy -0.145572 -0.461348) (xy -0.146981 -0.464798) (xy -0.148635 -0.46955) (xy -0.149434 -0.472075)
			(xy -0.151235 -0.477757) (xy -0.152988 -0.482957) (xy -0.154398 -0.486808) (xy -0.154766 -0.487699)
			(xy -0.156012 -0.49101) (xy -0.156576 -0.493424) (xy -0.156579 -0.493527) (xy -0.156957 -0.495907)
			(xy -0.157862 -0.499249) (xy -0.159151 -0.5037) (xy -0.160734 -0.509715) (xy -0.162361 -0.516288)
			(xy -0.163778 -0.522409) (xy -0.164465 -0.525658) (xy -0.16543 -0.529914) (xy -0.166799 -0.535261)
			(xy -0.167783 -0.538816) (xy -0.169118 -0.543607) (xy -0.170222 -0.547832) (xy -0.17073 -0.55) (xy -0.171628 -0.553038)
			(xy -0.172415 -0.554606) (xy -0.173211 -0.556384) (xy -0.174506 -0.560055) (xy -0.17608 -0.564979)
			(xy -0.17692 -0.567764) (xy -0.178575 -0.573277) (xy -0.180061 -0.578061) (xy -0.18115 -0.581387)
			(xy -0.181459 -0.582237) (xy -0.184899 -0.591718) (xy -0.187713 -0.600658) (xy -0.189056 -0.605001)
			(xy -0.190298 -0.60864) (xy -0.190776 -0.609869) (xy -0.19229 -0.613799) (xy -0.194072 -0.619014)
			(xy -0.195836 -0.624604) (xy -0.197295 -0.629657) (xy -0.198165 -0.633261) (xy -0.198216 -0.633553)
			(xy -0.199287 -0.637399) (xy -0.201074 -0.641653) (xy -0.201361 -0.642211) (xy -0.203189 -0.64631)
			(xy -0.205022 -0.651441) (xy -0.2058 -0.654053) (xy -0.207238 -0.659174) (xy -0.209037 -0.665345)
			(xy -0.210555 -0.670395) (xy -0.213148 -0.678994) (xy -0.215029 -0.685582) (xy -0.21632 -0.690647)
			(xy -0.217143 -0.694673) (xy -0.217619 -0.698146) (xy -0.217675 -0.698724) (xy -0.218625 -0.70241)
			(xy -0.220006 -0.705302) (xy -0.221289 -0.708173) (xy -0.222774 -0.712695) (xy -0.224158 -0.717935)
			(xy -0.22427 -0.718422) (xy -0.225548 -0.723806) (xy -0.226808 -0.728692) (xy -0.227789 -0.732078)
			(xy -0.227842 -0.732237) (xy -0.229991 -0.739155) (xy -0.231717 -0.74578) (xy -0.232835 -0.751339)
			(xy -0.233166 -0.754479) (xy -0.23377 -0.758634) (xy -0.234854 -0.761843) (xy -0.235901 -0.765061)
			(xy -0.23697 -0.770077) (xy -0.23795 -0.776081) (xy -0.23873 -0.78226) (xy -0.239198 -0.787804) (xy -0.239242 -0.791902)
			(xy -0.239123 -0.792914) (xy -0.239047 -0.796958) (xy -0.239695 -0.799922) (xy -0.240491 -0.803077)
			(xy -0.241202 -0.807673) (xy -0.241546 -0.811155) (xy -0.241971 -0.815779) (xy -0.242468 -0.819545)
			(xy -0.242814 -0.821213) (xy -0.243024 -0.825232) (xy -0.241753 -0.830025) (xy -0.239398 -0.834916)
			(xy -0.236352 -0.839228) (xy -0.23301 -0.842284) (xy -0.229872 -0.843408) (xy -0.227399 -0.844347)
			(xy -0.224691 -0.846598) (xy -0.224608 -0.84669) (xy -0.221337 -0.849456) (xy -0.217321 -0.851743)
			(xy -0.217041 -0.851861) (xy -0.21384 -0.852936) (xy -0.211215 -0.852921) (xy -0.207873 -0.851742)
			(xy -0.206843 -0.851288) (xy -0.203549 -0.849539) (xy -0.201571 -0.847961) (xy -0.201316 -0.847433)
			(xy -0.200224 -0.846282) (xy -0.198889 -0.846053) (xy -0.195965 -0.844983) (xy -0.193349 -0.842474)
			(xy -0.192109 -0.839577) (xy -0.192101 -0.839371) (xy -0.191449 -0.837085) (xy -0.189845 -0.83383)
			(xy -0.189435 -0.833136) (xy -0.188242 -0.830968) (xy -0.187339 -0.828616) (xy -0.186617 -0.825547)
			(xy -0.185966 -0.82123) (xy -0.185279 -0.815132) (xy -0.184817 -0.810527) (xy -0.184195 -0.805902)
			(xy -0.183148 -0.799783) (xy -0.181861 -0.793232) (xy -0.181336 -0.79079) (xy -0.180048 -0.784794)
			(xy -0.178929 -0.779246) (xy -0.178147 -0.775) (xy -0.177943 -0.773685) (xy -0.17726 -0.770213) (xy -0.176426 -0.76789)
			(xy -0.176341 -0.767764) (xy -0.175474 -0.765872) (xy -0.174207 -0.762284) (xy -0.173049 -0.758553)
			(xy -0.171307 -0.752726) (xy -0.1694 -0.74652) (xy -0.168423 -0.743422) (xy -0.166855 -0.738356)
			(xy -0.164996 -0.732132) (xy -0.163313 -0.726316) (xy -0.160856 -0.717774) (xy -0.158475 -0.709714)
			(xy -0.156334 -0.702679) (xy -0.154599 -0.697216) (xy -0.153641 -0.694418) (xy -0.1529 -0.690763)
			(xy -0.153053 -0.688005) (xy -0.152785 -0.684674) (xy -0.151282 -0.681746) (xy -0.149307 -0.678106)
			(xy -0.147727 -0.673682) (xy -0.147563 -0.673027) (xy -0.145958 -0.666362) (xy -0.144101 -0.65911)
			(xy -0.142165 -0.651903) (xy -0.140324 -0.645369) (xy -0.138749 -0.640136) (xy -0.137618 -0.636843)
			(xy -0.135987 -0.632482) (xy -0.134106 -0.626981) (xy -0.132167 -0.620961) (xy -0.130361 -0.615046)
			(xy -0.128877 -0.609857) (xy -0.127909 -0.606017) (xy -0.127632 -0.604306) (xy -0.127038 -0.601564)
			(xy -0.126432 -0.600593) (xy -0.125359 -0.598598) (xy -0.12395 -0.594829) (xy -0.122406 -0.589997)
			(xy -0.12093 -0.584813) (xy -0.119725 -0.579986) (xy -0.118992 -0.576227) (xy -0.11893 -0.574257)
			(xy -0.11878 -0.571969) (xy -0.117484 -0.568736) (xy -0.117114 -0.568073) (xy -0.115155 -0.563785)
			(xy -0.113915 -0.559341) (xy -0.113891 -0.559188) (xy -0.11304 -0.554687) (xy -0.111709 -0.548998)
			(xy -0.110075 -0.542739) (xy -0.108314 -0.536531) (xy -0.106602 -0.530993) (xy -0.105115 -0.526745)
			(xy -0.10403 -0.524406) (xy -0.103983 -0.524343) (xy -0.10315 -0.522401) (xy -0.102076 -0.518796)
			(xy -0.101338 -0.51579) (xy -0.099901 -0.510856) (xy -0.097707 -0.504892) (xy -0.095247 -0.499222)
			(xy -0.093092 -0.494254) (xy -0.091509 -0.489736) (xy -0.090802 -0.486547) (xy -0.09079 -0.486254)
			(xy -0.08957 -0.482259) (xy -0.087667 -0.48016) (xy -0.084873 -0.47723) (xy -0.082418 -0.473532)
			(xy -0.082346 -0.473392) (xy -0.080008 -0.46913) (xy -0.077588 -0.465132) (xy -0.075586 -0.461892)
			(xy -0.074174 -0.459347) (xy -0.074109 -0.459211) (xy -0.072591 -0.456967) (xy -0.070114 -0.454121)
			(xy -0.069818 -0.453817) (xy -0.066795 -0.450444) (xy -0.064232 -0.447107) (xy -0.064215 -0.447083)
			(xy -0.061293 -0.443961) (xy -0.056707 -0.440374) (xy -0.051235 -0.436836) (xy -0.045656 -0.433862)
			(xy -0.041934 -0.432335) (xy -0.037387 -0.431225) (xy -0.033051 -0.430837) (xy -0.031966 -0.430906)
			(xy -0.027207 -0.432136) (xy -0.021354 -0.43453) (xy -0.015376 -0.437616) (xy -0.010242 -0.440924)
			(xy -0.008587 -0.442252) (xy -0.006549 -0.444187) (xy -0.005222 -0.446103) (xy -0.004389 -0.448665)
			(xy -0.003829 -0.452539) (xy -0.003338 -0.458211) (xy -0.002735 -0.464004) (xy -0.00193 -0.469126)
			(xy -0.001062 -0.472771) (xy -0.000704 -0.473685) (xy 0.001606 -0.479093) (xy 0.00301 -0.484231)
			(xy 0.003286 -0.488223) (xy 0.003162 -0.488908) (xy 0.003487 -0.492026) (xy 0.004513 -0.493346) (xy 0.006254 -0.495947)
			(xy 0.006578 -0.497558) (xy 0.007732 -0.49996) (xy 0.010179 -0.501673) (xy 0.013659 -0.503655) (xy 0.01603 -0.505523)
			(xy 0.018848 -0.507309) (xy 0.023264 -0.509095) (xy 0.028268 -0.510525) (xy 0.032168 -0.51119) (xy 0.034758 -0.510471)
			(xy 0.037722 -0.508381) (xy 0.038089 -0.508023) (xy 0.04157 -0.505253) (xy 0.045307 -0.503316) (xy 0.045384 -0.50329)
			(xy 0.049156 -0.50085) (xy 0.051305 -0.497881) (xy 0.053493 -0.494489) (xy 0.056718 -0.490676) (xy 0.058223 -0.489173)
			(xy 0.061061 -0.486156) (xy 0.062845 -0.483559) (xy 0.063157 -0.482572) (xy 0.064093 -0.480108) (xy 0.065131 -0.478948)
			(xy 0.066768 -0.476343) (xy 0.067105 -0.474498) (xy 0.068145 -0.471613) (xy 0.069736 -0.470043) (xy 0.071798 -0.468207)
			(xy 0.072368 -0.466956) (xy 0.073153 -0.465069) (xy 0.075084 -0.462297) (xy 0.075498 -0.461792) (xy 0.078628 -0.458072)
			(xy 0.080614 -0.46226) (xy 0.083457 -0.468986) (xy 0.085245 -0.475299) (xy 0.086018 -0.481826) (xy 0.08582 -0.489191)
			(xy 0.084694 -0.498019) (xy 0.083512 -0.504696) (xy 0.082204 -0.511752) (xy 0.081056 -0.518271) (xy 0.080173 -0.523624)
			(xy 0.079662 -0.527182) (xy 0.079604 -0.52772) (xy 0.078965 -0.532076) (xy 0.077909 -0.537051) (xy 0.077601 -0.538247)
			(xy 0.076636 -0.541933) (xy 0.075869 -0.545271) (xy 0.075134 -0.549094) (xy 0.074262 -0.554232) (xy 0.073669 -0.557895)
			(xy 0.072312 -0.565831) (xy 0.070644 -0.574777) (xy 0.068744 -0.584373) (xy 0.066695 -0.594263) (xy 0.064575 -0.604088)
			(xy 0.062466 -0.613488) (xy 0.060448 -0.622107) (xy 0.058601 -0.629586) (xy 0.057006 -0.635566) (xy 0.055743 -0.639689)
			(xy 0.054893 -0.641597) (xy 0.054874 -0.641617) (xy 0.054054 -0.643621) (xy 0.053947 -0.644754) (xy 0.05338 -0.647397)
			(xy 0.052 -0.650862) (xy 0.051846 -0.651176) (xy 0.050614 -0.654899) (xy 0.050467 -0.65824) (xy 0.050509 -0.65843)
			(xy 0.0502 -0.661944) (xy 0.048883 -0.663636) (xy 0.047332 -0.665919) (xy 0.045473 -0.66992) (xy 0.043683 -0.674816)
			(xy 0.04352 -0.675334) (xy 0.041798 -0.680601) (xy 0.040097 -0.685398) (xy 0.038772 -0.68872) (xy 0.038728 -0.688816)
			(xy 0.036988 -0.693045) (xy 0.034723 -0.699222) (xy 0.032134 -0.706764) (xy 0.029423 -0.715091) (xy 0.027566 -0.721053)
			(xy 0.025695 -0.727132) (xy 0.023726 -0.733447) (xy 0.022145 -0.738446) (xy 0.020842 -0.742861) (xy 0.019967 -0.746484)
			(xy 0.019736 -0.74812) (xy 0.019335 -0.750261) (xy 0.018258 -0.754207) (xy 0.016699 -0.759279) (xy 0.015789 -0.762052)
			(xy 0.014045 -0.767581) (xy 0.012696 -0.772479) (xy 0.011938 -0.775999) (xy 0.011842 -0.776971) (xy 0.011402 -0.779688)
			(xy 0.010671 -0.780832) (xy 0.00966 -0.782517) (xy 0.0088 -0.785622) (xy 0.00876 -0.785844) (xy 0.007592 -0.79232)
			(xy 0.006674 -0.796653) (xy 0.005893 -0.799307) (xy 0.005139 -0.800743) (xy 0.004251 -0.802705) (xy 0.003081 -0.806362)
			(xy 0.002126 -0.809953) (xy 0.000623 -0.815772) (xy -0.001095 -0.821928) (xy -0.001963 -0.824839)
			(xy -0.003052 -0.829392) (xy -0.00348 -0.833412) (xy -0.003336 -0.835156) (xy -0.003569 -0.839184)
			(xy -0.00567 -0.84387) (xy -0.007474 -0.847674) (xy -0.009262 -0.852544) (xy -0.010842 -0.857775)
			(xy -0.012021 -0.862662) (xy -0.012606 -0.866497) (xy -0.01242 -0.868552) (xy -0.012448 -0.870544)
			(xy -0.013071 -0.871606) (xy -0.013854 -0.873828) (xy -0.01454 -0.878154) (xy -0.015112 -0.884056)
			(xy -0.015552 -0.891007) (xy -0.015844 -0.898482) (xy -0.015971 -0.905952) (xy -0.015915 -0.91289)
			(xy -0.015659 -0.918771) (xy -0.015186 -0.923067) (xy -0.014798 -0.924643) (xy -0.013551 -0.928286)
			(xy -0.012119 -0.932781) (xy -0.011778 -0.933901) (xy -0.010359 -0.937682) (xy -0.008819 -0.940441)
			(xy -0.008336 -0.94097) (xy -0.007012 -0.943302) (xy -0.006579 -0.946006) (xy -0.005975 -0.949037)
			(xy -0.003982 -0.952577) (xy -0.00033 -0.957036) (xy 0.002913 -0.96047) (xy 0.006894 -0.96341) (xy 0.011385 -0.965052)
			(xy 0.015455 -0.965119) (xy 0.016821 -0.964607) (xy 0.019898 -0.964215) (xy 0.022043 -0.964865) (xy 0.024835 -0.965558)
		)
		(stroke
			(width 0)
			(type solid)
		)
		(fill solid)
		(layer "F.SilkS")
		(uuid "744c6130-690b-40a1-b999-24a51a98bfd2")
	)
)