(footprint "eattest" (version 20211014) (generator pcbnew)
  (layer "F.Cu")
  (tedit 0)
  (attr board_only exclude_from_pos_files exclude_from_bom)
  (fp_text reference "G***" (at 0 0) (layer "F.SilkS") hide
    (effects (font (size 1.524 1.524) (thickness 0.3)))
    (tstamp 59229e80-fb79-42d2-af03-3bf0be079410)
  )
  (fp_text value "LOGO" (at 0.75 0) (layer "F.SilkS") hide
    (effects (font (size 1.524 1.524) (thickness 0.3)))
    (tstamp 6174b381-ce9b-4d8f-a420-86e539d1e0d3)
  )
  (fp_poly (pts
      (xy 1.214885 2.650177)
      (xy 1.229299 2.692486)
      (xy 1.262589 2.862222)
      (xy 1.305503 3.178081)
      (xy 1.356063 3.617254)
      (xy 1.41229 4.156927)
      (xy 1.472205 4.77429)
      (xy 1.533832 5.446532)
      (xy 1.595191 6.15084)
      (xy 1.654305 6.864404)
      (xy 1.709194 7.564413)
      (xy 1.757881 8.228054)
      (xy 1.798387 8.832516)
      (xy 1.828735 9.354989)
      (xy 1.846945 9.77266)
      (xy 1.84881 9.836031)
      (xy 1.861616 10.6394)
      (xy 1.851592 11.300233)
      (xy 1.816399 11.844086)
      (xy 1.753699 12.296512)
      (xy 1.661155 12.683064)
      (xy 1.562381 12.966253)
      (xy 1.451891 13.201635)
      (xy 1.358492 13.290316)
      (xy 1.261362 13.250629)
      (xy 1.250879 13.240542)
      (xy 1.225282 13.135423)
      (xy 1.205742 12.903786)
      (xy 1.195343 12.588419)
      (xy 1.194429 12.457375)
      (xy 1.184151 12.19141)
      (xy 1.154408 11.773294)
      (xy 1.106829 11.218888)
      (xy 1.043046 10.544055)
      (xy 0.964688 9.764657)
      (xy 0.873388 8.896557)
      (xy 0.770775 7.955617)
      (xy 0.658481 6.957699)
      (xy 0.538135 5.918666)
      (xy 0.421291 4.93662)
      (xy 0.316755 4.069255)
      (xy 0.600413 3.41262)
      (xy 0.795916 2.979566)
      (xy 0.946286 2.696906)
      (xy 1.060351 2.554528)
      (xy 1.14694 2.542322)
    ) (layer "F.Cu") (width 0) (fill solid) (tstamp 23873c21-8538-4388-9686-ad4f2263ab06))
  (fp_poly (pts
      (xy 9.891261 6.547022)
      (xy 10.120431 6.595806)
      (xy 10.370837 6.680216)
      (xy 10.678152 6.813374)
      (xy 11.07805 7.008402)
      (xy 11.352387 7.147821)
      (xy 12.378481 7.627699)
      (xy 13.373778 8.003282)
      (xy 14.316347 8.268013)
      (xy 15.184255 8.415336)
      (xy 15.691553 8.444987)
      (xy 15.93581 8.455539)
      (xy 16.05455 8.496469)
      (xy 16.091328 8.588772)
      (xy 16.092893 8.638441)
      (xy 16.054721 8.838898)
      (xy 15.958457 9.103692)
      (xy 15.829516 9.379889)
      (xy 15.693312 9.614551)
      (xy 15.57526 9.754743)
      (xy 15.549867 9.769503)
      (xy 15.415843 9.772138)
      (xy 15.161353 9.738865)
      (xy 14.829865 9.676182)
      (xy 14.63646 9.632938)
      (xy 13.763764 9.491558)
      (xy 12.815212 9.463271)
      (xy 11.779226 9.549049)
      (xy 10.644231 9.749864)
      (xy 9.398651 10.066686)
      (xy 9.370409 10.074825)
      (xy 8.700765 10.268274)
      (xy 8.501059 11.022955)
      (xy 8.217638 11.853165)
      (xy 7.835099 12.602645)
      (xy 7.367967 13.256044)
      (xy 6.83077 13.798009)
      (xy 6.238033 14.213187)
      (xy 5.604283 14.486227)
      (xy 5.129387 14.586346)
      (xy 4.889243 14.603286)
      (xy 4.683903 14.578194)
      (xy 4.454254 14.496217)
      (xy 4.141182 14.342501)
      (xy 4.124608 14.333879)
      (xy 3.764627 14.134073)
      (xy 3.390084 13.90551)
      (xy 3.029685 13.668287)
      (xy 2.71214 13.442501)
      (xy 2.466158 13.248249)
      (xy 2.320447 13.105628)
      (xy 2.293053 13.051729)
      (xy 2.332286 12.929613)
      (xy 2.461202 12.904144)
      (xy 2.696624 12.976593)
      (xy 2.966437 13.102614)
      (xy 3.322995 13.263759)
      (xy 3.707526 13.409247)
      (xy 3.947466 13.482939)
      (xy 4.231902 13.547564)
      (xy 4.45068 13.560077)
      (xy 4.685894 13.517733)
      (xy 4.915301 13.450557)
      (xy 5.626381 13.162162)
      (xy 6.333042 12.753136)
      (xy 6.971696 12.261512)
      (xy 7.097328 12.145502)
      (xy 7.426498 11.805369)
      (xy 7.717465 11.458168)
      (xy 7.947442 11.135385)
      (xy 8.093647 10.868505)
      (xy 8.135053 10.711507)
      (xy 8.070891 10.573753)
      (xy 7.915632 10.405744)
      (xy 7.725115 10.261387)
      (xy 7.612408 10.206948)
      (xy 7.593528 10.119264)
      (xy 7.659554 9.916968)
      (xy 7.736257 9.75306)
      (xy 7.95092 9.329444)
      (xy 9.068321 9.052931)
      (xy 9.522836 8.944488)
      (xy 9.957868 8.847844)
      (xy 10.326952 8.772867)
      (xy 10.58362 8.729428)
      (xy 10.602727 8.72703)
      (xy 10.835705 8.683124)
      (xy 10.973106 8.625072)
      (xy 10.99061 8.590278)
      (xy 10.905071 8.509884)
      (xy 10.709643 8.384601)
      (xy 10.458728 8.247886)
      (xy 10.038631 8.079711)
      (xy 9.593847 8.000287)
      (xy 9.087081 8.007846)
      (xy 8.481042 8.100616)
      (xy 8.276401 8.144326)
      (xy 7.96213 8.208456)
      (xy 7.715979 8.246633)
      (xy 7.580355 8.252655)
      (xy 7.568112 8.247888)
      (xy 7.561122 8.133591)
      (xy 7.626802 7.912892)
      (xy 7.750547 7.624498)
      (xy 7.917753 7.307117)
      (xy 7.932957 7.280972)
      (xy 8.245635 6.908392)
      (xy 8.669069 6.654755)
      (xy 9.186637 6.527431)
      (xy 9.647653 6.520741)
    ) (layer "F.Cu") (width 0) (fill solid) (tstamp 34fa008f-e414-417d-a2c4-006b33ef6429))
  (fp_poly (pts
      (xy 18.206675 -11.877346)
      (xy 18.240303 -11.783909)
      (xy 18.217731 -11.580629)
      (xy 18.15975 -11.311442)
      (xy 18.069682 -10.981284)
      (xy 18.01641 -10.811196)
      (xy 17.866533 -10.359263)
      (xy 16.003866 -9.65963)
      (xy 14.993947 -9.272671)
      (xy 14.050947 -8.896299)
      (xy 13.185702 -8.53564)
      (xy 12.409047 -8.195817)
      (xy 11.731818 -7.881957)
      (xy 11.16485 -7.599185)
      (xy 10.718981 -7.352624)
      (xy 10.405044 -7.147402)
      (xy 10.233876 -6.988642)
      (xy 10.204199 -6.916515)
      (xy 10.270264 -6.847798)
      (xy 10.448198 -6.709971)
      (xy 10.707614 -6.525773)
      (xy 10.902699 -6.393832)
      (xy 11.638778 -5.847162)
      (xy 12.264248 -5.263703)
      (xy 12.766189 -4.65967)
      (xy 13.131683 -4.051278)
      (xy 13.347812 -3.454744)
      (xy 13.381262 -3.28268)
      (xy 13.400619 -2.706954)
      (xy 13.297298 -2.126281)
      (xy 13.087027 -1.581884)
      (xy 12.785531 -1.114987)
      (xy 12.426049 -0.778759)
      (xy 12.112798 -0.621887)
      (xy 11.674658 -0.483144)
      (xy 11.155716 -0.369638)
      (xy 10.600056 -0.288481)
      (xy 10.051766 -0.24678)
      (xy 9.55493 -0.251645)
      (xy 9.316219 -0.277264)
      (xy 8.893906 -0.342929)
      (xy 8.743611 0.248892)
      (xy 8.485723 1.042851)
      (xy 8.135595 1.725524)
      (xy 7.670281 2.34013)
      (xy 7.582132 2.436618)
      (xy 6.921622 3.040432)
      (xy 6.205735 3.492795)
      (xy 5.57137 3.757758)
      (xy 5.127851 3.88417)
      (xy 4.766403 3.921744)
      (xy 4.42316 3.86752)
      (xy 4.034253 3.718542)
      (xy 3.957837 3.683028)
      (xy 3.612689 3.506914)
      (xy 3.265197 3.30929)
      (xy 3.04767 3.171027)
      (xy 2.819188 2.986245)
      (xy 2.690734 2.826551)
      (xy 2.671472 2.715401)
      (xy 2.770568 2.676249)
      (xy 2.859366 2.689094)
      (xy 3.320995 2.795)
      (xy 3.655339 2.865118)
      (xy 3.899772 2.903164)
      (xy 4.091669 2.912854)
      (xy 4.268406 2.897904)
      (xy 4.467358 2.862029)
      (xy 4.510366 2.853234)
      (xy 5.114072 2.672273)
      (xy 5.757461 2.382725)
      (xy 6.384176 2.015469)
      (xy 6.937864 1.601383)
      (xy 7.148481 1.407699)
      (xy 7.603172 0.909574)
      (xy 7.949141 0.431371)
      (xy 8.169379 -0.002048)
      (xy 8.218216 -0.156329)
      (xy 8.243354 -0.29137)
      (xy 8.204645 -0.358316)
      (xy 8.064215 -0.381052)
      (xy 7.858078 -0.383462)
      (xy 7.445842 -0.417287)
      (xy 7.037879 -0.50809)
      (xy 6.6872 -0.639869)
      (xy 6.446814 -0.796618)
      (xy 6.429252 -0.814841)
      (xy 6.338008 -0.956018)
      (xy 6.287562 -1.156743)
      (xy 6.26833 -1.463486)
      (xy 6.267199 -1.600631)
      (xy 6.318309 -2.123718)
      (xy 6.334176 -2.177791)
      (xy 7.028607 -2.177791)
      (xy 7.137976 -2.028196)
      (xy 7.325533 -1.933408)
      (xy 7.647994 -1.847973)
      (xy 7.880122 -1.836306)
      (xy 7.995156 -1.898386)
      (xy 8.002866 -1.933955)
      (xy 7.945893 -2.058445)
      (xy 7.803737 -2.233233)
      (xy 7.748481 -2.288831)
      (xy 7.565273 -2.442277)
      (xy 7.420089 -2.486661)
      (xy 7.261648 -2.450799)
      (xy 7.068497 -2.329468)
      (xy 7.028607 -2.177791)
      (xy 6.334176 -2.177791)
      (xy 6.460064 -2.606812)
      (xy 6.675105 -3.031447)
      (xy 6.946072 -3.379154)
      (xy 7.255606 -3.631468)
      (xy 7.586345 -3.769921)
      (xy 7.920931 -3.776046)
      (xy 8.202169 -3.659015)
      (xy 8.38664 -3.469854)
      (xy 8.574542 -3.16524)
      (xy 8.740841 -2.796642)
      (xy 8.860501 -2.41553)
      (xy 8.895368 -2.233891)
      (xy 8.941613 -1.989316)
      (xy 9.014021 -1.862535)
      (xy 9.148534 -1.80229)
      (xy 9.207057 -1.789391)
      (xy 9.552364 -1.749943)
      (xy 9.995112 -1.739977)
      (xy 10.466279 -1.75791)
      (xy 10.896848 -1.802158)
      (xy 11.067865 -1.832076)
      (xy 11.424494 -1.937272)
      (xy 11.831204 -2.103765)
      (xy 12.235248 -2.305161)
      (xy 12.583878 -2.51507)
      (xy 12.824347 -2.707099)
      (xy 12.831336 -2.714425)
      (xy 13.022518 -2.917929)
      (xy 12.79575 -3.215237)
      (xy 12.347347 -3.722068)
      (xy 11.769649 -4.247812)
      (xy 11.096372 -4.765538)
      (xy 10.361229 -5.24831)
      (xy 9.96359 -5.477756)
      (xy 9.753465 -5.655183)
      (xy 9.621068 -5.936272)
      (xy 9.606888 -5.985756)
      (xy 9.554243 -6.328538)
      (xy 9.54786 -6.744437)
      (xy 9.58326 -7.168779)
      (xy 9.655964 -7.536891)
      (xy 9.727593 -7.728307)
      (xy 9.968489 -8.060978)
      (xy 10.360099 -8.429668)
      (xy 10.889694 -8.826124)
      (xy 11.544546 -9.242095)
      (xy 12.311925 -9.669327)
      (xy 13.179102 -10.099568)
      (xy 13.860148 -10.407456)
      (xy 14.264561 -10.576483)
      (xy 14.744352 -10.765933)
      (xy 15.272988 -10.966474)
      (xy 15.823933 -11.16877)
      (xy 16.370654 -11.363487)
      (xy 16.886615 -11.541292)
      (xy 17.345283 -11.692849)
      (xy 17.720123 -11.808825)
      (xy 17.984601 -11.879886)
      (xy 18.097677 -11.898129)
    ) (layer "F.Cu") (width 0) (fill solid) (tstamp 4797bddb-6d71-42dd-b605-3fb6b4e7285e))
  (fp_poly (pts
      (xy 3.441971 -11.870577)
      (xy 3.574001 -11.67198)
      (xy 3.722224 -11.405402)
      (xy 3.725956 -11.398111)
      (xy 3.884552 -11.105488)
      (xy 4.036277 -10.85517)
      (xy 4.142442 -10.708646)
      (xy 4.223325 -10.603151)
      (xy 4.235299 -10.500556)
      (xy 4.171058 -10.34743)
      (xy 4.068397 -10.167166)
      (xy 3.989505 -10.026632)
      (xy 3.929465 -9.892505)
      (xy 3.888484 -9.744229)
      (xy 3.866766 -9.561252)
      (xy 3.864515 -9.323021)
      (xy 3.881938 -9.008981)
      (xy 3.919238 -8.598579)
      (xy 3.976621 -8.071262)
      (xy 4.054293 -7.406476)
      (xy 4.099738 -7.025004)
      (xy 4.208673 -6.089736)
      (xy 4.293518 -5.302731)
      (xy 4.355223 -4.644778)
      (xy 4.394741 -4.096668)
      (xy 4.413025 -3.639192)
      (xy 4.411026 -3.253141)
      (xy 4.389696 -2.919306)
      (xy 4.349987 -2.618477)
      (xy 4.324923 -2.481396)
      (xy 4.158442 -1.809948)
      (xy 3.941146 -1.274777)
      (xy 3.650327 -0.845174)
      (xy 3.263279 -0.490433)
      (xy 2.757296 -0.179846)
      (xy 2.54527 -0.074641)
      (xy 1.659076 0.271222)
      (xy 0.767615 0.477348)
      (xy -0.102198 0.539549)
      (xy -0.890809 0.460176)
      (xy -1.353465 0.324134)
      (xy -1.807434 0.112199)
      (xy -2.194578 -0.144578)
      (xy -2.407986 -0.350176)
      (xy -2.696847 -0.828333)
      (xy -2.869815 -1.403093)
      (xy -2.928794 -2.049418)
      (xy -2.875691 -2.742265)
      (xy -2.71241 -3.456596)
      (xy -2.440857 -4.167369)
      (xy -2.066005 -4.844837)
      (xy -1.884133 -5.101003)
      (xy -1.721999 -5.288934)
      (xy -1.611174 -5.372648)
      (xy -1.601709 -5.374004)
      (xy -1.476918 -5.327624)
      (xy -1.442744 -5.180888)
      (xy -1.500782 -4.922401)
      (xy -1.652627 -4.540766)
      (xy -1.746931 -4.336443)
      (xy -1.995449 -3.747461)
      (xy -2.129547 -3.253321)
      (xy -2.152249 -2.826876)
      (xy -2.066576 -2.440981)
      (xy -1.979635 -2.246245)
      (xy -1.665759 -1.807315)
      (xy -1.238484 -1.482216)
      (xy -0.693178 -1.269094)
      (xy -0.02521 -1.166095)
      (xy 0.714023 -1.167747)
      (xy 1.508481 -1.262301)
      (xy 2.210051 -1.439716)
      (xy 2.792702 -1.692504)
      (xy 3.00723 -1.827482)
      (xy 3.255537 -2.011107)
      (xy 3.440112 -2.17923)
      (xy 3.566836 -2.358452)
      (xy 3.641594 -2.575373)
      (xy 3.670268 -2.856596)
      (xy 3.658741 -3.228722)
      (xy 3.612896 -3.718351)
      (xy 3.548137 -4.273337)
      (xy 3.41648 -5.376366)
      (xy 3.294124 -6.425822)
      (xy 3.183342 -7.401202)
      (xy 3.086406 -8.282004)
      (xy 3.005591 -9.047727)
      (xy 2.943169 -9.677866)
      (xy 2.916433 -9.971463)
      (xy 2.878823 -10.418211)
      (xy 2.859228 -10.735404)
      (xy 2.860681 -10.962155)
      (xy 2.886216 -11.137579)
      (xy 2.938868 -11.300789)
      (xy 3.021668 -11.490901)
      (xy 3.036853 -11.524106)
      (xy 3.169209 -11.773943)
      (xy 3.287297 -11.927886)
      (xy 3.354316 -11.958684)
    ) (layer "F.Cu") (width 0) (fill solid) (tstamp 57eb7c44-a2de-46da-9943-4721bd6cd8d7))
  (fp_poly (pts
      (xy 18.228194 -11.875045)
      (xy 18.261822 -11.781608)
      (xy 18.23925 -11.578328)
      (xy 18.181269 -11.309141)
      (xy 18.091201 -10.978983)
      (xy 18.037929 -10.808895)
      (xy 17.888052 -10.356962)
      (xy 16.025385 -9.657329)
      (xy 15.015466 -9.27037)
      (xy 14.072466 -8.893998)
      (xy 13.207221 -8.533339)
      (xy 12.430566 -8.193516)
      (xy 11.753337 -7.879656)
      (xy 11.186369 -7.596884)
      (xy 10.7405 -7.350323)
      (xy 10.426563 -7.145101)
      (xy 10.255395 -6.986341)
      (xy 10.225718 -6.914214)
      (xy 10.291783 -6.845497)
      (xy 10.469717 -6.70767)
      (xy 10.729133 -6.523472)
      (xy 10.924218 -6.391531)
      (xy 11.660297 -5.844861)
      (xy 12.285767 -5.261402)
      (xy 12.787708 -4.657369)
      (xy 13.153202 -4.048977)
      (xy 13.369331 -3.452443)
      (xy 13.402781 -3.280379)
      (xy 13.422138 -2.704653)
      (xy 13.318817 -2.12398)
      (xy 13.108546 -1.579583)
      (xy 12.80705 -1.112686)
      (xy 12.447568 -0.776458)
      (xy 12.134317 -0.619586)
      (xy 11.696177 -0.480843)
      (xy 11.177235 -0.367337)
      (xy 10.621575 -0.28618)
      (xy 10.073285 -0.244479)
      (xy 9.576449 -0.249344)
      (xy 9.337738 -0.274963)
      (xy 8.915425 -0.340628)
      (xy 8.76513 0.251193)
      (xy 8.507242 1.045152)
      (xy 8.157114 1.727825)
      (xy 7.6918 2.342431)
      (xy 7.603651 2.438919)
      (xy 6.943141 3.042733)
      (xy 6.227254 3.495096)
      (xy 5.592889 3.760059)
      (xy 5.14937 3.886471)
      (xy 4.787922 3.924045)
      (xy 4.444679 3.869821)
      (xy 4.055772 3.720843)
      (xy 3.979356 3.685329)
      (xy 3.634208 3.509215)
      (xy 3.286716 3.311591)
      (xy 3.069189 3.173328)
      (xy 2.840707 2.988546)
      (xy 2.712253 2.828852)
      (xy 2.692991 2.717702)
      (xy 2.792087 2.67855)
      (xy 2.880885 2.691395)
      (xy 3.342514 2.797301)
      (xy 3.676858 2.867419)
      (xy 3.921291 2.905465)
      (xy 4.113188 2.915155)
      (xy 4.289925 2.900205)
      (xy 4.488877 2.86433)
      (xy 4.531885 2.855535)
      (xy 5.135591 2.674574)
      (xy 5.77898 2.385026)
      (xy 6.405695 2.01777)
      (xy 6.959383 1.603684)
      (xy 7.17 1.41)
      (xy 7.624691 0.911875)
      (xy 7.97066 0.433672)
      (xy 8.190898 0.000253)
      (xy 8.239735 -0.154028)
      (xy 8.264873 -0.289069)
      (xy 8.226164 -0.356015)
      (xy 8.085734 -0.378751)
      (xy 7.879597 -0.381161)
      (xy 7.467361 -0.414986)
      (xy 7.059398 -0.505789)
      (xy 6.708719 -0.637568)
      (xy 6.468333 -0.794317)
      (xy 6.450771 -0.81254)
      (xy 6.359527 -0.953717)
      (xy 6.309081 -1.154442)
      (xy 6.289849 -1.461185)
      (xy 6.288718 -1.59833)
      (xy 6.339828 -2.121417)
      (xy 6.355695 -2.17549)
      (xy 7.050126 -2.17549)
      (xy 7.159495 -2.025895)
      (xy 7.347052 -1.931107)
      (xy 7.669513 -1.845672)
      (xy 7.901641 -1.834005)
      (xy 8.016675 -1.896085)
      (xy 8.024385 -1.931654)
      (xy 7.967412 -2.056144)
      (xy 7.825256 -2.230932)
      (xy 7.77 -2.28653)
      (xy 7.586792 -2.439976)
      (xy 7.441608 -2.48436)
      (xy 7.283167 -2.448498)
      (xy 7.090016 -2.327167)
      (xy 7.050126 -2.17549)
      (xy 6.355695 -2.17549)
      (xy 6.481583 -2.604511)
      (xy 6.696624 -3.029146)
      (xy 6.967591 -3.376853)
      (xy 7.277125 -3.629167)
      (xy 7.607864 -3.76762)
      (xy 7.94245 -3.773745)
      (xy 8.223688 -3.656714)
      (xy 8.408159 -3.467553)
      (xy 8.596061 -3.162939)
      (xy 8.76236 -2.794341)
      (xy 8.88202 -2.413229)
      (xy 8.916887 -2.23159)
      (xy 8.963132 -1.987015)
      (xy 9.03554 -1.860234)
      (xy 9.170053 -1.799989)
      (xy 9.228576 -1.78709)
      (xy 9.573883 -1.747642)
      (xy 10.016631 -1.737676)
      (xy 10.487798 -1.755609)
      (xy 10.918367 -1.799857)
      (xy 11.089384 -1.829775)
      (xy 11.446013 -1.934971)
      (xy 11.852723 -2.101464)
      (xy 12.256767 -2.30286)
      (xy 12.605397 -2.512769)
      (xy 12.845866 -2.704798)
      (xy 12.852855 -2.712124)
      (xy 13.044037 -2.915628)
      (xy 12.817269 -3.212936)
      (xy 12.368866 -3.719767)
      (xy 11.791168 -4.245511)
      (xy 11.117891 -4.763237)
      (xy 10.382748 -5.246009)
      (xy 9.985109 -5.475455)
      (xy 9.774984 -5.652882)
      (xy 9.642587 -5.933971)
      (xy 9.628407 -5.983455)
      (xy 9.575762 -6.326237)
      (xy 9.569379 -6.742136)
      (xy 9.604779 -7.166478)
      (xy 9.677483 -7.53459)
      (xy 9.749112 -7.726006)
      (xy 9.990008 -8.058677)
      (xy 10.381618 -8.427367)
      (xy 10.911213 -8.823823)
      (xy 11.566065 -9.239794)
      (xy 12.333444 -9.667026)
      (xy 13.200621 -10.097267)
      (xy 13.881667 -10.405155)
      (xy 14.28608 -10.574182)
      (xy 14.765871 -10.763632)
      (xy 15.294507 -10.964173)
      (xy 15.845452 -11.166469)
      (xy 16.392173 -11.361186)
      (xy 16.908134 -11.538991)
      (xy 17.366802 -11.690548)
      (xy 17.741642 -11.806524)
      (xy 18.00612 -11.877585)
      (xy 18.119196 -11.895828)
    ) (layer "F.Mask") (width 0) (fill solid) (tstamp 2df2149c-11b3-4f82-bd30-100ef59a17ee))
  (fp_poly (pts
      (xy 1.236404 2.652478)
      (xy 1.250818 2.694787)
      (xy 1.284108 2.864523)
      (xy 1.327022 3.180382)
      (xy 1.377582 3.619555)
      (xy 1.433809 4.159228)
      (xy 1.493724 4.776591)
      (xy 1.555351 5.448833)
      (xy 1.61671 6.153141)
      (xy 1.675824 6.866705)
      (xy 1.730713 7.566714)
      (xy 1.7794 8.230355)
      (xy 1.819906 8.834817)
      (xy 1.850254 9.35729)
      (xy 1.868464 9.774961)
      (xy 1.870329 9.838332)
      (xy 1.883135 10.641701)
      (xy 1.873111 11.302534)
      (xy 1.837918 11.846387)
      (xy 1.775218 12.298813)
      (xy 1.682674 12.685365)
      (xy 1.5839 12.968554)
      (xy 1.47341 13.203936)
      (xy 1.380011 13.292617)
      (xy 1.282881 13.25293)
      (xy 1.272398 13.242843)
      (xy 1.246801 13.137724)
      (xy 1.227261 12.906087)
      (xy 1.216862 12.59072)
      (xy 1.215948 12.459676)
      (xy 1.20567 12.193711)
      (xy 1.175927 11.775595)
      (xy 1.128348 11.221189)
      (xy 1.064565 10.546356)
      (xy 0.986207 9.766958)
      (xy 0.894907 8.898858)
      (xy 0.792294 7.957918)
      (xy 0.68 6.96)
      (xy 0.559654 5.920967)
      (xy 0.44281 4.938921)
      (xy 0.338274 4.071556)
      (xy 0.621932 3.414921)
      (xy 0.817435 2.981867)
      (xy 0.967805 2.699207)
      (xy 1.08187 2.556829)
      (xy 1.168459 2.544623)
    ) (layer "F.Mask") (width 0) (fill solid) (tstamp 51f069d8-50a7-417e-987c-8d9eb262ca39))
  (fp_poly (pts
      (xy 3.46349 -11.868276)
      (xy 3.59552 -11.669679)
      (xy 3.743743 -11.403101)
      (xy 3.747475 -11.39581)
      (xy 3.906071 -11.103187)
      (xy 4.057796 -10.852869)
      (xy 4.163961 -10.706345)
      (xy 4.244844 -10.60085)
      (xy 4.256818 -10.498255)
      (xy 4.192577 -10.345129)
      (xy 4.089916 -10.164865)
      (xy 4.011024 -10.024331)
      (xy 3.950984 -9.890204)
      (xy 3.910003 -9.741928)
      (xy 3.888285 -9.558951)
      (xy 3.886034 -9.32072)
      (xy 3.903457 -9.00668)
      (xy 3.940757 -8.596278)
      (xy 3.99814 -8.068961)
      (xy 4.075812 -7.404175)
      (xy 4.121257 -7.022703)
      (xy 4.230192 -6.087435)
      (xy 4.315037 -5.30043)
      (xy 4.376742 -4.642477)
      (xy 4.41626 -4.094367)
      (xy 4.434544 -3.636891)
      (xy 4.432545 -3.25084)
      (xy 4.411215 -2.917005)
      (xy 4.371506 -2.616176)
      (xy 4.346442 -2.479095)
      (xy 4.179961 -1.807647)
      (xy 3.962665 -1.272476)
      (xy 3.671846 -0.842873)
      (xy 3.284798 -0.488132)
      (xy 2.778815 -0.177545)
      (xy 2.566789 -0.07234)
      (xy 1.680595 0.273523)
      (xy 0.789134 0.479649)
      (xy -0.080679 0.54185)
      (xy -0.86929 0.462477)
      (xy -1.331946 0.326435)
      (xy -1.785915 0.1145)
      (xy -2.173059 -0.142277)
      (xy -2.386467 -0.347875)
      (xy -2.675328 -0.826032)
      (xy -2.848296 -1.400792)
      (xy -2.907275 -2.047117)
      (xy -2.854172 -2.739964)
      (xy -2.690891 -3.454295)
      (xy -2.419338 -4.165068)
      (xy -2.044486 -4.842536)
      (xy -1.862614 -5.098702)
      (xy -1.70048 -5.286633)
      (xy -1.589655 -5.370347)
      (xy -1.58019 -5.371703)
      (xy -1.455399 -5.325323)
      (xy -1.421225 -5.178587)
      (xy -1.479263 -4.9201)
      (xy -1.631108 -4.538465)
      (xy -1.725412 -4.334142)
      (xy -1.97393 -3.74516)
      (xy -2.108028 -3.25102)
      (xy -2.13073 -2.824575)
      (xy -2.045057 -2.43868)
      (xy -1.958116 -2.243944)
      (xy -1.64424 -1.805014)
      (xy -1.216965 -1.479915)
      (xy -0.671659 -1.266793)
      (xy -0.003691 -1.163794)
      (xy 0.735542 -1.165446)
      (xy 1.53 -1.26)
      (xy 2.23157 -1.437415)
      (xy 2.814221 -1.690203)
      (xy 3.028749 -1.825181)
      (xy 3.277056 -2.008806)
      (xy 3.461631 -2.176929)
      (xy 3.588355 -2.356151)
      (xy 3.663113 -2.573072)
      (xy 3.691787 -2.854295)
      (xy 3.68026 -3.226421)
      (xy 3.634415 -3.71605)
      (xy 3.569656 -4.271036)
      (xy 3.437999 -5.374065)
      (xy 3.315643 -6.423521)
      (xy 3.204861 -7.398901)
      (xy 3.107925 -8.279703)
      (xy 3.02711 -9.045426)
      (xy 2.964688 -9.675565)
      (xy 2.937952 -9.969162)
      (xy 2.900342 -10.41591)
      (xy 2.880747 -10.733103)
      (xy 2.8822 -10.959854)
      (xy 2.907735 -11.135278)
      (xy 2.960387 -11.298488)
      (xy 3.043187 -11.4886)
      (xy 3.058372 -11.521805)
      (xy 3.190728 -11.771642)
      (xy 3.308816 -11.925585)
      (xy 3.375835 -11.956383)
    ) (layer "F.Mask") (width 0) (fill solid) (tstamp 745823f7-a5ce-4a62-b6eb-fe2697f7b216))
  (fp_poly (pts
      (xy 9.91278 6.549323)
      (xy 10.14195 6.598107)
      (xy 10.392356 6.682517)
      (xy 10.699671 6.815675)
      (xy 11.099569 7.010703)
      (xy 11.373906 7.150122)
      (xy 12.4 7.63)
      (xy 13.395297 8.005583)
      (xy 14.337866 8.270314)
      (xy 15.205774 8.417637)
      (xy 15.713072 8.447288)
      (xy 15.957329 8.45784)
      (xy 16.076069 8.49877)
      (xy 16.112847 8.591073)
      (xy 16.114412 8.640742)
      (xy 16.07624 8.841199)
      (xy 15.979976 9.105993)
      (xy 15.851035 9.38219)
      (xy 15.714831 9.616852)
      (xy 15.596779 9.757044)
      (xy 15.571386 9.771804)
      (xy 15.437362 9.774439)
      (xy 15.182872 9.741166)
      (xy 14.851384 9.678483)
      (xy 14.657979 9.635239)
      (xy 13.785283 9.493859)
      (xy 12.836731 9.465572)
      (xy 11.800745 9.55135)
      (xy 10.66575 9.752165)
      (xy 9.42017 10.068987)
      (xy 9.391928 10.077126)
      (xy 8.722284 10.270575)
      (xy 8.522578 11.025256)
      (xy 8.239157 11.855466)
      (xy 7.856618 12.604946)
      (xy 7.389486 13.258345)
      (xy 6.852289 13.80031)
      (xy 6.259552 14.215488)
      (xy 5.625802 14.488528)
      (xy 5.150906 14.588647)
      (xy 4.910762 14.605587)
      (xy 4.705422 14.580495)
      (xy 4.475773 14.498518)
      (xy 4.162701 14.344802)
      (xy 4.146127 14.33618)
      (xy 3.786146 14.136374)
      (xy 3.411603 13.907811)
      (xy 3.051204 13.670588)
      (xy 2.733659 13.444802)
      (xy 2.487677 13.25055)
      (xy 2.341966 13.107929)
      (xy 2.314572 13.05403)
      (xy 2.353805 12.931914)
      (xy 2.482721 12.906445)
      (xy 2.718143 12.978894)
      (xy 2.987956 13.104915)
      (xy 3.344514 13.26606)
      (xy 3.729045 13.411548)
      (xy 3.968985 13.48524)
      (xy 4.253421 13.549865)
      (xy 4.472199 13.562378)
      (xy 4.707413 13.520034)
      (xy 4.93682 13.452858)
      (xy 5.6479 13.164463)
      (xy 6.354561 12.755437)
      (xy 6.993215 12.263813)
      (xy 7.118847 12.147803)
      (xy 7.448017 11.80767)
      (xy 7.738984 11.460469)
      (xy 7.968961 11.137686)
      (xy 8.115166 10.870806)
      (xy 8.156572 10.713808)
      (xy 8.09241 10.576054)
      (xy 7.937151 10.408045)
      (xy 7.746634 10.263688)
      (xy 7.633927 10.209249)
      (xy 7.615047 10.121565)
      (xy 7.681073 9.919269)
      (xy 7.757776 9.755361)
      (xy 7.972439 9.331745)
      (xy 9.08984 9.055232)
      (xy 9.544355 8.946789)
      (xy 9.979387 8.850145)
      (xy 10.348471 8.775168)
      (xy 10.605139 8.731729)
      (xy 10.624246 8.729331)
      (xy 10.857224 8.685425)
      (xy 10.994625 8.627373)
      (xy 11.012129 8.592579)
      (xy 10.92659 8.512185)
      (xy 10.731162 8.386902)
      (xy 10.480247 8.250187)
      (xy 10.06015 8.082012)
      (xy 9.615366 8.002588)
      (xy 9.1086 8.010147)
      (xy 8.502561 8.102917)
      (xy 8.29792 8.146627)
      (xy 7.983649 8.210757)
      (xy 7.737498 8.248934)
      (xy 7.601874 8.254956)
      (xy 7.589631 8.250189)
      (xy 7.582641 8.135892)
      (xy 7.648321 7.915193)
      (xy 7.772066 7.626799)
      (xy 7.939272 7.309418)
      (xy 7.954476 7.283273)
      (xy 8.267154 6.910693)
      (xy 8.690588 6.657056)
      (xy 9.208156 6.529732)
      (xy 9.669172 6.523042)
    ) (layer "F.Mask") (width 0) (fill solid) (tstamp 901b26d0-b349-46a5-9511-1108cd33eb50))
  (fp_poly (pts
      (xy 7.249748 4.205112)
      (xy 7.472678 4.32268)
      (xy 7.73 4.48)
      (xy 7.971691 4.64547)
      (xy 8.147727 4.787485)
      (xy 8.200155 4.846853)
      (xy 8.22174 4.955884)
      (xy 8.170265 5.125557)
      (xy 8.034521 5.384758)
      (xy 7.912644 5.587687)
      (xy 7.732611 5.863483)
      (xy 7.577551 6.072267)
      (xy 7.473317 6.180199)
      (xy 7.454063 6.18791)
      (xy 7.344405 6.144978)
      (xy 7.133695 6.034254)
      (xy 6.864178 5.878167)
      (xy 6.817627 5.849999)
      (xy 6.549856 5.678355)
      (xy 6.345512 5.531182)
      (xy 6.242929 5.436428)
      (xy 6.238431 5.427736)
      (xy 6.269504 5.317565)
      (xy 6.378363 5.116447)
      (xy 6.537227 4.864766)
      (xy 6.718318 4.602906)
      (xy 6.893858 4.37125)
      (xy 7.036067 4.210183)
      (xy 7.111232 4.1589)
    ) (layer "Dwgs.User") (width 0) (fill solid) (tstamp 83548b2c-9921-4d0c-9dd9-bd49fa3dab74))
)
