(module martin_cu (layer F.Cu) (tedit 5E066294)
  (fp_text reference G*** (at 0 -4) (layer F.SilkS) hide
    (effects (font (size 1.524 1.524) (thickness 0.3)))
  )
  (fp_text value LOGO (at 0 6) (layer F.SilkS) hide
    (effects (font (size 1.524 1.524) (thickness 0.3)))
  )
  (fp_poly (pts (xy -2.859229 0.632353) (xy -2.824198 0.683339) (xy -2.780204 0.760264) (xy -2.730914 0.856563)
    (xy -2.679997 0.965669) (xy -2.661619 1.007644) (xy -2.617358 1.106434) (xy -2.576634 1.180217)
    (xy -2.532439 1.232636) (xy -2.477764 1.267331) (xy -2.405602 1.287942) (xy -2.308945 1.298111)
    (xy -2.180785 1.301478) (xy -2.0955 1.30175) (xy -1.974054 1.301331) (xy -1.886096 1.299269)
    (xy -1.822781 1.294358) (xy -1.775265 1.28539) (xy -1.734704 1.27116) (xy -1.692254 1.25046)
    (xy -1.68275 1.245432) (xy -1.594454 1.190446) (xy -1.517964 1.122855) (xy -1.445628 1.034257)
    (xy -1.36979 0.916247) (xy -1.34671 0.876481) (xy -1.281626 0.76797) (xy -1.229478 0.694817)
    (xy -1.186841 0.653335) (xy -1.15029 0.639838) (xy -1.130251 0.643486) (xy -1.110327 0.672204)
    (xy -1.101402 0.732783) (xy -1.102729 0.816411) (xy -1.113562 0.914278) (xy -1.133156 1.017571)
    (xy -1.160763 1.117481) (xy -1.173426 1.153324) (xy -1.25152 1.325345) (xy -1.349673 1.488292)
    (xy -1.461764 1.634404) (xy -1.581671 1.755922) (xy -1.703274 1.845088) (xy -1.731282 1.86043)
    (xy -1.855987 1.91128) (xy -1.997095 1.948775) (xy -2.13282 1.967522) (xy -2.168739 1.968684)
    (xy -2.258091 1.971644) (xy -2.355145 1.978852) (xy -2.386541 1.982216) (xy -2.497666 1.995563)
    (xy -2.497666 2.148291) (xy -2.499496 2.232047) (xy -2.504457 2.342671) (xy -2.51176 2.464878)
    (xy -2.519344 2.567976) (xy -2.564008 2.893328) (xy -2.642577 3.193931) (xy -2.754109 3.468776)
    (xy -2.89766 3.716856) (xy -3.072287 3.937162) (xy -3.277047 4.128686) (xy -3.510998 4.29042)
    (xy -3.773196 4.421357) (xy -4.062698 4.520487) (xy -4.378561 4.586804) (xy -4.412549 4.59173)
    (xy -4.520911 4.602459) (xy -4.652562 4.608951) (xy -4.794381 4.611193) (xy -4.933249 4.60917)
    (xy -5.056044 4.60287) (xy -5.148508 4.592472) (xy -5.378364 4.533805) (xy -5.588837 4.439896)
    (xy -5.776463 4.313456) (xy -5.937779 4.157198) (xy -6.069321 3.973834) (xy -6.151916 3.806689)
    (xy -6.223024 3.586293) (xy -6.269701 3.341494) (xy -6.291511 3.082765) (xy -6.288017 2.820578)
    (xy -6.258783 2.565406) (xy -6.212295 2.358053) (xy -6.171939 2.232481) (xy -6.12378 2.108718)
    (xy -6.070891 1.992152) (xy -6.016347 1.888171) (xy -5.96322 1.802162) (xy -5.914586 1.739515)
    (xy -5.873518 1.705616) (xy -5.84309 1.705855) (xy -5.841173 1.707543) (xy -5.830448 1.730459)
    (xy -5.832841 1.771788) (xy -5.849391 1.839858) (xy -5.863588 1.887459) (xy -5.930688 2.143957)
    (xy -5.972577 2.393731) (xy -5.988451 2.629104) (xy -5.977503 2.842401) (xy -5.969608 2.896608)
    (xy -5.915465 3.093656) (xy -5.824008 3.279927) (xy -5.699882 3.450286) (xy -5.547727 3.599598)
    (xy -5.372188 3.722728) (xy -5.177906 3.814542) (xy -5.122657 3.833353) (xy -4.913698 3.878077)
    (xy -4.683467 3.889325) (xy -4.435861 3.867658) (xy -4.174775 3.81364) (xy -3.904108 3.727832)
    (xy -3.648598 3.620649) (xy -3.463324 3.524576) (xy -3.29159 3.417606) (xy -3.138951 3.304226)
    (xy -3.01096 3.188927) (xy -2.913174 3.076197) (xy -2.854938 2.979228) (xy -2.83502 2.931561)
    (xy -2.821277 2.886049) (xy -2.812664 2.833569) (xy -2.808134 2.765001) (xy -2.806642 2.671225)
    (xy -2.807008 2.561167) (xy -2.812005 2.375106) (xy -2.825882 2.217306) (xy -2.851356 2.074148)
    (xy -2.891148 1.932008) (xy -2.947977 1.777267) (xy -2.978136 1.703917) (xy -3.034702 1.5591)
    (xy -3.069895 1.437656) (xy -3.084857 1.327108) (xy -3.080729 1.214978) (xy -3.058652 1.088789)
    (xy -3.041065 1.015842) (xy -3.01114 0.90948) (xy -2.97801 0.808765) (xy -2.944781 0.721534)
    (xy -2.914562 0.655623) (xy -2.890461 0.618867) (xy -2.881627 0.613871) (xy -2.859229 0.632353)) (layer F.Cu) (width 0.01))
  (fp_poly (pts (xy 1.120391 0.157521) (xy 1.168981 0.210688) (xy 1.227596 0.284782) (xy 1.290503 0.372027)
    (xy 1.351971 0.46465) (xy 1.406268 0.554877) (xy 1.427913 0.59469) (xy 1.480469 0.703358)
    (xy 1.535366 0.82926) (xy 1.582584 0.949139) (xy 1.5921 0.97569) (xy 1.661584 1.17475)
    (xy 1.660106 1.68275) (xy 1.659146 1.852398) (xy 1.657031 1.987384) (xy 1.653255 2.095372)
    (xy 1.647313 2.18403) (xy 1.638698 2.261024) (xy 1.626904 2.334018) (xy 1.612346 2.406405)
    (xy 1.548879 2.651432) (xy 1.465114 2.896539) (xy 1.365539 3.13116) (xy 1.254643 3.344725)
    (xy 1.136914 3.526667) (xy 1.136023 3.527876) (xy 1.01786 3.672406) (xy 0.880135 3.814823)
    (xy 0.730624 3.948804) (xy 0.577098 4.068025) (xy 0.427331 4.16616) (xy 0.289097 4.236885)
    (xy 0.242629 4.254771) (xy 0.175574 4.27568) (xy 0.114094 4.288162) (xy 0.049268 4.292015)
    (xy -0.027829 4.287034) (xy -0.126119 4.273014) (xy -0.254526 4.249751) (xy -0.292089 4.242524)
    (xy -0.500828 4.200663) (xy -0.705313 4.156987) (xy -0.90142 4.112585) (xy -1.085026 4.068547)
    (xy -1.25201 4.025961) (xy -1.398248 3.985918) (xy -1.519617 3.949507) (xy -1.611994 3.917817)
    (xy -1.671257 3.891939) (xy -1.693283 3.87296) (xy -1.693333 3.872227) (xy -1.681913 3.860721)
    (xy -1.645439 3.851004) (xy -1.580591 3.842779) (xy -1.484048 3.835747) (xy -1.352489 3.829613)
    (xy -1.182594 3.824078) (xy -1.143 3.822998) (xy -0.815027 3.804139) (xy -0.518697 3.764379)
    (xy -0.247608 3.701377) (xy 0.004644 3.612798) (xy 0.244462 3.496301) (xy 0.478248 3.349549)
    (xy 0.712405 3.170203) (xy 0.764192 3.126495) (xy 0.928865 2.965139) (xy 1.081603 2.776689)
    (xy 1.215724 2.571496) (xy 1.324545 2.359913) (xy 1.401381 2.152289) (xy 1.407646 2.129943)
    (xy 1.426784 2.055492) (xy 1.43449 2.002778) (xy 1.430203 1.954369) (xy 1.41336 1.892833)
    (xy 1.398538 1.847065) (xy 1.299608 1.595501) (xy 1.165007 1.333286) (xy 1.025561 1.107678)
    (xy 0.867706 0.870642) (xy 0.911209 0.645215) (xy 0.937477 0.52381) (xy 0.96769 0.407854)
    (xy 0.999525 0.304097) (xy 1.030656 0.219291) (xy 1.058758 0.160188) (xy 1.081508 0.133539)
    (xy 1.087556 0.133053) (xy 1.120391 0.157521)) (layer F.Cu) (width 0.01))
  (fp_poly (pts (xy 2.391762 -3.981061) (xy 2.417705 -3.928261) (xy 2.445682 -3.850371) (xy 2.472878 -3.755664)
    (xy 2.496479 -3.652412) (xy 2.505251 -3.604926) (xy 2.512121 -3.562993) (xy 2.518869 -3.518)
    (xy 2.525791 -3.466943) (xy 2.53318 -3.40682) (xy 2.541331 -3.334626) (xy 2.550541 -3.24736)
    (xy 2.561103 -3.142017) (xy 2.573313 -3.015594) (xy 2.587466 -2.865089) (xy 2.603856 -2.687497)
    (xy 2.622779 -2.479816) (xy 2.64453 -2.239042) (xy 2.669403 -1.962172) (xy 2.697694 -1.646203)
    (xy 2.698368 -1.638665) (xy 2.724589 -1.351286) (xy 2.751408 -1.068233) (xy 2.778423 -0.793166)
    (xy 2.805226 -0.529747) (xy 2.831414 -0.281637) (xy 2.856581 -0.052494) (xy 2.880322 0.154018)
    (xy 2.902232 0.33424) (xy 2.921907 0.484512) (xy 2.938941 0.601171) (xy 2.952929 0.680558)
    (xy 2.956929 0.698448) (xy 3.001783 0.847372) (xy 3.058268 0.982157) (xy 3.121659 1.092875)
    (xy 3.176526 1.159762) (xy 3.27038 1.225229) (xy 3.392624 1.273183) (xy 3.532588 1.30244)
    (xy 3.679607 1.311821) (xy 3.823013 1.300141) (xy 3.952139 1.26622) (xy 3.989917 1.249886)
    (xy 4.117705 1.167462) (xy 4.243904 1.046619) (xy 4.365032 0.891227) (xy 4.474078 0.71172)
    (xy 4.524583 0.62248) (xy 4.538748 0.599821) (xy 4.84238 0.599821) (xy 4.977065 0.7225)
    (xy 5.064624 0.797676) (xy 5.165623 0.877661) (xy 5.258455 0.945353) (xy 5.259917 0.946353)
    (xy 5.331284 0.992943) (xy 5.415157 1.044452) (xy 5.502903 1.095982) (xy 5.585887 1.142634)
    (xy 5.655476 1.179508) (xy 5.703036 1.201706) (xy 5.717415 1.205943) (xy 5.727741 1.187463)
    (xy 5.738916 1.140061) (xy 5.743408 1.111688) (xy 5.745163 0.980245) (xy 5.719549 0.837998)
    (xy 5.67089 0.693596) (xy 5.60351 0.555684) (xy 5.521733 0.432911) (xy 5.429883 0.333922)
    (xy 5.332284 0.267364) (xy 5.317991 0.260952) (xy 5.230683 0.246229) (xy 5.137576 0.268428)
    (xy 5.04473 0.323835) (xy 4.958209 0.408736) (xy 4.884077 0.519417) (xy 4.878319 0.530323)
    (xy 4.84238 0.599821) (xy 4.538748 0.599821) (xy 4.571278 0.547786) (xy 4.60909 0.495253)
    (xy 4.632947 0.472496) (xy 4.633565 0.472306) (xy 4.660289 0.44802) (xy 4.690166 0.395289)
    (xy 4.707079 0.353253) (xy 4.790529 0.159246) (xy 4.894129 -0.00494) (xy 5.015225 -0.13679)
    (xy 5.151168 -0.233787) (xy 5.299306 -0.293416) (xy 5.407671 -0.311489) (xy 5.485043 -0.314515)
    (xy 5.540502 -0.306253) (xy 5.593963 -0.281932) (xy 5.633899 -0.257304) (xy 5.74882 -0.162067)
    (xy 5.858506 -0.029519) (xy 5.95907 0.135343) (xy 5.994752 0.206839) (xy 6.068386 0.388367)
    (xy 6.113842 0.566577) (xy 6.134072 0.756324) (xy 6.134604 0.910763) (xy 6.130201 1.015978)
    (xy 6.122715 1.092439) (xy 6.109279 1.153726) (xy 6.087024 1.213417) (xy 6.057394 1.276371)
    (xy 6.002083 1.372059) (xy 5.931688 1.470014) (xy 5.854276 1.560991) (xy 5.777914 1.635748)
    (xy 5.710669 1.68504) (xy 5.693324 1.693544) (xy 5.587262 1.715982) (xy 5.45972 1.706727)
    (xy 5.315188 1.667517) (xy 5.158157 1.600091) (xy 4.993118 1.506187) (xy 4.82456 1.387543)
    (xy 4.751767 1.32906) (xy 4.673208 1.262155) (xy 4.61577 1.215314) (xy 4.57283 1.190659)
    (xy 4.537768 1.190317) (xy 4.503962 1.21641) (xy 4.46479 1.271065) (xy 4.413632 1.356405)
    (xy 4.354702 1.45646) (xy 4.2489 1.618933) (xy 4.144953 1.744197) (xy 4.036269 1.836522)
    (xy 3.916259 1.900181) (xy 3.778333 1.939445) (xy 3.6159 1.958588) (xy 3.577167 1.960486)
    (xy 3.423102 1.960281) (xy 3.301163 1.945717) (xy 3.26018 1.935893) (xy 3.118894 1.884208)
    (xy 3.002681 1.812816) (xy 2.906951 1.716647) (xy 2.827115 1.590627) (xy 2.758584 1.429685)
    (xy 2.732922 1.353169) (xy 2.712022 1.283263) (xy 2.694277 1.213883) (xy 2.678967 1.139462)
    (xy 2.665374 1.054433) (xy 2.652777 0.953229) (xy 2.640457 0.830283) (xy 2.627694 0.680026)
    (xy 2.613768 0.496892) (xy 2.603162 0.34925) (xy 2.57618 -0.017513) (xy 2.547443 -0.380881)
    (xy 2.517303 -0.737578) (xy 2.486115 -1.084332) (xy 2.454231 -1.417869) (xy 2.422005 -1.734914)
    (xy 2.389791 -2.032195) (xy 2.35794 -2.306438) (xy 2.326807 -2.554368) (xy 2.296745 -2.772712)
    (xy 2.268107 -2.958196) (xy 2.241246 -3.107547) (xy 2.219543 -3.205759) (xy 2.196202 -3.318291)
    (xy 2.187656 -3.408636) (xy 2.190358 -3.449176) (xy 2.21363 -3.564124) (xy 2.242039 -3.679198)
    (xy 2.273162 -3.786999) (xy 2.304582 -3.880127) (xy 2.333876 -3.951182) (xy 2.358626 -3.992765)
    (xy 2.370667 -4.0005) (xy 2.391762 -3.981061)) (layer F.Cu) (width 0.01))
  (fp_poly (pts (xy -4.450846 -0.792964) (xy -4.356246 -0.728148) (xy -4.273688 -0.67111) (xy -4.209676 -0.62638)
    (xy -4.170717 -0.598492) (xy -4.162436 -0.592075) (xy -4.165722 -0.569431) (xy -4.184333 -0.516992)
    (xy -4.214599 -0.442751) (xy -4.252852 -0.354703) (xy -4.295423 -0.26084) (xy -4.338644 -0.169157)
    (xy -4.378845 -0.087646) (xy -4.412358 -0.024303) (xy -4.435515 0.012881) (xy -4.44303 0.019296)
    (xy -4.463819 0.007062) (xy -4.512822 -0.025424) (xy -4.583752 -0.073888) (xy -4.670319 -0.134056)
    (xy -4.719238 -0.168417) (xy -4.811296 -0.23433) (xy -4.890305 -0.292842) (xy -4.950057 -0.339202)
    (xy -4.984341 -0.368659) (xy -4.990013 -0.375622) (xy -4.983832 -0.401274) (xy -4.962077 -0.45779)
    (xy -4.927758 -0.537997) (xy -4.883886 -0.634725) (xy -4.859204 -0.687259) (xy -4.721275 -0.977534)
    (xy -4.450846 -0.792964)) (layer F.Cu) (width 0.01))
  (fp_poly (pts (xy -2.068821 -1.004875) (xy -2.020462 -0.974751) (xy -1.951822 -0.930501) (xy -1.870243 -0.876999)
    (xy -1.783064 -0.819117) (xy -1.697625 -0.761729) (xy -1.621266 -0.70971) (xy -1.561327 -0.667931)
    (xy -1.525148 -0.641268) (xy -1.524988 -0.641141) (xy -1.5305 -0.620778) (xy -1.55168 -0.570728)
    (xy -1.584655 -0.498857) (xy -1.62555 -0.41303) (xy -1.670492 -0.321112) (xy -1.715607 -0.230969)
    (xy -1.757021 -0.150466) (xy -1.790859 -0.08747) (xy -1.813248 -0.049845) (xy -1.819729 -0.042708)
    (xy -1.840148 -0.054203) (xy -1.88912 -0.085663) (xy -1.96039 -0.132959) (xy -2.047704 -0.191962)
    (xy -2.100312 -0.227917) (xy -2.193229 -0.292943) (xy -2.272371 -0.350761) (xy -2.3317 -0.396765)
    (xy -2.365177 -0.426349) (xy -2.370381 -0.433916) (xy -2.362054 -0.462606) (xy -2.338918 -0.519205)
    (xy -2.304888 -0.595599) (xy -2.263877 -0.683673) (xy -2.219802 -0.775312) (xy -2.176577 -0.862402)
    (xy -2.138117 -0.936828) (xy -2.108336 -0.990475) (xy -2.091149 -1.01523) (xy -2.089561 -1.016)
    (xy -2.068821 -1.004875)) (layer F.Cu) (width 0.01))
  (fp_poly (pts (xy -1.155571 -1.173072) (xy -1.10634 -1.14243) (xy -1.037504 -1.097304) (xy -0.956468 -1.042783)
    (xy -0.870633 -0.983955) (xy -0.787403 -0.925908) (xy -0.714181 -0.873729) (xy -0.658369 -0.832508)
    (xy -0.62737 -0.807332) (xy -0.623843 -0.803405) (xy -0.628903 -0.779673) (xy -0.649381 -0.72661)
    (xy -0.681425 -0.652321) (xy -0.721185 -0.564911) (xy -0.764808 -0.472487) (xy -0.808442 -0.383153)
    (xy -0.848235 -0.305015) (xy -0.880336 -0.246179) (xy -0.900892 -0.214749) (xy -0.90505 -0.211666)
    (xy -0.927401 -0.223108) (xy -0.978037 -0.254659) (xy -1.050555 -0.302162) (xy -1.138555 -0.361459)
    (xy -1.190194 -0.396875) (xy -1.282941 -0.462104) (xy -1.362027 -0.520084) (xy -1.421393 -0.566183)
    (xy -1.454978 -0.595769) (xy -1.46026 -0.60325) (xy -1.452281 -0.631166) (xy -1.429261 -0.687205)
    (xy -1.395159 -0.76323) (xy -1.353931 -0.851101) (xy -1.309534 -0.942681) (xy -1.265927 -1.02983)
    (xy -1.227066 -1.104412) (xy -1.196909 -1.158286) (xy -1.179412 -1.183316) (xy -1.177796 -1.184143)
    (xy -1.155571 -1.173072)) (layer F.Cu) (width 0.01))
)
